ffdiv_32bit/ffdiv_32bit_intf/run_cad/ffdiv_32bit_tb.vcd
$date
    Sep  8, 2019  12:57:53
$end
$version
    TOOL:	ncsim(64)	15.20-s060
$end
$timescale
    1 ns
$end

$scope module ffdiv_32bit_tb $end
$var reg       1 !    clk  $end
$var reg       1 "    rst_n  $end
$var reg       1 #    en  $end
$var reg      32 $    operand1 [31:0] $end
$var reg      32 %    operand2 [31:0] $end
$var reg       5 &    itr_count [4:0] $end
$var reg      32 '    result [31:0] $end
$var reg       5 (    flag [4:0] $end
$var reg       1 )    ready  $end
$var real     64 *    op1  $end
$var real     64 +    op2  $end
$var reg      32 ,    soft_division [31:0] $end
$var reg      32 -    error [31:0] $end
$var integer  32 .    count_sum  $end
$var integer  32 /    count_run  $end
$var integer  32 0    run_count  $end

$scope module test_bus $end
$var wire      1 1    clk  $end
$var wire      1 2    rst_n  $end
$var wire      1 3    en  $end
$var wire     32 4    operand1 [31:0] $end
$var wire     32 5    operand2 [31:0] $end
$var reg       5 6    itr_count [4:0] $end
$var reg      32 7    result [31:0] $end
$var reg       5 8    flag [4:0] $end
$var reg       1 9    ready  $end
$var reg       1 :    sign1  $end
$var reg       1 ;    sign2  $end
$var reg       9 <    unb_exp1 [8:0] $end
$var reg       9 =    unb_exp2 [8:0] $end
$var reg      24 >    sgfnd1 [23:0] $end
$var reg      24 ?    sgfnd2 [23:0] $end
$var reg       1 @    is_denorm1  $end
$var reg       1 A    is_denorm2  $end
$var reg       1 B    is_norm1  $end
$var reg       1 C    is_norm2  $end
$var reg      32 D    res_nan [31:0] $end
$var reg       1 E    res_indet  $end
$var reg       1 F    res_inf  $end
$var reg       1 G    res_zero  $end
$var reg       1 H    dec_valid  $end
$var reg       1 I    sign  $end
$var reg       8 J    exp [7:0] $end
$var reg      23 K    frac [22:0] $end
$var reg       1 L    nanf  $end
$var reg       1 M    ovf  $end
$var reg       1 N    inf  $end
$var reg       1 O    uf  $end
$var reg       1 P    zf  $end
$upscope $end


$scope module ffdiv32bit $end

$scope module ffdiv_bus $end
$var wire      1 1    clk  $end
$var wire      1 2    rst_n  $end
$var wire      1 3    en  $end
$var wire     32 4    operand1 [31:0] $end
$var wire     32 5    operand2 [31:0] $end
$var reg       5 Q    itr_count [4:0] $end
$var reg      32 R    result [31:0] $end
$var reg       5 S    flag [4:0] $end
$var reg       1 T    ready  $end
$var reg       1 U    sign1  $end
$var reg       1 V    sign2  $end
$var reg       9 W    unb_exp1 [8:0] $end
$var reg       9 X    unb_exp2 [8:0] $end
$var reg      24 Y    sgfnd1 [23:0] $end
$var reg      24 Z    sgfnd2 [23:0] $end
$var reg       1 [    is_denorm1  $end
$var reg       1 \    is_denorm2  $end
$var reg       1 ]    is_norm1  $end
$var reg       1 ^    is_norm2  $end
$var reg      32 _    res_nan [31:0] $end
$var reg       1 `    res_indet  $end
$var reg       1 a    res_inf  $end
$var reg       1 b    res_zero  $end
$var reg       1 c    dec_valid  $end
$var reg       1 d    sign  $end
$var reg       8 e    exp [7:0] $end
$var reg      23 f    frac [22:0] $end
$var reg       1 g    nanf  $end
$var reg       1 h    ovf  $end
$var reg       1 i    inf  $end
$var reg       1 j    uf  $end
$var reg       1 k    zf  $end
$upscope $end


$scope module decoder $end
$var reg       1 l    dec_state [0:0] $end
$var reg       1 m    dec_nxt_state [0:0] $end
$var reg       1 n    is_snan_1  $end
$var reg       1 o    is_snan_2  $end
$var reg       1 p    is_qnan_1  $end
$var reg       1 q    is_qnan_2  $end
$var reg       1 r    is_inf_1  $end
$var reg       1 s    is_inf_2  $end
$var reg       1 t    is_zero_1  $end
$var reg       1 u    is_zero_2  $end
$var reg       1 v    is_norm_1  $end
$var reg       1 w    is_norm_2  $end
$var reg       1 x    is_denorm_1  $end
$var reg       1 y    is_denorm_2  $end
$var reg       1 z    is_finite_1  $end
$var reg       1 {    is_finite_2  $end
$var reg       1 |    op1_sign  $end
$var reg       1 }    op2_sign  $end
$var reg       8 ~    op1_exp [7:0] $end
$var reg       8 !!   op2_exp [7:0] $end
$var reg      24 "!   op1_sgfnd [23:0] $end
$var reg      24 #!   op2_sgfnd [23:0] $end
$var reg       5 $!   ffdiv_exp1_shift [4:0] $end
$var reg       5 %!   ffdiv_exp2_shift [4:0] $end
$upscope $end


$scope module divider $end
$var reg       3 &!   ffdiv_state [2:0] $end
$var reg       3 '!   ffdiv_nxt_state [2:0] $end
$var reg      48 (!   div_i [47:0] $end
$var reg      45 )!   div_i_low [44:0] $end
$var reg      48 *!   qnt_i [47:0] $end
$var reg      45 +!   qnt_i_low [44:0] $end
$var reg      48 ,!   prev_qnt [47:0] $end
$var reg      48 -!   qnt_diff [47:0] $end
$var reg      25 .!   qnt_rounded [24:0] $end
$var reg       1 /!   is_operands_finite  $end
$var reg       1 0!   ffdiv_res_sign  $end
$var reg       9 1!   ffdiv_unb_exp [8:0] $end
$var reg       5 2!   ffdiv_dnrm_frc_shift [4:0] $end
$var reg       1 3!   ffdiv_sgfcnd_cmp  $end
$var reg       1 4!   is_ffdiv_res_nan  $end
$var reg       1 5!   is_ffdiv_negexp_ovf  $end
$var reg       1 6!   is_ffdiv_posexp_ovf  $end
$var reg       1 7!   is_ffdiv_res_denorm  $end
$upscope $end

$upscope $end


$scope task ff_div $end
$var reg      32 8!   opr1 [31:0] $end
$var reg      32 9!   opr2 [31:0] $end
$upscope $end

$upscope $end

$enddefinitions $end
$dumpvars
0!
0"
0#
b0 $
b0 %
b0 &
b0 '
b0 (
0)
r0 *
r0 +
b0 ,
b0 -
b0 .
b0 /
b101 0
01
02
03
b0 4
b0 5
b0 6
b0 7
b0 8
09
x:
x;
bx <
bx =
bx >
bx ?
x@
xA
xB
xC
bx D
xE
xF
xG
xH
xI
bx J
bx K
xL
xM
xN
xO
xP
b0 Q
b0 R
b0 S
0T
0U
0V
b0 W
b0 X
b0 Y
b0 Z
0[
0\
0]
0^
b0 _
0`
0a
0b
0c
0d
b0 e
b0 f
0g
0h
0i
0j
0k
0l
0m
0n
0o
0p
0q
0r
0s
0t
0u
0v
0w
0x
0y
0z
0{
0|
0}
b0 ~
b0 !!
b0 "!
b0 #!
b0 $!
b0 %!
b0 &!
b0 '!
b0 (!
b0 )!
b0 *!
b0 +!
b0 ,!
b0 -!
b0 .!
0/!
00!
b0 1!
b0 2!
03!
04!
05!
06!
07!
bx 8!
bx 9!
$end
#5
1!
11
#10
0!
01
#15
1!
11
#20
0!
01
#25
1!
11
#30
0!
b10000000000000000000000000000001 8!
b10000000000010100000000000000000 9!
01
1#
1"
12
13
1m
1u
1t
#35
1!
11
b10000000000000000000000000000001 $
b10000000000010100000000000000000 %
b110101110011001100110011001101 ,
r1.060997895976702e-314 *
r1.061321686344295e-314 +
1l
b10000000000010100000000000000000 5
b10000000000000000000000000000001 4
1y
0u
b10100000000000000000 #!
1}
1x
0t
b1 "!
1|
1{
b10111 $!
b100 %!
1z
#40
0!
01
1U
1V
b101101011 W
b101111110 X
b100000000000000000000000 Y
b101000000000000000000000 Z
1[
1\
1c
13!
1/!
b1 '!
#45
1!
11
b1 &!
b10 '!
#50
0!
01
b10000000000000000000000000000000000000000000000 *!
b1010000000000000000000000000000000000000000000 (!
b111111111111111111111111111111111111111111111111 ,!
b111111111111111111111111111111111111111111111111 -!
b111101100 1!
#55
1!
11
b10 &!
#60
0!
01
b1 Q
b10000000000000000000000000000000000000000000000 ,!
b101111111111111111111111111111111111111111111111 -!
b111100000000000000000000000000000000000000000 (!
b1100000000000000000000000000000000000000000000 *!
b1 6
b1 &
#65
1!
11
#70
0!
01
b10 Q
b1100000000000000000000000000000000000000000000 ,!
b11100000000000000000000000000000000000000000000 -!
b111111110000000000000000000000000000000000000 (!
b1100110000000000000000000000000000000000000000 *!
b10 6
b10 &
#75
1!
11
#80
0!
01
b11 Q
b1100110000000000000000000000000000000000000000 ,!
b110000000000000000000000000000000000000000 -!
b111111111111111100000000000000000000000000000 (!
b1100110011001100000000000000000000000000000000 *!
b11 6
b11 &
#85
1!
11
#90
0!
01
b100 Q
b1100110011001100000000000000000000000000000000 ,!
b11001100000000000000000000000000000000 -!
b111111111111111111111111111111110000000000000 (!
b1100110011001100110011001100110000000000000000 *!
b100 6
b100 &
#95
1!
11
#100
0!
01
b101 Q
b1100110011001100110011001100110000000000000000 ,!
b110011001100110000000000000000 -!
b111111111111111111100000000000000000000000000 )!
b111111111111111111111111111111111111111111111 (!
b1100110011001100000000000000000000000000000 +!
b1100110011001100110011001100110011001100110011 *!
b101 6
b101 &
#105
1!
11
#110
0!
01
b110 Q
b1100110011001100110011001100110011001100110011 ,!
b11001100110011 -!
b111111111111111111111111111111111111111111111 )!
b100110011001100110011001100110011001100110011 +!
b1100110011001100110011001100110011001100110100 *!
b11 '!
b110 6
b110 &
#115
1!
11
b11 &!
b100 '!
#120
0!
01
b110011001100110011001100 .!
#125
1!
11
b100 &!
b0 '!
b10110 2!
1T
0m
19
1)
#130
0!
01
b1101011 e
b10011001100110011001100 f
#135
1!
11
b0 &!
0l
b110101110011001100110011001100 R
b1 '!
b0 2!
0T
b0 $!
b0 %!
1m
09
b110101110011001100110011001100 7
b110101110011001100110011001100 '
0)
b10000000100010000100000010000010 8!
b10000000100100100100000010000001 9!
b1011 .
b1 /
#140
0!
01
b0 1!
b0 Q
b0 e
b0 f
0c
b0 '!
b0 6
b0 &
#145
1!
11
b10000000100010000100000010000010 $
b10000000100100100100000010000001 %
b111111011011100111111011111001 ,
r1.065409610201267e-314 *
r1.06573340056886e-314 +
1l
b10111 $!
b100 %!
b10000000100100100100000010000001 5
b10000000100010000100000010000010 4
1w
0y
b100100100100000010000001 #!
b1 !!
1v
0x
b100010000100000010000010 "!
b1 ~
b0 $!
b0 %!
#150
0!
01
b110000010 W
b110000010 X
b100010000100000010000010 Y
b100100100100000010000001 Z
0[
0\
1]
1^
1c
b1 '!
#155
1!
11
b1 &!
b10 '!
#160
0!
01
b10001000010000001000001000000000000000000000000 *!
b1001001001000000100000010000000000000000000000 (!
b111111111111111111111111111111111111111111111111 ,!
b111111111111111111111111111111111111111111111111 -!
b111111111 1!
#165
1!
11
b10 &!
#170
0!
01
b1 Q
b10001000010000001000001000000000000000000000000 ,!
b101110111101111110111110111111111111111111111111 -!
b100000000000000000000000000000000000000000000 )!
b111110101100101101110110011011001111101111111 (!
b0 +!
b1110100110100101100011000100101111111001111110 *!
b1 6
b1 &
#175
1!
11
#180
0!
01
b10 Q
b1110100110100101100011000100101111111001111110 ,!
b11111100100100100100010000100101111111001111110 -!
b111010111100000000111001110101111111011111111 )!
b111111111110010011100111110110000001010000101 (!
b101011101000100011110100111010111110101111110 +!
b1110111001100101101110110011100110111011000110 *!
b10 6
b10 &
#185
1!
11
#190
0!
01
b11 Q
b1110111001100101101110110011100110111011000110 ,!
b11111000000001101110111001001000010111000 -!
b100101111011111110111001010111010011011100111 )!
b111111111111111111111101001000011110010101001 (!
b11001110010001101110000001110011100100010 +!
b1110111001111110111101100111001100110000110111 *!
b11 6
b11 &
#195
1!
11
#200
0!
01
b100 Q
b1110111001111110111101100111001100110000110111 ,!
b11011010011010100101010001011110001 -!
b111110001101110001011000110000101100001101111 )!
b111111111111111111111111111111111111111111110 (!
b101110111010001110111011001000100101110110001 +!
b1110111001111110111110010001111100011001110001 *!
b100 6
b100 &
#205
1!
11
#210
0!
01
b101 Q
b1110111001111110111110010001111100011001110001 ,!
b11110110110000101001000110 -!
b111111111111111111111111111111111111111111100 )!
b111111111111111111111111111111111111111111111 (!
b101110011111101111100100011111000110011100010 +!
b1110111001111110111110010001111100011001110100 *!
b101 6
b101 &
#215
1!
11
#220
0!
01
b110 Q
b1110111001111110111110010001111100011001110100 ,!
b101 -!
b111111111111111111111111111111111111111111111 )!
b110111001111110111110010001111100011001110100 +!
b1110111001111110111110010001111100011001110101 *!
b11 '!
b110 6
b110 &
#225
1!
11
b11 &!
b100 '!
#230
0!
01
b111011100111111011111001 .!
#235
1!
11
b100 &!
b0 '!
b11 2!
1T
0m
19
1)
#240
0!
01
b1111110 e
b11011100111111011111001 f
#245
1!
11
b0 &!
0l
b111111011011100111111011111001 R
b1 '!
b0 2!
0T
1m
09
b111111011011100111111011111001 7
b111111011011100111111011111001 '
0)
b10000001000100001000000100000011 8!
b10000001000110101000000100000010 9!
b10110 .
b10 /
#250
0!
01
b0 1!
b0 Q
b0 e
b0 f
0c
b0 '!
b0 6
b0 &
#255
1!
11
b10000001000100001000000100000011 $
b10000001000110101000000100000010 %
b111111011011110110111001001101 ,
r1.069821324425833e-314 *
r1.070145114793426e-314 +
1l
b10000001000110101000000100000010 5
b10000001000100001000000100000011 4
b100110101000000100000010 #!
b10 !!
b100100001000000100000011 "!
b10 ~
#260
0!
01
b110000011 W
b110000011 X
b100100001000000100000011 Y
b100110101000000100000010 Z
1c
b1 '!
#265
1!
11
b1 &!
b10 '!
#270
0!
01
b10010000100000010000001100000000000000000000000 *!
b1001101010000001000000100000000000000000000000 (!
b111111111111111111111111111111111111111111111111 ,!
b111111111111111111111111111111111111111111111111 -!
b111111111 1!
#275
1!
11
b10 &!
#280
0!
01
b1 Q
b10010000100000010000001100000000000000000000000 ,!
b101101111011111101111110011111111111111111111111 -!
b0 )!
b111101010000011000101010010100111110111111110 (!
b0 +!
b1110010100101010010101000011100111101011111010 *!
b1 6
b1 &
#285
1!
11
#290
0!
01
b10 Q
b1110010100101010010101000011100111101011111010 ,!
b11100010000101000010100100011100111101011111010 -!
b111101110100111111111001001011111011111111100 )!
b111111111000011110000111011111010011001110101 (!
b110100010011000011011010100011110100111110100 +!
b1110111011111101101000001111011001011010010110 *!
b10 6
b10 &
#295
1!
11
#300
0!
01
b11 Q
b1110111011111101101000001111011001011010010110 ,!
b101111010111111101001100111110110001101100 -!
b101100010110001100101010011100000111010000111 )!
b111111111111111111000111010011101100110010100 (!
b11101010000100110110001010101110100101110010 +!
b1110111101101110000110000101101011001100110101 *!
b11 6
b11 &
#305
1!
11
#310
0!
01
b100 Q
b1110111101101110000110000101101011001100110101 ,!
b110010011101110001010110010010110100011 -!
b1111111101101110111101010111100001001110000 )!
b111111111111111111111111111111111111001101110 (!
b110110101110111001001101110110111100001011100 +!
b1110111101101110010011010110000010011101010100 *!
b100 6
b100 &
#315
1!
11
#320
0!
01
b101 Q
b1110111101101110010011010110000010011101010100 ,!
b10101010011101001010001100001 -!
b111111111111111111111111111011000100010111100 )!
b111111111111111111111111111111111111111111111 (!
b111101100110101100000011011011100000111101000 +!
b1110111101101110010011010110000010101001000011 *!
b101 6
b101 &
#325
1!
11
#330
0!
01
b110 Q
b1110111101101110010011010110000010101001000011 ,!
b110100010111 -!
b111111111111111111111111111111111111111111111 )!
b110111101101110010011010110000010101001000011 +!
b1110111101101110010011010110000010101001000100 *!
b11 '!
b110 6
b110 &
#335
1!
11
b11 &!
b100 '!
#340
0!
01
b111011110110111001001110 .!
#345
1!
11
b100 &!
b0 '!
b11 2!
1T
0m
19
1)
#350
0!
01
b1111110 e
b11011110110111001001110 f
#355
1!
11
b0 &!
0l
b111111011011110110111001001110 R
b1 '!
b0 2!
0T
1m
09
b111111011011110110111001001110 7
b111111011011110110111001001110 '
0)
b10000001100110001100000110000100 8!
b10000001101000101100000110000011 9!
b100001 .
b11 /
#360
0!
01
b0 1!
b0 Q
b0 e
b0 f
0c
b0 '!
b0 6
b0 &
#365
1!
11
b10000001100110001100000110000100 $
b10000001101000101100000110000011 %
b111111011100000100010101011101 ,
r1.074233038650399e-314 *
r1.074556829017992e-314 +
1l
b10000001101000101100000110000011 5
b10000001100110001100000110000100 4
b101000101100000110000011 #!
b11 !!
b100110001100000110000100 "!
b11 ~
#370
0!
01
b110000100 W
b110000100 X
b100110001100000110000100 Y
b101000101100000110000011 Z
1c
b1 '!
#375
1!
11
b1 &!
b10 '!
#380
0!
01
b10011000110000011000010000000000000000000000000 *!
b1010001011000001100000110000000000000000000000 (!
b111111111111111111111111111111111111111111111111 ,!
b111111111111111111111111111111111111111111111111 -!
b111111111 1!
#385
1!
11
b10 &!
#390
0!
01
b1 Q
b10011000110000011000010000000000000000000000000 ,!
b101100111001111100111101111111111111111111111111 -!
b100000000000000000000000000000000000000000000 )!
b111011010010000000011011101101001101101111011 (!
b0 +!
b1101111010001110010110011010000111010101110100 *!
b1 6
b1 &
#395
1!
11
#400
0!
01
b10 Q
b1101111010001110010110011010000111010101110100 ,!
b11110111100001101010100011010000111010101110100 -!
b11011100111101101010001011011101001011100111 )!
b111111101001101111000000000101011110100001101 (!
b10000111111011111101001110100101010101000100 +!
b1110111011110111000000000110011101100101110010 *!
b10 6
b10 &
#405
1!
11
#410
0!
01
b11 Q
b1110111011110111000000000110011101100101110010 ,!
b11000001111001010110011100011010110000000110 -!
b1010100111001010000001011111100110101010111 )!
b111111111111111000010000001111100010110011111 (!
b110110111001100000110010000101100101100110110 +!
b1111000001000011100010111000110101000010011101 *!
b11 6
b11 &
#415
1!
11
#420
0!
01
b100 Q
b1111000001000011100010111000110101000010011101 ,!
b1111010110100100010111110101000100111101111 -!
b110111110010011100101111111110011100111111 )!
b111111111111111111111111111111000011111111110 (!
b11000011100011111001011111010001110101111101 +!
b1111000001000101010111001101010111000110010001 *!
b100 6
b100 &
#425
1!
11
#430
0!
01
b101 Q
b1111000001000101010111001101010111000110010001 ,!
b110110101110101100010000100001100 -!
b111111111111111000111101111100001111111111100 )!
b111111111111111111111111111111111111111111111 (!
b110010000001110111011101001101101101100100010 +!
b1111000001000101010111001101100101001011010101 *!
b101 6
b101 &
#435
1!
11
#440
0!
01
b110 Q
b1111000001000101010111001101100101001011010101 ,!
b110010001101000100 -!
b111111111111111111111111111111111111111111111 )!
b111000001000101010111001101100101001011010101 +!
b1111000001000101010111001101100101001011010110 *!
b11 '!
b110 6
b110 &
#445
1!
11
b11 &!
b100 '!
#450
0!
01
b111100000100010101011100 .!
#455
1!
11
b100 &!
b0 '!
b11 2!
1T
0m
19
1)
#460
0!
01
b1111110 e
b11100000100010101011100 f
#465
1!
11
b0 &!
0l
b111111011100000100010101011100 R
b1 '!
b0 2!
0T
1m
09
b111111011100000100010101011100 7
b111111011100000100010101011100 '
0)
b10000010001000010000001000000101 8!
b10000010001010110000001000000100 9!
b101100 .
b100 /
#470
0!
01
b0 1!
b0 Q
b0 e
b0 f
0c
b0 '!
b0 6
b0 &
#475
1!
11
b10000010001000010000001000000101 $
b10000010001010110000001000000100 %
b111111011100010000011110101011 ,
r1.078644752874964e-314 *
r1.078968543242557e-314 +
1l
b10000010001010110000001000000100 5
b10000010001000010000001000000101 4
b101010110000001000000100 #!
b100 !!
b101000010000001000000101 "!
b100 ~
#480
0!
01
b110000101 W
b110000101 X
b101000010000001000000101 Y
b101010110000001000000100 Z
1c
b1 '!
#485
1!
11
b1 &!
b10 '!
#490
0!
01
b10100001000000100000010100000000000000000000000 *!
b1010101100000010000001000000000000000000000000 (!
b111111111111111111111111111111111111111111111111 ,!
b111111111111111111111111111111111111111111111111 -!
b111111111 1!
#495
1!
11
b10 &!
#500
0!
01
b1 Q
b10100001000000100000010100000000000000000000000 ,!
b101011110111111011111101011111111111111111111111 -!
b0 )!
b111000110001100101001010100011111011111111000 (!
b0 +!
b1101010111010001100111001000001110110111101100 *!
b1 6
b1 &
#505
1!
11
#510
0!
01
b10 Q
b1101010111010001100111001000001110110111101100 ,!
b11001011111010101100101101000001110110111101100 -!
b110101000001110110100110111110111111111000000 )!
b111111001011110010111000011001001110101110100 (!
b11011111000100111110110111101100111101100000 +!
b1110110111110101001110110111111110110011001001 *!
b10 6
b10 &
#515
1!
11
#520
0!
01
b11 Q
b1110110111110101001110110111111110110011001001 ,!
b11100000100100101001111111110000000100100101 -!
b1101100101000000100010010001000001101110000 )!
b111111111111010101011010101000111100111001010 (!
b10010010000001000101111001010110111111101100 +!
b1111000011111101101001001110111111101110100101 *!
b11 6
b11 &
#525
1!
11
#530
0!
01
b100 Q
b1111000011111101101001001110111111101110100101 ,!
b1110100001000100111111001000001011101101100 -!
b100001001001111111101011111110110110010011100 )!
b111111111111111111111111100011101010100111111 (!
b110111011110111010011100101100111001011001110 +!
b1111000100000111101010101000001010100101001011 *!
b100 6
b100 &
#535
1!
11
#540
0!
01
b101 Q
b1111000100000111101010101000001010100101001011 ,!
b111111010000011100110110101001011101110 -!
b111110011011101001011110000000001101001111111 )!
b111111111111111111111111111111111111111111111 (!
b100101111100110000000111111111110111110001011 +!
b1111000100000111101010101110110101011010100011 *!
b101 6
b101 &
#545
1!
11
#550
0!
01
b110 Q
b1111000100000111101010101110110101011010100011 ,!
b110111111111111101000 -!
b111111111111111111111111111111111111111111111 )!
b111000100000111101010101110110101011010100011 +!
b1111000100000111101010101110110101011010100100 *!
b11 '!
b110 6
b110 &
#555
1!
11
b11 &!
b100 '!
#560
0!
01
b111100010000011110101010 .!
#565
1!
11
b100 &!
b0 '!
b11 2!
1T
0m
19
1)
#570
0!
01
b1111110 e
b11100010000011110101010 f
#575
1!
11
b0 &!
0l
b111111011100010000011110101010 R
b1 '!
b0 2!
0T
1m
09
b111111011100010000011110101010 7
b111111011100010000011110101010 '
0)
b11000001000100000000000000000000 8!
b11000000010000000000000000000000 9!
b110111 .
b101 /
#580
0!
01
b0 1!
b0 Q
b0 e
b0 f
0c
b0 '!
b0 6
b0 &
#585
1!
11
b11000001000100000000000000000000 $
b11000000010000000000000000000000 %
b1000000010000000000000000000000 ,
r1.600303954661066e-314 *
r1.593569104738569e-314 +
1l
b11000000010000000000000000000000 5
b11000001000100000000000000000000 4
b110000000000000000000000 #!
b10000000 !!
b100100000000000000000000 "!
b10000010 ~
#590
0!
01
b11 W
b1 X
b100100000000000000000000 Y
b110000000000000000000000 Z
1c
b1 '!
#595
1!
11
b1 &!
b10 '!
#600
0!
01
b10010000000000000000000000000000000000000000000 *!
b1100000000000000000000000000000000000000000000 (!
b111111111111111111111111111111111111111111111111 ,!
b111111111111111111111111111111111111111111111111 -!
b1 1!
#605
1!
11
b10 &!
#610
0!
01
b1 Q
b10010000000000000000000000000000000000000000000 ,!
b101101111111111111111111111111111111111111111111 -!
b0 )!
b110000000000000000000000000000000000000000000 (!
b0 +!
b1001000000000000000000000000000000000000000000 *!
b1 6
b1 &
#615
1!
11
#620
0!
01
b10 Q
b1001000000000000000000000000000000000000000000 ,!
b11011000000000000000000000000000000000000000000 -!
b111100000000000000000000000000000000000000000 (!
b1011010000000000000000000000000000000000000000 *!
b10 6
b10 &
#625
1!
11
#630
0!
01
b11 Q
b1011010000000000000000000000000000000000000000 ,!
b10010000000000000000000000000000000000000000 -!
b111111110000000000000000000000000000000000000 (!
b1011111101000000000000000000000000000000000000 *!
b11 6
b11 &
#635
1!
11
#640
0!
01
b100 Q
b1011111101000000000000000000000000000000000000 ,!
b101101000000000000000000000000000000000000 -!
b111111111111111100000000000000000000000000000 (!
b1011111111111111010000000000000000000000000000 *!
b100 6
b100 &
#645
1!
11
#650
0!
01
b101 Q
b1011111111111111010000000000000000000000000000 ,!
b10111111010000000000000000000000000000 -!
b111111111111111111111111111111110000000000000 (!
b1011111111111111111111111111111101000000000000 *!
b101 6
b101 &
#655
1!
11
#660
0!
01
b110 Q
b1011111111111111111111111111111101000000000000 ,!
b101111111111111101000000000000 -!
b111111111111111111100000000000000000000000000 )!
b111111111111111111111111111111111111111111111 (!
b111111111111111111010000000000000000000000000 +!
b1011111111111111111111111111111111111111111111 *!
b110 6
b110 &
#665
1!
11
#670
0!
01
b111 Q
b1011111111111111111111111111111111111111111111 ,!
b10111111111111 -!
b111111111111111111111111111111111111111111111 )!
b11111111111111111111111111111111111111111111 +!
b1100000000000000000000000000000000000000000000 *!
b11 '!
b111 6
b111 &
#675
1!
11
b11 &!
b100 '!
#680
0!
01
b110000000000000000000000 .!
#685
1!
11
b100 &!
b0 '!
b1 2!
1T
0m
19
1)
#690
0!
01
b10000000 e
b10000000000000000000000 f
#695
1!
11
b0 &!
0l
b1000000010000000000000000000000 R
b1 '!
b0 2!
0T
1m
09
b1000000010000000000000000000000 7
b1000000010000000000000000000000 '
0)
b11000001000100100001000000000001 8!
b11000000011111111111111111111111 9!
b1000011 .
b110 /
#700
0!
01
b0 1!
b0 Q
b0 e
b0 f
0c
b0 '!
b0 6
b0 &
#705
1!
11
b11000001000100100001000000000001 $
b11000000011111111111111111111111 %
b1000000000100100001000000000010 ,
r1.600370737020349e-314 *
r1.595641365759118e-314 +
1l
b11000000011111111111111111111111 5
b11000001000100100001000000000001 4
b111111111111111111111111 #!
b100100100001000000000001 "!
#710
0!
01
b100100100001000000000001 Y
b111111111111111111111111 Z
1c
b1 '!
#715
1!
11
b1 &!
b10 '!
#720
0!
01
b10010010000100000000000100000000000000000000000 *!
b1111111111111111111111110000000000000000000000 (!
b111111111111111111111111111111111111111111111111 ,!
b111111111111111111111111111111111111111111111111 -!
b1 1!
#725
1!
11
b10 &!
#730
0!
01
b1 Q
b10010010000100000000000100000000000000000000000 ,!
b101101101111011111111111011111111111111111111111 -!
b100000000000000000000000000000000000000000000 )!
b11111111111111111111111 (!
b0 +!
b100100100001000000000001 *!
b1 6
b1 &
#735
1!
11
#740
0!
01
b10 Q
b100100100001000000000001 ,!
b10010010000100000000000000100100001000000000001 -!
b111111111111111111111111 )!
b111111111111111111111100 (!
b101101111100000000000000100100001000000000001 +!
b1001001000001111111111111 *!
b10 6
b10 &
#745
1!
11
#750
0!
01
b11 Q
b1001001000001111111111111 ,!
b1101101100000111111111110 -!
b111111111111111111111110000 )!
b1111111111111111111110000 (!
b110111110000000000101100100000111111111111100 +!
b10010010000011111111110100 *!
b11 6
b11 &
#755
1!
11
#760
0!
01
b100 Q
b10010010000011111111110100 ,!
b11011011000010000000001011 -!
b111111111111111111111100000000 )!
b11111111111111111111000000 (!
b11111000000000111100100000111111111101000000 +!
b100100100000111111111000011 *!
b100 6
b100 &
#765
1!
11
#770
0!
01
b101 Q
b100100100000111111111000011 ,!
b110110110000100000000110111 -!
b111111111111111111111000000000000 )!
b111111111111111111100000000 (!
b111100000001000011000000111111111000011000000 +!
b1001001000001111111011110011 *!
b101 6
b101 &
#775
1!
11
#780
0!
01
b110 Q
b1001001000001111111011110011 ,!
b1101101100001000000100110000 -!
b111111111111111111110000000000000000 )!
b1111111111111111110000000000 (!
b110000001000110001000111111101111001100000000 +!
b10010010000011111101110011101 *!
b110 6
b110 &
#785
1!
11
#790
0!
01
b111 Q
b10010010000011111101110011101 ,!
b11011011000010000010101101110 -!
b111111111111111111100000000000000000000 )!
b11111111111111111000000000000 (!
b1000111100110111111011100111010000000000 +!
b100100100000111110111000011001 *!
b111 6
b111 &
#795
1!
11
#800
0!
01
b1000 Q
b100100100000111110111000011001 ,!
b110110110000100001010110000100 -!
b111111111111111111000000000000000000000000 )!
b111111111111111100000000000000 (!
b1001000010100011110111000011001000000000000 +!
b1001001000001111011011110101110 *!
b1000 6
b1000 &
#805
1!
11
#810
0!
01
b1001 Q
b1001001000001111011011110101110 ,!
b1101101100001000101100110110111 -!
b111111111111111110000000000000000000000000000 )!
b1111111111111110000000000000000 (!
b1000101011001101101111010111000000000000000 +!
b10010010000011101101110101001101 *!
b1001 6
b1001 &
#815
1!
11
#820
0!
01
b1010 Q
b10010010000011101101110101001101 ,!
b11011011000010010110101011100011 -!
b111111111111100000000000000000000000000000000 )!
b11111111111111000000000000000111 (!
b110110100001011101010011010000000000000000 +!
b100100100000110110111001001100011 *!
b1010 6
b1010 &
#825
1!
11
#830
0!
01
b1011 Q
b100100100000110110111001001100011 ,!
b110110110000101011010111100101110 -!
b111111110001000000000001101111111111111001111 )!
b111111111111100000000000001001101 (!
b111100000001011001100110010111101111101001011 +!
b1001001000001011011100010000001110 *!
b1011 6
b1011 &
#835
1!
11
#840
0!
01
b1100 Q
b1001001000001011011100010000001110 ,!
b1101101100001101101011011001101101 -!
b111011100110000001001100111111110100011010111 )!
b1111111111110000000000001010011001 (!
b110100001000010001011000111000000011111001010 +!
b10010010000001101110000011001100011 *!
b1100 6
b1100 &
#845
1!
11
#850
0!
01
b1101 Q
b10010010000001101110000011001100011 ,!
b11011011000000110101100001001101101 -!
b110110011100101001100011110010100000010001111 )!
b11111111111000000000001010100110000 (!
b10000101101011111001110100000110100011010101 +!
b100100011111110111000000111100000101 *!
b1101 6
b1101 &
#855
1!
11
#860
0!
01
b1110 Q
b100100011111110111000000111100000101 ,!
b110110001111111010110000100101100110 -!
b11010010101001011110001111110001011100000000 )!
b111111111100000000001010101001001101 (!
b101001001111111110100000011100011000010000 +!
b1001000111101011100000110111111111111 *!
b1110 6
b1110 &
#865
1!
11
#870
0!
01
b1111 Q
b1001000111101011100000110111111111111 ,!
b1101100100010101011000110000011111010 -!
b110111011000111110110101101011010010011010111 )!
b1111111110000000001010101001101101111 (!
b111111000011011010110110011101111101001001101 +!
b10010001110001110001000110111100010010 *!
b1111 6
b1111 &
#875
1!
11
#880
0!
01
b10000 Q
b10010001110001110001000110111100010010 ,!
b11011001001100101101000000000011101101 -!
b11101001000110000010011110001101010111011111 )!
b11111111000000001010101001010000111100 (!
b10110010101011110000011101110000000100110010 +!
b100100010111111001010010100110010000110 *!
b10000 6
b10000 &
#885
1!
11
#890
0!
01
b10001 Q
b100100010111111001010010100110010000110 ,!
b110110011001110111011010010001110010100 -!
b1010000100100000110011110101001000111110000 )!
b111111100000001010100111111111011010001 (!
b101010100101001000100000110001001100010011000 +!
b1001000011101101011001010110001111111001 *!
b10001 6
b10001 &
#895
1!
11
