ffdiv_32bit/ffdiv_32bit_binom/run_viv/ffdiv_32bit_tb.vcd
$date
   Thu Sep 19 11:28:46 2019
$end
$version
  2018.2
$end
$timescale
  1ns
$end
$scope module ffdiv_32bit_tb $end
$var reg 1 ! clk $end
$var reg 1 " rst_n $end
$var reg 1 # en $end
$var reg 32 $ operand1 [31:0] $end
$var reg 32 % operand2 [31:0] $end
$var reg 5 & itr_count [4:0] $end
$var reg 32 ' result [31:0] $end
$var reg 5 ( flag [4:0] $end
$var reg 1 ) ready $end
$var real 32 * op1 $end
$var real 32 + op2 $end
$var reg 32 , soft_division [31:0] $end
$var reg 32 - count_sum $end
$var reg 32 . count_run $end
$var reg 32 / run_count $end
$scope module test_bus $end
$var wire 1 0 clk $end
$var wire 1 1 rst_n $end
$var wire 1 2 en $end
$var wire 32 3 operand1 [31:0] $end
$var wire 32 4 operand2 [31:0] $end
$var reg 5 & itr_count [4:0] $end
$var reg 32 ' result [31:0] $end
$var reg 5 ( flag [4:0] $end
$var reg 1 ) ready $end
$var reg 1 5 sign1 $end
$var reg 1 6 sign2 $end
$var reg 9 7 unb_exp1 [8:0] $end
$var reg 9 8 unb_exp2 [8:0] $end
$var reg 24 9 sgfnd1 [23:0] $end
$var reg 24 : sgfnd2 [23:0] $end
$var reg 1 ; is_denorm1 $end
$var reg 1 < is_denorm2 $end
$var reg 1 = is_norm1 $end
$var reg 1 > is_norm2 $end
$var reg 32 ? res_nan [31:0] $end
$var reg 1 @ res_indet $end
$var reg 1 A res_inf $end
$var reg 1 B res_zero $end
$var reg 1 C dec_valid $end
$var reg 1 D sign $end
$var reg 8 E exp [7:0] $end
$var reg 23 F frac [22:0] $end
$var reg 1 G nanf $end
$var reg 1 H ovf $end
$var reg 1 I inf $end
$var reg 1 J uf $end
$var reg 1 K zf $end
$scope module top_bus $end
$var wire 1 0 clk $end
$var wire 1 1 rst_n $end
$var wire 1 2 en $end
$var wire 32 3 operand1 [31:0] $end
$var wire 32 4 operand2 [31:0] $end
$var reg 5 & itr_count [4:0] $end
$var reg 32 ' result [31:0] $end
$var reg 5 ( flag [4:0] $end
$var reg 1 ) ready $end
$upscope $end
$scope module decode_bus $end
$var wire 1 0 clk $end
$var wire 1 1 rst_n $end
$var wire 1 2 en $end
$var wire 32 3 operand1 [31:0] $end
$var wire 32 4 operand2 [31:0] $end
$var reg 1 ) ready $end
$var reg 1 5 sign1 $end
$var reg 1 6 sign2 $end
$var reg 9 7 unb_exp1 [8:0] $end
$var reg 9 8 unb_exp2 [8:0] $end
$var reg 24 9 sgfnd1 [23:0] $end
$var reg 24 : sgfnd2 [23:0] $end
$var reg 1 ; is_denorm1 $end
$var reg 1 < is_denorm2 $end
$var reg 1 = is_norm1 $end
$var reg 1 > is_norm2 $end
$var reg 32 ? res_nan [31:0] $end
$var reg 1 @ res_indet $end
$var reg 1 A res_inf $end
$var reg 1 B res_zero $end
$var reg 1 C dec_valid $end
$upscope $end
$scope module division_bus $end
$var wire 1 0 clk $end
$var wire 1 1 rst_n $end
$var wire 1 2 en $end
$var reg 1 ) ready $end
$var reg 1 5 sign1 $end
$var reg 1 6 sign2 $end
$var reg 9 7 unb_exp1 [8:0] $end
$var reg 9 8 unb_exp2 [8:0] $end
$var reg 24 9 sgfnd1 [23:0] $end
$var reg 24 : sgfnd2 [23:0] $end
$var reg 1 ; is_denorm1 $end
$var reg 1 < is_denorm2 $end
$var reg 1 = is_norm1 $end
$var reg 1 > is_norm2 $end
$var reg 32 ? res_nan [31:0] $end
$var reg 1 @ res_indet $end
$var reg 1 A res_inf $end
$var reg 1 B res_zero $end
$var reg 1 C dec_valid $end
$var reg 5 & itr_count [4:0] $end
$var reg 1 D sign $end
$var reg 8 E exp [7:0] $end
$var reg 23 F frac [22:0] $end
$var reg 1 G nanf $end
$var reg 1 H ovf $end
$var reg 1 I inf $end
$var reg 1 J uf $end
$var reg 1 K zf $end
$upscope $end
$upscope $end
$scope module ffdiv32bit $end
$scope module tbus $end
$var wire 1 0 clk $end
$var wire 1 1 rst_n $end
$var wire 1 2 en $end
$var wire 32 3 operand1 [31:0] $end
$var wire 32 4 operand2 [31:0] $end
$var reg 5 & itr_count [4:0] $end
$var reg 32 ' result [31:0] $end
$var reg 5 ( flag [4:0] $end
$var reg 1 ) ready $end
$var reg 1 5 sign1 $end
$var reg 1 6 sign2 $end
$var reg 9 7 unb_exp1 [8:0] $end
$var reg 9 8 unb_exp2 [8:0] $end
$var reg 24 9 sgfnd1 [23:0] $end
$var reg 24 : sgfnd2 [23:0] $end
$var reg 1 ; is_denorm1 $end
$var reg 1 < is_denorm2 $end
$var reg 1 = is_norm1 $end
$var reg 1 > is_norm2 $end
$var reg 32 ? res_nan [31:0] $end
$var reg 1 @ res_indet $end
$var reg 1 A res_inf $end
$var reg 1 B res_zero $end
$var reg 1 C dec_valid $end
$var reg 1 D sign $end
$var reg 8 E exp [7:0] $end
$var reg 23 F frac [22:0] $end
$var reg 1 G nanf $end
$var reg 1 H ovf $end
$var reg 1 I inf $end
$var reg 1 J uf $end
$var reg 1 K zf $end
$scope module top_bus $end
$var wire 1 0 clk $end
$var wire 1 1 rst_n $end
$var wire 1 2 en $end
$var wire 32 3 operand1 [31:0] $end
$var wire 32 4 operand2 [31:0] $end
$var reg 5 & itr_count [4:0] $end
$var reg 32 ' result [31:0] $end
$var reg 5 ( flag [4:0] $end
$var reg 1 ) ready $end
$upscope $end
$scope module decode_bus $end
$var wire 1 0 clk $end
$var wire 1 1 rst_n $end
$var wire 1 2 en $end
$var wire 32 3 operand1 [31:0] $end
$var wire 32 4 operand2 [31:0] $end
$var reg 1 ) ready $end
$var reg 1 5 sign1 $end
$var reg 1 6 sign2 $end
$var reg 9 7 unb_exp1 [8:0] $end
$var reg 9 8 unb_exp2 [8:0] $end
$var reg 24 9 sgfnd1 [23:0] $end
$var reg 24 : sgfnd2 [23:0] $end
$var reg 1 ; is_denorm1 $end
$var reg 1 < is_denorm2 $end
$var reg 1 = is_norm1 $end
$var reg 1 > is_norm2 $end
$var reg 32 ? res_nan [31:0] $end
$var reg 1 @ res_indet $end
$var reg 1 A res_inf $end
$var reg 1 B res_zero $end
$var reg 1 C dec_valid $end
$upscope $end
$scope module division_bus $end
$var wire 1 0 clk $end
$var wire 1 1 rst_n $end
$var wire 1 2 en $end
$var reg 1 ) ready $end
$var reg 1 5 sign1 $end
$var reg 1 6 sign2 $end
$var reg 9 7 unb_exp1 [8:0] $end
$var reg 9 8 unb_exp2 [8:0] $end
$var reg 24 9 sgfnd1 [23:0] $end
$var reg 24 : sgfnd2 [23:0] $end
$var reg 1 ; is_denorm1 $end
$var reg 1 < is_denorm2 $end
$var reg 1 = is_norm1 $end
$var reg 1 > is_norm2 $end
$var reg 32 ? res_nan [31:0] $end
$var reg 1 @ res_indet $end
$var reg 1 A res_inf $end
$var reg 1 B res_zero $end
$var reg 1 C dec_valid $end
$var reg 5 & itr_count [4:0] $end
$var reg 1 D sign $end
$var reg 8 E exp [7:0] $end
$var reg 23 F frac [22:0] $end
$var reg 1 G nanf $end
$var reg 1 H ovf $end
$var reg 1 I inf $end
$var reg 1 J uf $end
$var reg 1 K zf $end
$upscope $end
$upscope $end
$scope module ffdiv_bus $end
$var wire 1 L clk $end
$var wire 1 M rst_n $end
$var wire 1 N en $end
$var wire 32 O operand1 [31:0] $end
$var wire 32 P operand2 [31:0] $end
$var reg 5 Q itr_count [4:0] $end
$var reg 32 R result [31:0] $end
$var reg 5 S flag [4:0] $end
$var reg 1 T ready $end
$var reg 1 U sign1 $end
$var reg 1 V sign2 $end
$var reg 9 W unb_exp1 [8:0] $end
$var reg 9 X unb_exp2 [8:0] $end
$var reg 24 Y sgfnd1 [23:0] $end
$var reg 24 Z sgfnd2 [23:0] $end
$var reg 1 [ is_denorm1 $end
$var reg 1 \ is_denorm2 $end
$var reg 1 ] is_norm1 $end
$var reg 1 ^ is_norm2 $end
$var reg 32 _ res_nan [31:0] $end
$var reg 1 ` res_indet $end
$var reg 1 a res_inf $end
$var reg 1 b res_zero $end
$var reg 1 c dec_valid $end
$var reg 1 d sign $end
$var reg 8 e exp [7:0] $end
$var reg 23 f frac [22:0] $end
$var reg 1 g nanf $end
$var reg 1 h ovf $end
$var reg 1 i inf $end
$var reg 1 j uf $end
$var reg 1 k zf $end
$scope module top_bus $end
$var wire 1 L clk $end
$var wire 1 M rst_n $end
$var wire 1 N en $end
$var wire 32 O operand1 [31:0] $end
$var wire 32 P operand2 [31:0] $end
$var reg 5 Q itr_count [4:0] $end
$var reg 32 R result [31:0] $end
$var reg 5 S flag [4:0] $end
$var reg 1 T ready $end
$upscope $end
$scope module decode_bus $end
$var wire 1 L clk $end
$var wire 1 M rst_n $end
$var wire 1 N en $end
$var wire 32 O operand1 [31:0] $end
$var wire 32 P operand2 [31:0] $end
$var reg 1 T ready $end
$var reg 1 U sign1 $end
$var reg 1 V sign2 $end
$var reg 9 W unb_exp1 [8:0] $end
$var reg 9 X unb_exp2 [8:0] $end
$var reg 24 Y sgfnd1 [23:0] $end
$var reg 24 Z sgfnd2 [23:0] $end
$var reg 1 [ is_denorm1 $end
$var reg 1 \ is_denorm2 $end
$var reg 1 ] is_norm1 $end
$var reg 1 ^ is_norm2 $end
$var reg 32 _ res_nan [31:0] $end
$var reg 1 ` res_indet $end
$var reg 1 a res_inf $end
$var reg 1 b res_zero $end
$var reg 1 c dec_valid $end
$upscope $end
$scope module division_bus $end
$var wire 1 L clk $end
$var wire 1 M rst_n $end
$var wire 1 N en $end
$var reg 1 T ready $end
$var reg 1 U sign1 $end
$var reg 1 V sign2 $end
$var reg 9 W unb_exp1 [8:0] $end
$var reg 9 X unb_exp2 [8:0] $end
$var reg 24 Y sgfnd1 [23:0] $end
$var reg 24 Z sgfnd2 [23:0] $end
$var reg 1 [ is_denorm1 $end
$var reg 1 \ is_denorm2 $end
$var reg 1 ] is_norm1 $end
$var reg 1 ^ is_norm2 $end
$var reg 32 _ res_nan [31:0] $end
$var reg 1 ` res_indet $end
$var reg 1 a res_inf $end
$var reg 1 b res_zero $end
$var reg 1 c dec_valid $end
$var reg 5 Q itr_count [4:0] $end
$var reg 1 d sign $end
$var reg 8 e exp [7:0] $end
$var reg 23 f frac [22:0] $end
$var reg 1 g nanf $end
$var reg 1 h ovf $end
$var reg 1 i inf $end
$var reg 1 j uf $end
$var reg 1 k zf $end
$upscope $end
$upscope $end
$scope module decoder $end
$var reg 1 l dec_state $end
$var reg 1 m dec_nxt_state $end
$var reg 1 n is_snan_1 $end
$var reg 1 o is_snan_2 $end
$var reg 1 p is_qnan_1 $end
$var reg 1 q is_qnan_2 $end
$var reg 1 r is_inf_1 $end
$var reg 1 s is_inf_2 $end
$var reg 1 t is_zero_1 $end
$var reg 1 u is_zero_2 $end
$var reg 1 v is_norm_1 $end
$var reg 1 w is_norm_2 $end
$var reg 1 x is_denorm_1 $end
$var reg 1 y is_denorm_2 $end
$var reg 1 z is_finite_1 $end
$var reg 1 { is_finite_2 $end
$var reg 1 | op1_sign $end
$var reg 1 } op2_sign $end
$var reg 8 ~ op1_exp [7:0] $end
$var reg 8 !! op2_exp [7:0] $end
$var reg 24 "! op1_sgfnd [23:0] $end
$var reg 24 #! op2_sgfnd [23:0] $end
$var reg 5 $! ffdiv_exp1_shift [4:0] $end
$var reg 5 %! ffdiv_exp2_shift [4:0] $end
$scope module dec_bus $end
$var wire 1 L clk $end
$var wire 1 M rst_n $end
$var wire 1 N en $end
$var wire 32 O operand1 [31:0] $end
$var wire 32 P operand2 [31:0] $end
$var reg 5 Q itr_count [4:0] $end
$var reg 32 R result [31:0] $end
$var reg 5 S flag [4:0] $end
$var reg 1 T ready $end
$var reg 1 U sign1 $end
$var reg 1 V sign2 $end
$var reg 9 W unb_exp1 [8:0] $end
$var reg 9 X unb_exp2 [8:0] $end
$var reg 24 Y sgfnd1 [23:0] $end
$var reg 24 Z sgfnd2 [23:0] $end
$var reg 1 [ is_denorm1 $end
$var reg 1 \ is_denorm2 $end
$var reg 1 ] is_norm1 $end
$var reg 1 ^ is_norm2 $end
$var reg 32 _ res_nan [31:0] $end
$var reg 1 ` res_indet $end
$var reg 1 a res_inf $end
$var reg 1 b res_zero $end
$var reg 1 c dec_valid $end
$var reg 1 d sign $end
$var reg 8 e exp [7:0] $end
$var reg 23 f frac [22:0] $end
$var reg 1 g nanf $end
$var reg 1 h ovf $end
$var reg 1 i inf $end
$var reg 1 j uf $end
$var reg 1 k zf $end
$scope module top_bus $end
$var wire 1 L clk $end
$var wire 1 M rst_n $end
$var wire 1 N en $end
$var wire 32 O operand1 [31:0] $end
$var wire 32 P operand2 [31:0] $end
$var reg 5 Q itr_count [4:0] $end
$var reg 32 R result [31:0] $end
$var reg 5 S flag [4:0] $end
$var reg 1 T ready $end
$upscope $end
$scope module decode_bus $end
$var wire 1 L clk $end
$var wire 1 M rst_n $end
$var wire 1 N en $end
$var wire 32 O operand1 [31:0] $end
$var wire 32 P operand2 [31:0] $end
$var reg 1 T ready $end
$var reg 1 U sign1 $end
$var reg 1 V sign2 $end
$var reg 9 W unb_exp1 [8:0] $end
$var reg 9 X unb_exp2 [8:0] $end
$var reg 24 Y sgfnd1 [23:0] $end
$var reg 24 Z sgfnd2 [23:0] $end
$var reg 1 [ is_denorm1 $end
$var reg 1 \ is_denorm2 $end
$var reg 1 ] is_norm1 $end
$var reg 1 ^ is_norm2 $end
$var reg 32 _ res_nan [31:0] $end
$var reg 1 ` res_indet $end
$var reg 1 a res_inf $end
$var reg 1 b res_zero $end
$var reg 1 c dec_valid $end
$upscope $end
$scope module division_bus $end
$var wire 1 L clk $end
$var wire 1 M rst_n $end
$var wire 1 N en $end
$var reg 1 T ready $end
$var reg 1 U sign1 $end
$var reg 1 V sign2 $end
$var reg 9 W unb_exp1 [8:0] $end
$var reg 9 X unb_exp2 [8:0] $end
$var reg 24 Y sgfnd1 [23:0] $end
$var reg 24 Z sgfnd2 [23:0] $end
$var reg 1 [ is_denorm1 $end
$var reg 1 \ is_denorm2 $end
$var reg 1 ] is_norm1 $end
$var reg 1 ^ is_norm2 $end
$var reg 32 _ res_nan [31:0] $end
$var reg 1 ` res_indet $end
$var reg 1 a res_inf $end
$var reg 1 b res_zero $end
$var reg 1 c dec_valid $end
$var reg 5 Q itr_count [4:0] $end
$var reg 1 d sign $end
$var reg 8 e exp [7:0] $end
$var reg 23 f frac [22:0] $end
$var reg 1 g nanf $end
$var reg 1 h ovf $end
$var reg 1 i inf $end
$var reg 1 j uf $end
$var reg 1 k zf $end
$upscope $end
$upscope $end
$upscope $end
$scope module divider $end
$var reg 3 &! ffdiv_state [2:0] $end
$var reg 3 '! ffdiv_nxt_state [2:0] $end
$var reg 48 (! div_i [47:0] $end
$var reg 45 )! div_i_low [44:0] $end
$var reg 48 *! qnt_i [47:0] $end
$var reg 45 +! qnt_i_low [44:0] $end
$var reg 48 ,! prev_qnt [47:0] $end
$var reg 48 -! qnt_diff [47:0] $end
$var reg 25 .! qnt_rounded [24:0] $end
$var reg 1 /! is_operands_finite $end
$var reg 1 0! ffdiv_res_sign $end
$var reg 9 1! ffdiv_unb_exp [8:0] $end
$var reg 5 2! ffdiv_dnrm_frc_shift [4:0] $end
$var reg 1 3! ffdiv_sgfcnd_cmp $end
$var reg 1 4! is_ffdiv_res_nan $end
$var reg 1 5! is_ffdiv_negexp_ovf $end
$var reg 1 6! is_ffdiv_posexp_ovf $end
$var reg 1 7! is_ffdiv_res_denorm $end
$scope module div_bus $end
$var wire 1 L clk $end
$var wire 1 M rst_n $end
$var wire 1 N en $end
$var wire 32 O operand1 [31:0] $end
$var wire 32 P operand2 [31:0] $end
$var reg 5 Q itr_count [4:0] $end
$var reg 32 R result [31:0] $end
$var reg 5 S flag [4:0] $end
$var reg 1 T ready $end
$var reg 1 U sign1 $end
$var reg 1 V sign2 $end
$var reg 9 W unb_exp1 [8:0] $end
$var reg 9 X unb_exp2 [8:0] $end
$var reg 24 Y sgfnd1 [23:0] $end
$var reg 24 Z sgfnd2 [23:0] $end
$var reg 1 [ is_denorm1 $end
$var reg 1 \ is_denorm2 $end
$var reg 1 ] is_norm1 $end
$var reg 1 ^ is_norm2 $end
$var reg 32 _ res_nan [31:0] $end
$var reg 1 ` res_indet $end
$var reg 1 a res_inf $end
$var reg 1 b res_zero $end
$var reg 1 c dec_valid $end
$var reg 1 d sign $end
$var reg 8 e exp [7:0] $end
$var reg 23 f frac [22:0] $end
$var reg 1 g nanf $end
$var reg 1 h ovf $end
$var reg 1 i inf $end
$var reg 1 j uf $end
$var reg 1 k zf $end
$scope module top_bus $end
$var wire 1 L clk $end
$var wire 1 M rst_n $end
$var wire 1 N en $end
$var wire 32 O operand1 [31:0] $end
$var wire 32 P operand2 [31:0] $end
$var reg 5 Q itr_count [4:0] $end
$var reg 32 R result [31:0] $end
$var reg 5 S flag [4:0] $end
$var reg 1 T ready $end
$upscope $end
$scope module decode_bus $end
$var wire 1 L clk $end
$var wire 1 M rst_n $end
$var wire 1 N en $end
$var wire 32 O operand1 [31:0] $end
$var wire 32 P operand2 [31:0] $end
$var reg 1 T ready $end
$var reg 1 U sign1 $end
$var reg 1 V sign2 $end
$var reg 9 W unb_exp1 [8:0] $end
$var reg 9 X unb_exp2 [8:0] $end
$var reg 24 Y sgfnd1 [23:0] $end
$var reg 24 Z sgfnd2 [23:0] $end
$var reg 1 [ is_denorm1 $end
$var reg 1 \ is_denorm2 $end
$var reg 1 ] is_norm1 $end
$var reg 1 ^ is_norm2 $end
$var reg 32 _ res_nan [31:0] $end
$var reg 1 ` res_indet $end
$var reg 1 a res_inf $end
$var reg 1 b res_zero $end
$var reg 1 c dec_valid $end
$upscope $end
$scope module division_bus $end
$var wire 1 L clk $end
$var wire 1 M rst_n $end
$var wire 1 N en $end
$var reg 1 T ready $end
$var reg 1 U sign1 $end
$var reg 1 V sign2 $end
$var reg 9 W unb_exp1 [8:0] $end
$var reg 9 X unb_exp2 [8:0] $end
$var reg 24 Y sgfnd1 [23:0] $end
$var reg 24 Z sgfnd2 [23:0] $end
$var reg 1 [ is_denorm1 $end
$var reg 1 \ is_denorm2 $end
$var reg 1 ] is_norm1 $end
$var reg 1 ^ is_norm2 $end
$var reg 32 _ res_nan [31:0] $end
$var reg 1 ` res_indet $end
$var reg 1 a res_inf $end
$var reg 1 b res_zero $end
$var reg 1 c dec_valid $end
$var reg 5 Q itr_count [4:0] $end
$var reg 1 d sign $end
$var reg 8 e exp [7:0] $end
$var reg 23 f frac [22:0] $end
$var reg 1 g nanf $end
$var reg 1 h ovf $end
$var reg 1 i inf $end
$var reg 1 j uf $end
$var reg 1 k zf $end
$upscope $end
$upscope $end
$upscope $end
$upscope $end
$scope begin Block61_12 $end
$var reg 32 8! i $end
$upscope $end
$scope task reset_n_deassert $end
$upscope $end
$scope task reset_n_assert $end
$upscope $end
$scope task ff_div $end
$var reg 32 9! opr1 [31:0] $end
$var reg 32 :! opr2 [31:0] $end
$upscope $end
$upscope $end
$enddefinitions $end
#0
$dumpvars
0!
b0 !!
0"
b0 "!
0#
b0 #!
b0 $
b0 $!
b0 %
b0 %!
b0 &
b0 &!
b0 '
b0 '!
b0 (
b0 (!
0)
b0 )!
r0 *
b0 *!
r0 +
b0 +!
b0 ,
b0 ,!
b0 -
b0 -!
b0 .
b0 .!
b101 /
0/!
00
00!
01
b0 1!
02
b0 2!
b0 3
03!
b0 4
04!
x5
05!
x6
06!
bx 7
07!
bx 8
b0 8!
bx 9
bx 9!
bx :
bx :!
x;
x<
x=
x>
bx ?
x@
xA
xB
xC
xD
bx E
bx F
xG
xH
xI
xJ
xK
0L
0M
0N
b0 O
b0 P
b0 Q
b0 R
b0 S
0T
0U
0V
b0 W
b0 X
b0 Y
b0 Z
0[
0\
0]
0^
b0 _
0`
0a
0b
0c
0d
b0 e
b0 f
0g
0h
0i
0j
0k
0l
0m
0n
0o
0p
0q
0r
0s
0t
0u
0v
0w
0x
0y
0z
0{
0|
0}
b0 ~
$end
#5
1!
b0 &!
10
1L
b0 R
b0 S
0l
#10
0!
b0 (!
b0 )!
b0 *!
b0 +!
b0 ,!
b0 -!
b0 .!
00
b0 1!
0L
b0 Q
0U
0V
b0 W
b0 X
b0 Y
b0 Z
0[
0\
0]
0^
b0 _
0`
0a
0b
0c
0d
b0 e
b0 f
0g
0h
0i
0j
0k
#15
1!
b0 &!
10
1L
b0 R
b0 S
0l
#20
0!
b0 (!
b0 )!
b0 *!
b0 +!
b0 ,!
b0 -!
b0 .!
00
b0 1!
0L
b0 Q
0U
0V
b0 W
b0 X
b0 Y
b0 Z
0[
0\
0]
0^
b0 _
0`
0a
0b
0c
0d
b0 e
b0 f
0g
0h
0i
0j
0k
#25
1!
b0 &!
10
1L
b0 R
b0 S
0l
#30
0!
1"
1#
b0 '!
b0 (!
b0 )!
b0 *!
b0 +!
b0 ,!
b0 -!
b0 .!
0/!
00
11
b0 1!
12
03!
04!
b0 8!
b10000000000000000000000000000001 9!
b10000000000010100000000000000000 :!
0L
1M
1N
b0 Q
0U
0V
b0 W
b0 X
b0 Y
b0 Z
0[
0\
0]
0^
b0 _
0`
0a
0b
0c
0d
b0 e
b0 f
0g
0h
0i
0j
0k
1m
0n
0o
0p
0q
0r
0s
1t
1u
0v
0w
0x
0y
0z
0{
#35
1!
b1 "!
b10100000000000000000 #!
b10000000000000000000000000000001 $
b10111 $!
b10000000000010100000000000000000 %
b100 %!
b0 &!
r-1.401298464324817e-45 *
r-9.183549615799121e-40 +
b110101110011001100110011001101 ,
10
b10000000000000000000000000000001 3
b10000000000010100000000000000000 4
1L
b10000000000000000000000000000001 O
b10000000000010100000000000000000 P
1l
0n
0o
0r
0s
0t
0u
1x
1y
1z
1{
1|
1}
#40
0!
b1 '!
1/!
00
b0 1!
b0 2!
13!
0L
b0 Q
0T
1U
1V
b101101011 W
b101111110 X
b100000000000000000000000 Y
b101000000000000000000000 Z
1[
1\
0]
0^
b0 _
0`
0a
0b
1c
0d
b0 e
b0 f
0g
0h
0i
0j
0k
#45
1!
b1 &!
b10 '!
10
b0 2!
1L
0T
1l
#50
0!
b10 '!
b1010000000000000000000000000000000000000000000 (!
b10000000000000000000000000000000000000000000000 *!
b111111111111111111111111111111111111111111111111 ,!
b111111111111111111111111111111111111111111111111 -!
00
b111101100 1!
b0 2!
0L
0T
1U
1V
b101101011 W
b101111110 X
b100000000000000000000000 Y
b101000000000000000000000 Z
1[
1\
0]
0^
b0 _
0`
0a
0b
1c
#55
1!
b10 &!
b10 '!
10
b0 2!
1L
0T
1l
#60
0!
b1 &
b10 '!
b111100000000000000000000000000000000000000000 (!
b0 )!
b1100000000000000000000000000000000000000000000 *!
b0 +!
b10000000000000000000000000000000000000000000000 ,!
b101111111111111111111111111111111111111111111111 -!
00
0L
b1 Q
1U
1V
b101101011 W
b101111110 X
b100000000000000000000000 Y
b101000000000000000000000 Z
1[
1\
0]
0^
b0 _
0`
0a
0b
1c
#65
1!
b10 &!
10
1L
1l
#70
0!
b10 &
b10 '!
b111111110000000000000000000000000000000000000 (!
b0 )!
b1100110000000000000000000000000000000000000000 *!
b0 +!
b1100000000000000000000000000000000000000000000 ,!
b11100000000000000000000000000000000000000000000 -!
00
0L
b10 Q
1U
1V
b101101011 W
b101111110 X
b100000000000000000000000 Y
b101000000000000000000000 Z
1[
1\
0]
0^
b0 _
0`
0a
0b
1c
#75
1!
b10 &!
10
1L
1l
#80
0!
b11 &
b10 '!
b111111111111111100000000000000000000000000000 (!
b0 )!
b1100110011001100000000000000000000000000000000 *!
b0 +!
b1100110000000000000000000000000000000000000000 ,!
b110000000000000000000000000000000000000000 -!
00
0L
b11 Q
1U
1V
b101101011 W
b101111110 X
b100000000000000000000000 Y
b101000000000000000000000 Z
1[
1\
0]
0^
b0 _
0`
0a
0b
1c
#85
1!
b10 &!
10
1L
1l
#90
0!
b100 &
b10 '!
b111111111111111111111111111111110000000000000 (!
b0 )!
b1100110011001100110011001100110000000000000000 *!
b0 +!
b1100110011001100000000000000000000000000000000 ,!
b11001100000000000000000000000000000000 -!
00
0L
b100 Q
1U
1V
b101101011 W
b101111110 X
b100000000000000000000000 Y
b101000000000000000000000 Z
1[
1\
0]
0^
b0 _
0`
0a
0b
1c
#95
1!
b10 &!
10
1L
1l
#100
0!
b101 &
b10 '!
b111111111111111111111111111111111111111111111 (!
b111111111111111111100000000000000000000000000 )!
b1100110011001100110011001100110011001100110011 *!
b1100110011001100000000000000000000000000000 +!
b1100110011001100110011001100110000000000000000 ,!
b110011001100110000000000000000 -!
00
0L
b101 Q
1U
1V
b101101011 W
b101111110 X
b100000000000000000000000 Y
b101000000000000000000000 Z
1[
1\
0]
0^
b0 _
0`
0a
0b
1c
#105
1!
b10 &!
10
1L
1l
#110
0!
b110 &
b11 '!
b111111111111111111111111111111111111111111111 (!
b111111111111111111111111111111111111111111111 )!
b1100110011001100110011001100110011001100110100 *!
b100110011001100110011001100110011001100110011 +!
b1100110011001100110011001100110011001100110011 ,!
b11001100110011 -!
00
0L
b110 Q
1U
1V
b101101011 W
b101111110 X
b100000000000000000000000 Y
b101000000000000000000000 Z
1[
1\
0]
0^
b0 _
0`
0a
0b
1c
#115
1!
b11 &!
b100 '!
10
b0 2!
1L
0T
1l
#120
0!
b110011001100110011001100 .!
00
b111101100 1!
0L
1U
1V
b101101011 W
b101111110 X
b100000000000000000000000 Y
b101000000000000000000000 Z
1[
1\
0]
0^
b0 _
0`
0a
0b
1c
#125
1!
b100 &!
b0 '!
1)
10
b10110 2!
1L
1T
1l
0m
#130
0!
00
0L
1U
1V
b101101011 W
b101111110 X
b100000000000000000000000 Y
b101000000000000000000000 Z
1[
1\
0]
0^
b0 _
0`
0a
0b
1c
0d
b1101011 e
b10011001100110011001100 f
0g
0h
0i
0j
0k
#135
1!
b0 $!
b0 %!
b0 &!
b110101110011001100110011001100 '
b1 '!
0)
b1011 -
b1 .
10
b0 2!
b1 8!
b10000000100010000100000010000010 9!
b10000000100100100100000010000001 :!
1L
b110101110011001100110011001100 R
b0 S
0T
0l
1m
#140
0!
b0 &
b0 '!
00
b0 1!
b0 2!
0L
b0 Q
0T
0c
0d
b0 e
b0 f
0g
0h
0i
0j
0k
#145
1!
b1 !!
b100010000100000010000010 "!
b100100100100000010000001 #!
b10000000100010000100000010000010 $
b0 $!
b10000000100100100100000010000001 %
b0 %!
b0 &!
r-1.251276852032666e-38 *
r-1.343112208060811e-38 +
b111111011011100111111011111001 ,
10
b10000000100010000100000010000010 3
b10000000100100100100000010000001 4
1L
b10000000100010000100000010000010 O
b10000000100100100100000010000001 P
1l
0n
0o
0p
0q
0r
0s
0t
0u
1v
1w
0x
0y
1z
1{
b1 ~
#150
0!
b1 '!
1/!
00
b0 1!
13!
0L
b0 Q
1U
1V
b110000010 W
b110000010 X
b100010000100000010000010 Y
b100100100100000010000001 Z
0[
0\
1]
1^
b0 _
0`
0a
0b
1c
0d
b0 e
b0 f
0g
0h
0i
0j
0k
#155
1!
b1 &!
b10 '!
10
b0 2!
1L
0T
1l
#160
0!
b10 '!
b1001001001000000100000010000000000000000000000 (!
b10001000010000001000001000000000000000000000000 *!
b111111111111111111111111111111111111111111111111 ,!
b111111111111111111111111111111111111111111111111 -!
00
b111111111 1!
b0 2!
0L
0T
1U
1V
b110000010 W
b110000010 X
b100010000100000010000010 Y
b100100100100000010000001 Z
0[
0\
1]
1^
b0 _
0`
0a
0b
1c
#165
1!
b10 &!
b10 '!
10
b0 2!
1L
0T
1l
#170
0!
b1 &
b10 '!
b111110101100101101110110011011001111101111111 (!
b100000000000000000000000000000000000000000000 )!
b1110100110100101100011000100101111111001111110 *!
b0 +!
b10001000010000001000001000000000000000000000000 ,!
b101110111101111110111110111111111111111111111111 -!
00
0L
b1 Q
1U
1V
b110000010 W
b110000010 X
b100010000100000010000010 Y
b100100100100000010000001 Z
0[
0\
1]
1^
b0 _
0`
0a
0b
1c
#175
1!
b10 &!
10
1L
1l
#180
0!
b10 &
b10 '!
b111111111110010011100111110110000001010000101 (!
b111010111100000000111001110101111111011111111 )!
b1110111001100101101110110011100110111011000110 *!
b101011101000100011110100111010111110101111110 +!
b1110100110100101100011000100101111111001111110 ,!
b11111100100100100100010000100101111111001111110 -!
00
0L
b10 Q
1U
1V
b110000010 W
b110000010 X
b100010000100000010000010 Y
b100100100100000010000001 Z
0[
0\
1]
1^
b0 _
0`
0a
0b
1c
#185
1!
b10 &!
10
1L
1l
#190
0!
b11 &
b10 '!
b111111111111111111111101001000011110010101001 (!
b100101111011111110111001010111010011011100111 )!
b1110111001111110111101100111001100110000110111 *!
b11001110010001101110000001110011100100010 +!
b1110111001100101101110110011100110111011000110 ,!
b11111000000001101110111001001000010111000 -!
00
0L
b11 Q
1U
1V
b110000010 W
b110000010 X
b100010000100000010000010 Y
b100100100100000010000001 Z
0[
0\
1]
1^
b0 _
0`
0a
0b
1c
#195
1!
b10 &!
10
1L
1l
#200
0!
b100 &
b10 '!
b111111111111111111111111111111111111111111110 (!
b111110001101110001011000110000101100001101111 )!
b1110111001111110111110010001111100011001110001 *!
b101110111010001110111011001000100101110110001 +!
b1110111001111110111101100111001100110000110111 ,!
b11011010011010100101010001011110001 -!
00
0L
b100 Q
1U
1V
b110000010 W
b110000010 X
b100010000100000010000010 Y
b100100100100000010000001 Z
0[
0\
1]
1^
b0 _
0`
0a
0b
1c
#205
1!
b10 &!
10
1L
1l
