ffdiv_32bit/ffdiv_32bit_intf_proposed/run_cad/ffdiv_32bit_tb.vcd
$date
    Sep  8, 2019  12:20:52
$end
$version
    TOOL:	ncsim(64)	15.20-s060
$end
$timescale
    1 ns
$end

$scope module ffdiv_32bit_tb $end
$var reg       1 !    clk  $end
$var reg       1 "    rst_n  $end
$var reg       1 #    en  $end
$var reg      32 $    operand1 [31:0] $end
$var reg      32 %    operand2 [31:0] $end
$var reg       5 &    itr_count [4:0] $end
$var reg      32 '    result [31:0] $end
$var reg       5 (    flag [4:0] $end
$var reg       1 )    ready  $end
$var real     64 *    op1  $end
$var real     64 +    op2  $end
$var reg      32 ,    soft_division [31:0] $end
$var reg      32 -    error [31:0] $end
$var integer  32 .    count_sum  $end
$var integer  32 /    count_run  $end
$var integer  32 0    run_count  $end

$scope module test_bus $end
$var wire      1 1    clk  $end
$var wire      1 2    rst_n  $end
$var wire      1 3    en  $end
$var wire     32 4    operand1 [31:0] $end
$var wire     32 5    operand2 [31:0] $end
$var reg       5 6    itr_count [4:0] $end
$var reg      32 7    result [31:0] $end
$var reg       5 8    flag [4:0] $end
$var reg       1 9    ready  $end
$var reg       1 :    sign1  $end
$var reg       1 ;    sign2  $end
$var reg       9 <    unb_exp1 [8:0] $end
$var reg       9 =    unb_exp2 [8:0] $end
$var reg      24 >    sgfnd1 [23:0] $end
$var reg      24 ?    sgfnd2 [23:0] $end
$var reg       1 @    is_denorm1  $end
$var reg       1 A    is_denorm2  $end
$var reg       1 B    is_norm1  $end
$var reg       1 C    is_norm2  $end
$var reg      32 D    res_nan [31:0] $end
$var reg       1 E    res_indet  $end
$var reg       1 F    res_inf  $end
$var reg       1 G    res_zero  $end
$var reg       1 H    dec_valid  $end
$var reg       1 I    sign  $end
$var reg       8 J    exp [7:0] $end
$var reg      23 K    frac [22:0] $end
$var reg       1 L    nanf  $end
$var reg       1 M    ovf  $end
$var reg       1 N    inf  $end
$var reg       1 O    uf  $end
$var reg       1 P    zf  $end
$upscope $end


$scope module ffdiv32bit $end

$scope module ffdiv_bus $end
$var wire      1 1    clk  $end
$var wire      1 2    rst_n  $end
$var wire      1 3    en  $end
$var wire     32 4    operand1 [31:0] $end
$var wire     32 5    operand2 [31:0] $end
$var reg       5 Q    itr_count [4:0] $end
$var reg      32 R    result [31:0] $end
$var reg       5 S    flag [4:0] $end
$var reg       1 T    ready  $end
$var reg       1 U    sign1  $end
$var reg       1 V    sign2  $end
$var reg       9 W    unb_exp1 [8:0] $end
$var reg       9 X    unb_exp2 [8:0] $end
$var reg      24 Y    sgfnd1 [23:0] $end
$var reg      24 Z    sgfnd2 [23:0] $end
$var reg       1 [    is_denorm1  $end
$var reg       1 \    is_denorm2  $end
$var reg       1 ]    is_norm1  $end
$var reg       1 ^    is_norm2  $end
$var reg      32 _    res_nan [31:0] $end
$var reg       1 `    res_indet  $end
$var reg       1 a    res_inf  $end
$var reg       1 b    res_zero  $end
$var reg       1 c    dec_valid  $end
$var reg       1 d    sign  $end
$var reg       8 e    exp [7:0] $end
$var reg      23 f    frac [22:0] $end
$var reg       1 g    nanf  $end
$var reg       1 h    ovf  $end
$var reg       1 i    inf  $end
$var reg       1 j    uf  $end
$var reg       1 k    zf  $end
$upscope $end


$scope module decoder $end
$var reg       1 l    dec_state [0:0] $end
$var reg       1 m    dec_nxt_state [0:0] $end
$var reg       1 n    is_snan_1  $end
$var reg       1 o    is_snan_2  $end
$var reg       1 p    is_qnan_1  $end
$var reg       1 q    is_qnan_2  $end
$var reg       1 r    is_inf_1  $end
$var reg       1 s    is_inf_2  $end
$var reg       1 t    is_zero_1  $end
$var reg       1 u    is_zero_2  $end
$var reg       1 v    is_norm_1  $end
$var reg       1 w    is_norm_2  $end
$var reg       1 x    is_denorm_1  $end
$var reg       1 y    is_denorm_2  $end
$var reg       1 z    is_finite_1  $end
$var reg       1 {    is_finite_2  $end
$var reg       1 |    op1_sign  $end
$var reg       1 }    op2_sign  $end
$var reg       8 ~    op1_exp [7:0] $end
$var reg       8 !!   op2_exp [7:0] $end
$var reg      24 "!   op1_sgfnd [23:0] $end
$var reg      24 #!   op2_sgfnd [23:0] $end
$var reg       5 $!   ffdiv_exp1_shift [4:0] $end
$var reg       5 %!   ffdiv_exp2_shift [4:0] $end
$upscope $end


$scope module divider $end
$var reg       3 &!   ffdiv_state [2:0] $end
$var reg       3 '!   ffdiv_nxt_state [2:0] $end
$var reg      32 (!   div_i [31:0] $end
$var reg      29 )!   div_i_low [28:0] $end
$var reg      32 *!   qnt_i [31:0] $end
$var reg      29 +!   qnt_i_low [28:0] $end
$var reg      32 ,!   prev_qnt [31:0] $end
$var reg      32 -!   qnt_diff [31:0] $end
$var reg      25 .!   qnt_rounded [24:0] $end
$var reg       1 /!   is_operands_finite  $end
$var reg       1 0!   ffdiv_res_sign  $end
$var reg       9 1!   ffdiv_unb_exp [8:0] $end
$var reg       5 2!   ffdiv_dnrm_frc_shift [4:0] $end
$var reg       1 3!   ffdiv_sgfcnd_cmp  $end
$var reg       1 4!   is_ffdiv_res_nan  $end
$var reg       1 5!   is_ffdiv_negexp_ovf  $end
$var reg       1 6!   is_ffdiv_posexp_ovf  $end
$var reg       1 7!   is_ffdiv_res_denorm  $end
$upscope $end

$upscope $end


$scope task ff_div $end
$var reg      32 8!   opr1 [31:0] $end
$var reg      32 9!   opr2 [31:0] $end
$upscope $end

$upscope $end

$enddefinitions $end
$dumpvars
0!
0"
0#
b0 $
b0 %
b0 &
b0 '
b0 (
0)
r0 *
r0 +
b0 ,
b0 -
b0 .
b0 /
b101 0
01
02
03
b0 4
b0 5
b0 6
b0 7
b0 8
09
x:
x;
bx <
bx =
bx >
bx ?
x@
xA
xB
xC
bx D
xE
xF
xG
xH
xI
bx J
bx K
xL
xM
xN
xO
xP
b0 Q
b0 R
b0 S
0T
0U
0V
b0 W
b0 X
b0 Y
b0 Z
0[
0\
0]
0^
b0 _
0`
0a
0b
0c
0d
b0 e
b0 f
0g
0h
0i
0j
0k
0l
0m
0n
0o
0p
0q
0r
0s
0t
0u
0v
0w
0x
0y
0z
0{
0|
0}
b0 ~
b0 !!
b0 "!
b0 #!
b0 $!
b0 %!
b0 &!
b0 '!
b0 (!
b0 )!
b0 *!
b0 +!
b0 ,!
b0 -!
b0 .!
0/!
00!
b0 1!
b0 2!
03!
04!
05!
06!
07!
bx 8!
bx 9!
$end
#5
1!
11
#10
0!
01
#15
1!
11
#20
0!
01
#25
1!
11
#30
0!
b10000000000000000000000000000001 8!
b10000000000010100000000000000000 9!
01
1#
1"
12
13
1m
1u
1t
#35
1!
11
b10000000000000000000000000000001 $
b10000000000010100000000000000000 %
b110101110011001100110011001101 ,
r1.060997895976702e-314 *
r1.061321686344295e-314 +
1l
b10000000000010100000000000000000 5
b10000000000000000000000000000001 4
1y
0u
b10100000000000000000 #!
1}
1x
0t
b1 "!
1|
1{
b10111 $!
b100 %!
1z
#40
0!
01
1U
1V
b101101011 W
b101111110 X
b100000000000000000000000 Y
b101000000000000000000000 Z
1[
1\
1c
13!
1/!
b1 '!
#45
1!
11
b1 &!
b10 '!
#50
0!
01
b100000000000000000000000000000 *!
b10100000000000000000000000000 (!
b11111111111111111111111111111111 ,!
b11111111111111111111111111111111 -!
b111101100 1!
#55
1!
11
b10 &!
#60
0!
01
b1 Q
b100000000000000000000000000000 ,!
b11011111111111111111111111111111 -!
b11011100000000000000000000000 (!
b101100000000000000000000000000 *!
b1 6
b1 &
#65
1!
11
#70
0!
01
b10 Q
b101100000000000000000000000000 ,!
b1100000000000000000000000000 -!
b11111010111100000000000000000 (!
b110010001100000000000000000000 *!
b10 6
b10 &
#75
1!
11
#80
0!
01
b11 Q
b110010001100000000000000000000 ,!
b11110001100000000000000000000 -!
b11111111111001100101111100000 (!
b110011001011100001001100000000 *!
b11 6
b11 &
#85
1!
11
#90
0!
01
b100 Q
b110011001011100001001100000000 ,!
b1000111100001001100000000 -!
b11100101000101111110000000000 )!
b11111111111111111111110101101 (!
b11010100111100110000000000000 +!
b110011001100110011001010101111 *!
b100 6
b100 &
#95
1!
11
#100
0!
01
b101 Q
b110011001100110011001010101111 ,!
b111010010000110101111 -!
b11111111111111110010100010111 )!
b11111111111111111111111111111 (!
b11001100110010110111010111101 +!
b110011001100110011001100110011 *!
b101 6
b101 &
#105
1!
11
#110
0!
01
b110 Q
b110011001100110011001100110011 ,!
b110011100 -!
b11111111111111111111111111111 )!
b10011001100110011001100110011 +!
b110011001100110011001100110100 *!
b110 6
b110 &
#115
1!
11
#120
0!
01
b111 Q
b110011001100110011001100110100 ,!
b111 -!
b10011001100110011001100110100 +!
b110011001100110011001100110101 *!
b11 '!
b111 6
b111 &
#125
1!
11
b11 &!
b100 '!
#130
0!
01
b110011001100110011001100 .!
#135
1!
11
b100 &!
b0 '!
b10110 2!
1T
0m
19
1)
#140
0!
01
b1101011 e
b10011001100110011001100 f
#145
1!
11
b0 &!
0l
b110101110011001100110011001100 R
b1 '!
b0 2!
0T
b0 $!
b0 %!
1m
09
b110101110011001100110011001100 7
b110101110011001100110011001100 '
0)
b10000000100010000100000010000010 8!
b10000000100100100100000010000001 9!
b1100 .
b1 /
#150
0!
01
b0 1!
b0 Q
b0 e
b0 f
0c
b0 '!
b0 6
b0 &
#155
1!
11
b10000000100010000100000010000010 $
b10000000100100100100000010000001 %
b111111011011100111111011111001 ,
r1.065409610201267e-314 *
r1.06573340056886e-314 +
1l
b10111 $!
b100 %!
b10000000100100100100000010000001 5
b10000000100010000100000010000010 4
1w
0y
b100100100100000010000001 #!
b1 !!
1v
0x
b100010000100000010000010 "!
b1 ~
b0 $!
b0 %!
#160
0!
01
b110000010 W
b110000010 X
b100010000100000010000010 Y
b100100100100000010000001 Z
0[
0\
1]
1^
1c
b1 '!
#165
1!
11
b1 &!
b10 '!
#170
0!
01
b100010000100000010000010000000 *!
b10010010010000001000000100000 (!
b11111111111111111111111111111111 ,!
b11111111111111111111111111111111 -!
b111111111 1!
#175
1!
11
b10 &!
#180
0!
01
b1 Q
b100010000100000010000010000000 ,!
b11011101111011111101111101111111 -!
b1100111110111111110000000000 )!
b11010000111100110101111010011 (!
b10111111100111111000000000000 +!
b110000101010100111100101000100 *!
b1 6
b1 &
#185
1!
11
#190
0!
01
b10 Q
b110000101010100111100101000100 ,!
b10010101110100101100111000100 -!
b10001001000011111000000010111 )!
b11110111010110100101110000011 (!
b100110101101010000011110100 +!
b111001100111000010110000110100 *!
b10 6
b10 &
#195
1!
11
#200
0!
01
b11 Q
b111001100111000010110000110100 ,!
b1001001101100101010101110000 -!
b10011001101111111101011110111 )!
b11111111101101010011101010010 (!
b11000011001100010010101100100 +!
b111011100011100101010000100000 *!
b11 6
b11 &
#205
1!
11
#210
0!
01
b100 Q
b111011100011100101010000100000 ,!
b10000100100111100000010100 -!
b101000010111110100110111100 )!
b11111111111111111110101000101 (!
b11100110010000010110111000000 +!
b111011100111111011100100110010 *!
b100 6
b100 &
#215
1!
11
#220
0!
01
b101 Q
b111011100111111011100100110010 ,!
b100011110110100010010 -!
b11111111110001000101101100111 )!
b11111111111111111111111111111 (!
b1101000111101010101110000110 +!
b111011100111111011111001001000 *!
b101 6
b101 &
#225
1!
11
#230
0!
01
b110 Q
b111011100111111011111001001000 ,!
b11101111010 -!
b11111111111111111111111111111 )!
b11011100111111011111001001000 +!
b111011100111111011111001001001 *!
b110 6
b110 &
#235
1!
11
#240
0!
01
b111 Q
b111011100111111011111001001001 ,!
b1 -!
b11011100111111011111001001001 +!
b111011100111111011111001001010 *!
b11 '!
b111 6
b111 &
#245
1!
11
b11 &!
b100 '!
#250
0!
01
b111011100111111011111001 .!
#255
1!
11
b100 &!
b0 '!
b11 2!
1T
0m
19
1)
#260
0!
01
b1111110 e
b11011100111111011111001 f
#265
1!
11
b0 &!
0l
b111111011011100111111011111001 R
b1 '!
b0 2!
0T
1m
09
b111111011011100111111011111001 7
b111111011011100111111011111001 '
0)
b10000001000100001000000100000011 8!
b10000001000110101000000100000010 9!
b11000 .
b10 /
#270
0!
01
b0 1!
b0 Q
b0 e
b0 f
0c
b0 '!
b0 6
b0 &
#275
1!
11
b10000001000100001000000100000011 $
b10000001000110101000000100000010 %
b111111011011110110111001001101 ,
r1.069821324425833e-314 *
r1.070145114793426e-314 +
1l
b10000001000110101000000100000010 5
b10000001000100001000000100000011 4
b100110101000000100000010 #!
b10 !!
b100100001000000100000011 "!
b10 ~
#280
0!
01
b110000011 W
b110000011 X
b100100001000000100000011 Y
b100110101000000100000010 Z
1c
b1 '!
#285
1!
11
b1 &!
b10 '!
#290
0!
01
b100100001000000100000011000000 *!
b10011010100000010000001000000 (!
b11111111111111111111111111111111 ,!
b11111111111111111111111111111111 -!
b111111111 1!
#295
1!
11
b10 &!
#300
0!
01
b1 Q
b100100001000000100000011000000 ,!
b11011011110111111011111100111111 -!
b10011111011111111000000000000 )!
b11010111110000101000110010010 (!
b10011110101111101000000000000 +!
b110010011100101110011000000011 *!
b1 6
b1 &
#305
1!
11
#310
0!
01
b10 Q
b110010011100101110011000000011 ,!
b10110010100101010011011000011 -!
b10011001000100100100010111100 )!
b11111001101011001011110100101 (!
b11110110010011101111101001010 +!
b111010011000001111011000010011 *!
b10 6
b10 &
#315
1!
11
#320
0!
01
b11 Q
b111010011000001111011000010011 ,!
b1000000100100001000000010000 -!
b101110110011110111110100111 )!
b11111111110101111111110111001 (!
b1111011011010011000011000001 +!
b111011110100100011100010000101 *!
b11 6
b11 &
#325
1!
11
#330
0!
01
b100 Q
b111011110100100011100010000101 ,!
b1101100101100111010010110 -!
b11101001110011110110001001111 )!
b11111111111111111111100110111 (!
b10001111001101010110011100011 +!
b111011110110111001000111100010 *!
b100 6
b100 &
#335
1!
11
#340
0!
01
b101 Q
b111011110110111001000111100010 ,!
b10011010100101100111 -!
b11111111111110110001000101111 )!
b11111111111111111111111111111 (!
b11111011001011000101001110010 +!
b111011110110111001001101011001 *!
b101 6
b101 &
#345
1!
11
#350
0!
01
b110 Q
b111011110110111001001101011001 ,!
b1010111011 -!
b11111111111111111111111111111 )!
b11011110110111001001101011001 +!
b111011110110111001001101011010 *!
b110 6
b110 &
#355
1!
11
#360
0!
01
b111 Q
b111011110110111001001101011010 ,!
b11 -!
b11011110110111001001101011010 +!
b111011110110111001001101011011 *!
b11 '!
b111 6
b111 &
#365
1!
11
b11 &!
b100 '!
#370
0!
01
b111011110110111001001110 .!
#375
1!
11
b100 &!
b0 '!
b11 2!
1T
0m
19
1)
#380
0!
01
b1111110 e
b11011110110111001001110 f
#385
1!
11
b0 &!
0l
b111111011011110110111001001110 R
b1 '!
b0 2!
0T
1m
09
b111111011011110110111001001110 7
b111111011011110110111001001110 '
0)
b10000001100110001100000110000100 8!
b10000001101000101100000110000011 9!
b100100 .
b11 /
#390
0!
01
b0 1!
b0 Q
b0 e
b0 f
0c
b0 '!
b0 6
b0 &
#395
1!
11
b10000001100110001100000110000100 $
b10000001101000101100000110000011 %
b111111011100000100010101011101 ,
r1.074233038650399e-314 *
r1.074556829017992e-314 +
1l
b10000001101000101100000110000011 5
b10000001100110001100000110000100 4
b101000101100000110000011 #!
b11 !!
b100110001100000110000100 "!
b11 ~
#400
0!
01
b110000100 W
b110000100 X
b100110001100000110000100 Y
b101000101100000110000011 Z
1c
b1 '!
#405
1!
11
b1 &!
b10 '!
#410
0!
01
b100110001100000110000100000000 *!
b10100010110000011000001100000 (!
b11111111111111111111111111111111 ,!
b11111111111111111111111111111111 -!
b111111111 1!
#415
1!
11
b10 &!
#420
0!
01
b1 Q
b100110001100000110000100000000 ,!
b11011001110011111001111011111111 -!
b10100110110111101110000000000 )!
b11011110000010011000100111101 (!
b11101010111010000000000000 +!
b110100000110010100011010011010 *!
b1 6
b1 &
#425
1!
11
#430
0!
01
b10 Q
b110100000110010100011010011010 ,!
b10010001010010010011110011010 -!
b11010100011011001011101110111 )!
b11111011011111101000100001000 (!
b111010111001011001101001110 +!
b111011000000101011000100000110 *!
b10 6
b10 &
#435
1!
11
#440
0!
01
b11 Q
b111011000000101011000100000110 ,!
b1111000110111111011110011100 -!
b11000011110111111000000 )!
b11111111111010111011001011001 (!
b11001110010101001000111010000 +!
b111100000011001001001110111111 *!
b11 6
b11 &
#445
1!
11
#450
0!
01
b100 Q
b111100000011001001001110111111 ,!
b111000011100010001010111001 -!
b1111010111111101010100001111 )!
b11111111111111111111111001100 (!
b1110110000111001100010011001 +!
b111100000100010101011011010111 *!
b100 6
b100 &
#455
1!
11
#460
0!
01
b101 Q
b111100000100010101011011010111 ,!
b111011100010101101000 -!
b11111111111111111010101110000 )!
b11111111111111111111111111111 (!
b10011100001011010001110101100 +!
b111100000100010101011100111000 *!
b101 6
b101 &
#465
1!
11
#470
0!
01
b110 Q
b111100000100010101011100111000 ,!
b111101111 -!
b11111111111111111111111111111 )!
b11100000100010101011100111000 +!
b111100000100010101011100111001 *!
b110 6
b110 &
#475
1!
11
#480
0!
01
b111 Q
b111100000100010101011100111001 ,!
b1 -!
b11100000100010101011100111001 +!
b111100000100010101011100111010 *!
b11 '!
b111 6
b111 &
#485
1!
11
b11 &!
b100 '!
#490
0!
01
b111100000100010101011100 .!
#495
1!
11
b100 &!
b0 '!
b11 2!
1T
0m
19
1)
#500
0!
01
b1111110 e
b11100000100010101011100 f
#505
1!
11
b0 &!
0l
b111111011100000100010101011100 R
b1 '!
b0 2!
0T
1m
09
b111111011100000100010101011100 7
b111111011100000100010101011100 '
0)
b10000010001000010000001000000101 8!
b10000010001010110000001000000100 9!
b110000 .
b100 /
#510
0!
01
b0 1!
b0 Q
b0 e
b0 f
0c
b0 '!
b0 6
b0 &
#515
1!
11
b10000010001000010000001000000101 $
b10000010001010110000001000000100 %
b111111011100010000011110101011 ,
r1.078644752874964e-314 *
r1.078968543242557e-314 +
1l
b10000010001010110000001000000100 5
b10000010001000010000001000000101 4
b101010110000001000000100 #!
b100 !!
b101000010000001000000101 "!
b100 ~
#520
0!
01
b110000101 W
b110000101 X
b101000010000001000000101 Y
b101010110000001000000100 Z
1c
b1 '!
#525
1!
11
b1 &!
b10 '!
#530
0!
01
b101000010000001000000101000000 *!
b10101011000000100000010000000 (!
b11111111111111111111111111111111 ,!
b11111111111111111111111111111111 -!
b111111111 1!
#535
1!
11
b10 &!
#540
0!
01
b1 Q
b101000010000001000000101000000 ,!
b11010111101111110111111010111111 -!
b1111101111111100000000000000 )!
b11100011110010000101011010100 (!
b111011011110110000000000000 +!
b110101100111011001101100001000 *!
b1 6
b1 &
#545
1!
11
#550
0!
01
b10 Q
b110101100111011001101100001000 ,!
b11101110111010001101001001000 -!
b11001000101100000001110000 )!
b11111100111000111100011011011 (!
b1010101001010100110101100000 +!
b111011100001101000000001010010 *!
b10 6
b10 &
#555
1!
11
#560
0!
01
b11 Q
b111011100001101000000001010010 ,!
b1110000110110001101101011010 -!
b10010000010011111010010100111 )!
b11111111111101100101001110001 (!
b111110100011100100111011010 +!
b111100001111111010001111010011 *!
b11 6
b11 &
#565
1!
11
#570
0!
01
b100 Q
b111100001111111010001111010011 ,!
b111101110010010001110000001 -!
b1001101011010111101000011111 )!
b11111111111111111111111110100 (!
b11000010010100011000111011101 +!
b111100010000011110101010100110 *!
b100 6
b100 &
#575
1!
11
#580
0!
01
b101 Q
b111100010000011110101010100110 ,!
b11111100100100101110101 -!
b11111111111111111111101110000 )!
b11111111111111111111111111111 (!
b10011000101101111111111001000 +!
b111100010000011110101010111100 *!
b101 6
b101 &
#585
1!
11
#590
0!
01
b110 Q
b111100010000011110101010111100 ,!
b11010 -!
b11111111111111111111111111111 )!
b11100010000011110101010111100 +!
b111100010000011110101010111101 *!
b11 '!
b110 6
b110 &
#595
1!
11
b11 &!
b100 '!
#600
0!
01
b111100010000011110101010 .!
#605
1!
11
b100 &!
b0 '!
b11 2!
1T
0m
19
1)
#610
0!
01
b1111110 e
b11100010000011110101010 f
#615
1!
11
b0 &!
0l
b111111011100010000011110101010 R
b1 '!
b0 2!
0T
1m
09
b111111011100010000011110101010 7
b111111011100010000011110101010 '
0)
b11000001000100000000000000000000 8!
b11000000010000000000000000000000 9!
b111011 .
b101 /
#620
0!
01
b0 1!
b0 Q
b0 e
b0 f
0c
b0 '!
b0 6
b0 &
#625
1!
11
b11000001000100000000000000000000 $
b11000000010000000000000000000000 %
b1000000010000000000000000000000 ,
r1.600303954661066e-314 *
r1.593569104738569e-314 +
1l
b11000000010000000000000000000000 5
b11000001000100000000000000000000 4
b110000000000000000000000 #!
b10000000 !!
b100100000000000000000000 "!
b10000010 ~
#630
0!
01
b11 W
b1 X
b100100000000000000000000 Y
b110000000000000000000000 Z
1c
b1 '!
#635
1!
11
b1 &!
b10 '!
#640
0!
01
b100100000000000000000000000000 *!
b11000000000000000000000000000 (!
b11111111111111111111111111111111 ,!
b11111111111111111111111111111111 -!
b1 1!
#645
1!
11
b10 &!
#650
0!
01
b1 Q
b100100000000000000000000000000 ,!
b11011011111111111111111111111111 -!
b0 )!
b11110000000000000000000000000 (!
b0 +!
b101101000000000000000000000000 *!
b1 6
b1 &
#655
1!
11
#660
0!
01
b10 Q
b101101000000000000000000000000 ,!
b1001000000000000000000000000 -!
b11111111000000000000000000000 (!
b101111110100000000000000000000 *!
b10 6
b10 &
#665
1!
11
#670
0!
01
b11 Q
b101111110100000000000000000000 ,!
b10110100000000000000000000 -!
b11111111111111110000000000000 (!
b101111111111111101000000000000 *!
b11 6
b11 &
#675
1!
11
#680
0!
01
b100 Q
b101111111111111101000000000000 ,!
b1011111101000000000000 -!
b11100000000000000000000000000 )!
b11111111111111111111111111111 (!
b11010000000000000000000000000 +!
b101111111111111111111111111111 *!
b100 6
b100 &
#685
1!
11
#690
0!
01
b101 Q
b101111111111111111111111111111 ,!
b10111111111111 -!
b11111111111111111111111111111 )!
b1111111111111111111111111111 +!
b110000000000000000000000000000 *!
b101 6
b101 &
#695
1!
11
#700
0!
01
b110 Q
b110000000000000000000000000000 ,!
b11111111111111111111111111111 -!
b10000000000000000000000000000 +!
b110000000000000000000000000001 *!
b110 6
b110 &
#705
1!
11
#710
0!
01
b111 Q
b110000000000000000000000000001 ,!
b1 -!
b10000000000000000000000000001 +!
b110000000000000000000000000010 *!
b11 '!
b111 6
b111 &
#715
1!
11
b11 &!
b100 '!
#720
0!
01
b110000000000000000000000 .!
#725
1!
11
b100 &!
b0 '!
b1 2!
1T
0m
19
1)
#730
0!
01
b10000000 e
b10000000000000000000000 f
#735
1!
11
b0 &!
0l
b1000000010000000000000000000000 R
b1 '!
b0 2!
0T
1m
09
b1000000010000000000000000000000 7
b1000000010000000000000000000000 '
0)
b11000001000100100001000000000001 8!
b11000000011111111111111111111111 9!
b1000111 .
b110 /
#740
0!
01
b0 1!
b0 Q
b0 e
b0 f
0c
b0 '!
b0 6
b0 &
#745
1!
11
b11000001000100100001000000000001 $
b11000000011111111111111111111111 %
b1000000000100100001000000000010 ,
r1.600370737020349e-314 *
r1.595641365759118e-314 +
1l
b11000000011111111111111111111111 5
b11000001000100100001000000000001 4
b111111111111111111111111 #!
b100100100001000000000001 "!
#750
0!
01
b100100100001000000000001 Y
b111111111111111111111111 Z
1c
b1 '!
#755
1!
11
b1 &!
b10 '!
#760
0!
01
b100100100001000000000001000000 *!
b11111111111111111111111100000 (!
b11111111111111111111111111111111 ,!
b11111111111111111111111111111111 -!
b1 1!
#765
1!
11
b10 &!
#770
0!
01
b1 Q
b100100100001000000000001000000 ,!
b11011011011110111111111110111111 -!
b11111111111111111110000000000 )!
b11111111111111111111111111111 (!
b10000100000000000100000000000 +!
b100100100001000000000001100100 *!
b1 6
b1 &
#775
1!
11
#780
0!
01
b10 Q
b100100100001000000000001100100 ,!
b100100 -!
b11111111111111111111111111111 )!
b100100001000000000001100100 +!
b100100100001000000000001100101 *!
b11 '!
b10 6
b10 &
#785
1!
11
b11 &!
b100 '!
#790
0!
01
b100100100001000000000010 .!
#795
1!
11
b100 &!
b0 '!
b1 2!
1T
0m
19
1)
#800
0!
01
b10000000 e
b100100001000000000010 f
#805
1!
11
b0 &!
0l
b1000000000100100001000000000010 R
b1 '!
b0 2!
0T
1m
09
b1000000000100100001000000000010 7
b1000000000100100001000000000010 '
0)
b10101111001111110100001111011110 8!
b10001011001111111111111111111111 9!
b1001110 .
b111 /
#810
0!
01
b0 1!
b0 Q
b0 e
b0 f
0c
b0 '!
b0 6
b0 &
#815
1!
11
b10101111001111110100001111011110 $
b10001011001111111111111111111111 %
b1100011011111110000010100101001 ,
r1.452631526555146e-314 *
r1.154249663146224e-314 +
1l
b10001011001111111111111111111111 5
b10101111001111110100001111011110 4
b101111111111111111111111 #!
b10110 !!
b101111110100001111011110 "!
b1011110 ~
#820
0!
01
b111011111 W
b110010111 X
b101111110100001111011110 Y
b101111111111111111111111 Z
1c
b1 '!
#825
1!
11
b1 &!
b10 '!
#830
0!
01
b101111110100001111011110000000 *!
b10111111111111111111111100000 (!
b11111111111111111111111111111111 ,!
b11111111111111111111111111111111 -!
b1000111 1!
#835
1!
11
b10 &!
#840
0!
01
b1 Q
b101111110100001111011110000000 ,!
b11010000001011110000100001111111 -!
b11111111111111111110000000000 )!
b11101111111111111111111101111 (!
b11010000111101111000000000000 +!
b111011110001010011010110001111 *!
b1 6
b1 &
#845
1!
11
#850
0!
01
b10 Q
b111011110001010011010110001111 ,!
b10100000101011100001000001111 -!
b11011111111111111111011011111 )!
b11111110111111111111111111101 (!
b10110000110001000111001111111 +!
b111111100000011000100100000111 *!
b10 6
b10 &
#855
1!
11
#860
0!
01
b11 Q
b111111100000011000100100000111 ,!
b100010001001011110010001000 -!
b11111001111111111111111110111 )!
b11111111111111101111111111111 (!
b11111011001001001101100010101 +!
b111111110000010000101010010101 *!
b11 6
b11 &
#865
1!
11
#870
0!
01
b100 Q
b111111110000010000101010010101 ,!
b10000001000001110010010 -!
b11011111111111011111111111111 )!
b11111111111111111111111111111 (!
b1000100111010101010010101 +!
b111111110000010100101001011000 *!
b100 6
b100 &
#875
1!
11
#880
0!
01
b101 Q
b111111110000010100101001011000 ,!
b100000011001101 -!
b11111111111111111111111111111 )!
b11111110000010100101001011000 +!
b111111110000010100101001011001 *!
b101 6
b101 &
#885
1!
11
#890
0!
01
b110 Q
b111111110000010100101001011001 ,!
b1 -!
b11111110000010100101001011001 +!
b111111110000010100101001011010 *!
b11 '!
b110 6
b110 &
#895
1!
11
b11 &!
b100 '!
#900
0!
01
b111111110000010100101010 .!
#905
1!
11
b100 &!
b0 '!
b11011 2!
1T
0m
19
1)
#910
0!
01
b11000110 e
b11111110000010100101010 f
#915
1!
11
b0 &!
0l
b1100011011111110000010100101010 R
b1 '!
b0 2!
0T
1m
09
b1100011011111110000010100101010 7
b1100011011111110000010100101010 '
0)
b101111001101110100111001111100 8!
b10001011011110111011101110110110 9!
b1011001 .
b1000 /
#920
0!
01
b0 1!
b0 Q
b0 e
b0 f
0c
b0 '!
b0 6
b0 &
#925
1!
11
b101111001101110100111001111100 $
b10001011011110111011101110110110 %
b11100011001110100110100111011101 ,
r3.913759412536086e-315 *
r1.15618377155462e-314 +
1l
b10001011011110111011101110110110 5
b101111001101110100111001111100 4
b111110111011101110110110 #!
b101101110100111001111100 "!
0|
#930
0!
01
0U
b101101110100111001111100 Y
b111110111011101110110110 Z
1c
b1 '!
#935
1!
11
b1 &!
b10 '!
#940
0!
01
b101101110100111001111100000000 *!
b11111011101110111011011000000 (!
b11111111111111111111111111111111 ,!
b11111111111111111111111111111111 -!
b1000111 1!
#945
1!
11
b10 &!
#950
0!
01
b1 Q
b101101110100111001111100000000 ,!
b11010010001011000110000011111111 -!
b10011010100111000000000000 )!
b11111111111011011100101101111 (!
b1100111111101100000000000000 +!
b101110100101110010011011110001 *!
b1 6
b1 &
#955
1!
11
#960
0!
01
b10 Q
b101110100101110010011011110001 ,!
b11010001001011100111110001 -!
b10010010010000110000111011111 )!
b11111111111111111111111010110 (!
b110001001001111010010000001 +!
b101110100110100111011100100001 *!
b10 6
b10 &
#965
1!
11
#970
0!
01
b11 Q
b101110100110100111011100100001 ,!
b11010101000111010000 -!
b11111111111111111100100011100 )!
b11111111111111111111111111111 (!
b101010101111000101101101010 +!
b101110100110100111011101011110 *!
b11 6
b11 &
#975
1!
11
#980
0!
01
b100 Q
b101110100110100111011101011110 ,!
b1111111 -!
b11111111111111111111111111111 )!
b1110100110100111011101011110 +!
b101110100110100111011101011111 *!
b100 6
b100 &
#985
1!
11
#990
0!
01
b101 Q
b101110100110100111011101011111 ,!
b1 -!
b1110100110100111011101011111 +!
b101110100110100111011101100000 *!
b11 '!
b101 6
b101 &
#995
1!
11
b11 &!
b100 '!
#1000
0!
01
b101110100110100111011110 .!
#1005
1!
11
b100 &!
b0 '!
b11011 2!
10!
1T
0m
19
1)
#1010
0!
01
1d
b11000110 e
b1110100110100111011110 f
#1015
1!
11
b0 &!
0l
b11100011001110100110100111011110 R
b1 '!
b0 2!
00!
0T
1m
09
b11100011001110100110100111011110 7
b11100011001110100110100111011110 '
0)
b10101111001101110100111001111100 8!
b1011011111111011101110110110 9!
b1100011 .
b1001 /
#1020
0!
01
b0 1!
b0 Q
0d
b0 e
b0 f
0c
b0 '!
b0 6
b0 &
#1025
1!
11
b10101111001101110100111001111100 $
b1011011111111011101110110110 %
b11100011001101110111111101101111 ,
r1.452373836736245e-314 *
r9.53153924166475e-316 +
1l
b1011011111111011101110110110 5
b10101111001101110100111001111100 4
b111111111011101110110110 #!
0}
1|
#1030
0!
01
1U
0V
b111111111011101110110110 Z
1c
b1 '!
#1035
1!
11
b1 &!
b10 '!
