apb2apb_bridge/run_cad/apb_bridge_tb.vcd
$date
    Dec  2, 2019  17:22:40
$end
$version
    TOOL:	ncsim(64)	15.20-s060
$end
$timescale
    1 ns
$end

$scope module apb_bridge_tb $end
$var reg       1 !    clk  $end
$var reg       1 "    rst_n  $end
$var reg       4 #    strb [3:0] $end
$var reg       2 $    dsel [1:0] $end
$var reg       1 %    trnsfr  $end
$var reg       1 &    wr  $end
$var reg      32 '    address [31:0] $end
$var reg      32 (    data_in [31:0] $end
$var reg      32 )    data_out [31:0] $end
$var reg       1 *    mem_wr  $end
$var reg       1 +    mem_rd  $end
$var reg       4 ,    mem_be [3:0] $end
$var reg      32 -    mem_address [31:0] $end
$var reg      32 .    mem_data_in [31:0] $end
$var reg      32 /    mem_data_out [31:0] $end

$scope module test_bus $end
$var wire      1 0    clk  $end
$var wire      1 1    rst_n  $end
$var wire      2 2    dsel [1:0] $end
$var wire      4 3    strb [3:0] $end
$var wire      1 4    trnsfr  $end
$var wire      1 5    wr  $end
$var wire     32 6    address [31:0] $end
$var wire     32 7    data_in [31:0] $end
$var reg      32 8    data_out [31:0] $end
$var reg       1 9    mem_wr  $end
$var reg       1 :    mem_rd  $end
$var reg       4 ;    mem_be [3:0] $end
$var reg      32 <    mem_address [31:0] $end
$var reg      32 =    mem_data_in [31:0] $end
$var wire     32 >    mem_data_out [31:0] $end
$var reg       1 ?    sel  $end
$var reg       1 @    enable  $end
$var reg       1 A    write  $end
$var reg       4 B    strobe [3:0] $end
$var reg      32 C    addr [31:0] $end
$var reg      32 D    wdata [31:0] $end
$var reg       1 E    ready  $end
$var reg       1 F    slverr  $end
$var reg      32 G    rdata [31:0] $end
$upscope $end


$scope module apb2apb $end

$scope module pbus $end
$var wire      1 0    clk  $end
$var wire      1 1    rst_n  $end
$var wire      2 2    dsel [1:0] $end
$var wire      4 3    strb [3:0] $end
$var wire      1 4    trnsfr  $end
$var wire      1 5    wr  $end
$var wire     32 6    address [31:0] $end
$var wire     32 7    data_in [31:0] $end
$var reg      32 H    data_out [31:0] $end
$var reg       1 I    mem_wr  $end
$var reg       1 J    mem_rd  $end
$var reg       4 K    mem_be [3:0] $end
$var reg      32 L    mem_address [31:0] $end
$var reg      32 M    mem_data_in [31:0] $end
$var wire     32 >    mem_data_out [31:0] $end
$var reg       1 N    sel  $end
$var reg       1 O    enable  $end
$var reg       1 P    write  $end
$var reg       4 Q    strobe [3:0] $end
$var reg      32 R    addr [31:0] $end
$var reg      32 S    wdata [31:0] $end
$var reg       1 T    ready  $end
$var reg       1 U    slverr  $end
$var reg      32 V    rdata [31:0] $end
$upscope $end


$scope module pmaster $end
$var reg       2 W    m_state [1:0] $end
$var reg       2 X    m_nxt_state [1:0] $end
$var reg       4 Y    strb_reg [3:0] $end
$var reg       1 Z    wr_reg  $end
$var reg      32 [    address_reg [31:0] $end
$var reg      32 \    data_in_reg [31:0] $end
$upscope $end


$scope module pslave $end
$var reg       2 ]    s_state [1:0] $end
$var reg       2 ^    s_nxt_state [1:0] $end
$var reg      32 _    addr_compare [31:0] $end
$var reg       1 `    enable_reg  $end
$upscope $end

$upscope $end


$scope module mem_bus $end
$var wire      1 a    clk  $end
$var wire      1 b    rst_n  $end
$var wire      1 c    mem_wr  $end
$var wire      1 d    mem_rd  $end
$var wire      4 e    mem_be [3:0] $end
$var wire     32 f    mem_address [31:0] $end
$var wire     32 g    mem_data_in [31:0] $end
$var reg      32 h    mem_data_out [31:0] $end
$upscope $end


$scope module memory $end

$scope begin genblk1[0] $end
$var parameter 32 i    k [31:0] $end
$upscope $end


$scope begin genblk1[1] $end
$var parameter 32 j    k [31:0] $end
$upscope $end


$scope begin genblk1[2] $end
$var parameter 32 k    k [31:0] $end
$upscope $end


$scope begin genblk1[3] $end
$var parameter 32 l    k [31:0] $end
$upscope $end


$scope begin genblk2[0] $end
$var parameter 32 m    m [31:0] $end
$upscope $end


$scope begin genblk2[1] $end
$var parameter 32 n    m [31:0] $end
$upscope $end


$scope begin genblk2[2] $end
$var parameter 32 o    m [31:0] $end
$upscope $end


$scope begin genblk2[3] $end
$var parameter 32 p    m [31:0] $end
$upscope $end

$upscope $end


$scope task single_write $end
$var reg      32 q    address_sr [31:0] $end
$var reg       4 r    strb_sr [3:0] $end
$var reg      32 s    data_sr [31:0] $end
$upscope $end


$scope task single_read $end
$var reg      32 t    address_sr [31:0] $end
$var reg       4 u    strb_sr [3:0] $end
$upscope $end


$scope task burst_write $end
$var reg      32 v    address_sr [31:0] $end
$var reg       4 w    strb_sr [3:0] $end
$var reg      32 x    data_sr [31:0] $end
$var integer  32 y    count  $end
$upscope $end


$scope task burst_read $end
$var reg      32 z    address_sr [31:0] $end
$var reg       4 {    strb_sr [3:0] $end
$var integer  32 |    count  $end
$upscope $end

$upscope $end

$enddefinitions $end
$dumpvars
b11 p
b10 o
b1 n
b0 m
b11 l
b10 k
b1 j
b0 i
0!
0"
b0 #
b0 $
0%
0&
b0 '
b0 (
b0 )
0*
0+
b0 ,
b0 -
b0 .
bx /
00
01
b0 2
b0 3
04
05
b0 6
b0 7
b0 8
09
0:
b0 ;
b0 <
b0 =
bx >
x?
x@
xA
bx B
bx C
bx D
xE
xF
bx G
b0 H
0I
0J
b0 K
b0 L
b0 M
0N
0O
0P
b0 Q
b0 R
b0 S
0T
0U
b0 V
b0 W
b0 X
b0 Y
0Z
b0 [
b0 \
b0 ]
b0 ^
b0 _
0`
0a
0b
0c
0d
b0 e
b0 f
b0 g
bx h
b0 q
b0 r
b0 s
b0 t
b0 u
b0 v
b0 w
b0 x
b0 y
b0 z
b0 {
b0 |
$end
#5
1!
1a
10
b0xxxxxxxxxxxxxxxxxxxxxxxx h
b0xxxxxxxxxxxxxxxx h
b0xxxxxxxx h
b0 h
b0 /
b0 >
#10
0!
0a
00
#15
1!
1a
10
#20
0!
0a
00
#25
1!
1a
10
#30
0!
0a
00
#35
1!
1a
10
#40
0!
0a
00
#45
1!
b11110000 q
b1111 r
b10100011001000010000 s
1a
10
1"
1b
11
#50
0!
0a
00
#55
1!
1a
10
1%
1&
b1111 #
b11110000 '
b10100011001000010000 (
b10100011001000010000 7
b11110000 6
b1111 3
15
14
b1 X
#60
0!
0a
00
#65
1!
1a
10
0%
0&
b1 W
b1111 Y
1Z
b11110000 [
b10100011001000010000 \
05
04
b10 X
1N
b11110000 R
1P
b10100011001000010000 S
b1 ^
#70
0!
0a
00
#75
1!
1a
10
b1 ]
b10 W
1I
b11110000 L
b10100011001000010000 M
1O
b1111 Q
b10100011001000010000 =
b11110000 <
19
1*
b11110000 -
b10100011001000010000 .
b10100011001000010000 g
b11110000 f
1c
b10 ^
b1111 K
b1111 ;
b1111 ,
b1111 e
#80
0!
0a
00
#85
1!
1a
10
b10 ]
1`
b0 ^
1T
b0 X
#90
0!
0a
00
#95
1!
1a
10
b0 ]
b0 W
0T
0I
b0 K
b0 L
b0 M
0N
0O
0P
b0 Q
b0 R
b0 S
b11110001 q
b10100011001000010001 s
b0 =
b0 <
b0 ;
09
0*
b0 ,
b0 -
b0 .
b0 g
b0 f
b0 e
0c
#100
0!
0a
00
#105
1!
1a
10
1%
1&
b11110001 '
b10100011001000010001 (
0`
b10100011001000010001 7
b11110001 6
15
14
b1 X
#110
0!
0a
00
#115
1!
1a
10
0%
0&
b1 W
b11110001 [
b10100011001000010001 \
05
04
b10 X
1N
b11110001 R
1P
b10100011001000010001 S
b1 ^
#120
0!
0a
00
#125
1!
1a
10
b1 ]
b10 W
1I
b11110001 L
b10100011001000010001 M
1O
b1111 Q
b10100011001000010001 =
b11110001 <
19
1*
b11110001 -
b10100011001000010001 .
b10100011001000010001 g
b11110001 f
1c
b10 ^
b1111 K
b1111 ;
b1111 ,
b1111 e
#130
0!
0a
00
#135
1!
1a
10
b10 ]
1`
b0 ^
1T
b0 X
#140
0!
0a
00
#145
1!
1a
10
b0 ]
b0 W
0T
0I
b0 K
b0 L
b0 M
0N
0O
0P
b0 Q
b0 R
b0 S
b11110010 q
b10100011001000010010 s
b0 =
b0 <
b0 ;
09
0*
b0 ,
b0 -
b0 .
b0 g
b0 f
b0 e
0c
#150
0!
0a
00
#155
1!
1a
10
1%
1&
b11110010 '
b10100011001000010010 (
0`
b10100011001000010010 7
b11110010 6
15
14
b1 X
#160
0!
0a
00
#165
1!
1a
10
0%
0&
b1 W
b11110010 [
b10100011001000010010 \
05
04
b10 X
1N
b11110010 R
1P
b10100011001000010010 S
b1 ^
#170
0!
0a
00
#175
1!
1a
10
b1 ]
b10 W
1I
b11110010 L
b10100011001000010010 M
1O
b1111 Q
b10100011001000010010 =
b11110010 <
19
1*
b11110010 -
b10100011001000010010 .
b10100011001000010010 g
b11110010 f
1c
b10 ^
b1111 K
b1111 ;
b1111 ,
b1111 e
#180
0!
0a
00
#185
1!
1a
10
b10 ]
1`
b0 ^
1T
b0 X
#190
0!
0a
00
#195
1!
1a
10
b0 ]
b0 W
0T
0I
b0 K
b0 L
b0 M
0N
0O
0P
b0 Q
b0 R
b0 S
b11110011 q
b10100011001000010011 s
b0 =
b0 <
b0 ;
09
0*
b0 ,
b0 -
b0 .
b0 g
b0 f
b0 e
0c
#200
0!
0a
00
#205
1!
1a
10
1%
1&
b11110011 '
b10100011001000010011 (
0`
b10100011001000010011 7
b11110011 6
15
14
b1 X
#210
0!
0a
00
#215
1!
1a
10
0%
0&
b1 W
b11110011 [
b10100011001000010011 \
05
04
b10 X
1N
b11110011 R
1P
b10100011001000010011 S
b1 ^
#220
0!
0a
00
#225
1!
1a
10
b1 ]
b10 W
1I
b11110011 L
b10100011001000010011 M
1O
b1111 Q
b10100011001000010011 =
b11110011 <
19
1*
b11110011 -
b10100011001000010011 .
b10100011001000010011 g
b11110011 f
1c
b10 ^
b1111 K
b1111 ;
b1111 ,
b1111 e
#230
0!
0a
00
#235
1!
1a
10
b10 ]
1`
b0 ^
1T
b0 X
#240
0!
0a
00
#245
1!
1a
10
b0 ]
b0 W
0T
0I
b0 K
b0 L
b0 M
0N
0O
0P
b0 Q
b0 R
b0 S
b11110100 q
b10100011001000010100 s
b0 =
b0 <
b0 ;
09
0*
b0 ,
b0 -
b0 .
b0 g
b0 f
b0 e
0c
#250
0!
0a
00
#255
1!
1a
10
1%
1&
b11110100 '
b10100011001000010100 (
0`
b10100011001000010100 7
b11110100 6
15
14
b1 X
#260
0!
0a
00
#265
1!
1a
10
0%
0&
b1 W
b11110100 [
b10100011001000010100 \
05
04
b10 X
1N
b11110100 R
1P
b10100011001000010100 S
b1 ^
#270
0!
0a
00
#275
1!
1a
10
b1 ]
b10 W
1I
b11110100 L
b10100011001000010100 M
1O
b1111 Q
b10100011001000010100 =
b11110100 <
19
1*
b11110100 -
b10100011001000010100 .
b10100011001000010100 g
b11110100 f
1c
b10 ^
b1111 K
b1111 ;
b1111 ,
b1111 e
#280
0!
0a
00
#285
1!
1a
10
b10 ]
1`
b0 ^
1T
b0 X
#290
0!
0a
00
#295
1!
1a
10
b0 ]
b0 W
0T
0I
b0 K
b0 L
b0 M
0N
0O
0P
b0 Q
b0 R
b0 S
b11110101 q
b10100011001000010101 s
b0 =
b0 <
b0 ;
09
0*
b0 ,
b0 -
b0 .
b0 g
b0 f
b0 e
0c
#300
0!
0a
00
#305
1!
1a
10
1%
1&
b11110101 '
b10100011001000010101 (
0`
b10100011001000010101 7
b11110101 6
15
14
b1 X
#310
0!
0a
00
#315
1!
1a
10
0%
0&
b1 W
b11110101 [
b10100011001000010101 \
05
04
b10 X
1N
b11110101 R
1P
b10100011001000010101 S
b1 ^
#320
0!
0a
00
#325
1!
1a
10
b1 ]
b10 W
1I
b11110101 L
b10100011001000010101 M
1O
b1111 Q
b10100011001000010101 =
b11110101 <
19
1*
b11110101 -
b10100011001000010101 .
b10100011001000010101 g
b11110101 f
1c
b10 ^
b1111 K
b1111 ;
b1111 ,
b1111 e
#330
0!
0a
00
#335
1!
1a
10
b10 ]
1`
b0 ^
1T
b0 X
#340
0!
0a
00
#345
1!
1a
10
b0 ]
b0 W
0T
0I
b0 K
b0 L
b0 M
0N
0O
0P
b0 Q
b0 R
b0 S
b11110110 q
b10100011001000010110 s
b0 =
b0 <
b0 ;
09
0*
b0 ,
b0 -
b0 .
b0 g
b0 f
b0 e
0c
#350
0!
0a
00
#355
1!
1a
10
1%
1&
b11110110 '
b10100011001000010110 (
0`
b10100011001000010110 7
b11110110 6
15
14
b1 X
#360
0!
0a
00
#365
1!
1a
10
0%
0&
b1 W
b11110110 [
b10100011001000010110 \
05
04
b10 X
1N
b11110110 R
1P
b10100011001000010110 S
b1 ^
#370
0!
0a
00
#375
1!
1a
10
b1 ]
b10 W
1I
b11110110 L
b10100011001000010110 M
1O
b1111 Q
b10100011001000010110 =
b11110110 <
19
1*
b11110110 -
b10100011001000010110 .
b10100011001000010110 g
b11110110 f
1c
b10 ^
b1111 K
b1111 ;
b1111 ,
b1111 e
#380
0!
0a
00
#385
1!
1a
10
b10 ]
1`
b0 ^
1T
b0 X
#390
0!
0a
00
#395
1!
1a
10
b0 ]
b0 W
0T
0I
b0 K
b0 L
b0 M
0N
0O
0P
b0 Q
b0 R
b0 S
b11110111 q
b10100011001000010111 s
b0 =
b0 <
b0 ;
09
0*
b0 ,
b0 -
b0 .
b0 g
b0 f
b0 e
0c
#400
0!
0a
00
#405
1!
1a
10
1%
1&
b11110111 '
b10100011001000010111 (
0`
b10100011001000010111 7
b11110111 6
15
14
b1 X
#410
0!
0a
00
#415
1!
1a
10
0%
0&
b1 W
b11110111 [
b10100011001000010111 \
05
04
b10 X
1N
b11110111 R
1P
b10100011001000010111 S
b1 ^
#420
0!
0a
00
#425
1!
1a
10
b1 ]
b10 W
1I
b11110111 L
b10100011001000010111 M
1O
b1111 Q
b10100011001000010111 =
b11110111 <
19
1*
b11110111 -
b10100011001000010111 .
b10100011001000010111 g
b11110111 f
1c
b10 ^
b1111 K
b1111 ;
b1111 ,
b1111 e
#430
0!
0a
00
#435
1!
1a
10
b10 ]
1`
b0 ^
1T
b0 X
#440
0!
0a
00
#445
1!
1a
10
b0 ]
b0 W
0T
0I
b0 K
b0 L
b0 M
0N
0O
0P
b0 Q
b0 R
b0 S
b11111000 q
b10100011001000011000 s
b0 =
b0 <
b0 ;
09
0*
b0 ,
b0 -
b0 .
b0 g
b0 f
b0 e
0c
#450
0!
0a
00
#455
1!
1a
10
1%
1&
b11111000 '
b10100011001000011000 (
0`
b10100011001000011000 7
b11111000 6
15
14
b1 X
#460
0!
0a
00
#465
1!
1a
10
0%
0&
b1 W
b11111000 [
b10100011001000011000 \
05
04
b10 X
1N
b11111000 R
1P
b10100011001000011000 S
b1 ^
#470
0!
0a
00
#475
1!
1a
10
b1 ]
b10 W
1I
b11111000 L
b10100011001000011000 M
1O
b1111 Q
b10100011001000011000 =
b11111000 <
19
1*
b11111000 -
b10100011001000011000 .
b10100011001000011000 g
b11111000 f
1c
b10 ^
b1111 K
b1111 ;
b1111 ,
b1111 e
#480
0!
0a
00
#485
1!
1a
10
b10 ]
1`
b0 ^
1T
b0 X
#490
0!
0a
00
#495
1!
1a
10
b0 ]
b0 W
0T
0I
b0 K
b0 L
b0 M
0N
0O
0P
b0 Q
b0 R
b0 S
b11111001 q
b10100011001000011001 s
b0 =
b0 <
b0 ;
09
0*
b0 ,
b0 -
b0 .
b0 g
b0 f
b0 e
0c
#500
0!
0a
00
#505
1!
1a
10
1%
1&
b11111001 '
b10100011001000011001 (
0`
b10100011001000011001 7
b11111001 6
15
14
b1 X
#510
0!
0a
00
#515
1!
1a
10
0%
0&
b1 W
b11111001 [
b10100011001000011001 \
05
04
b10 X
1N
b11111001 R
1P
b10100011001000011001 S
b1 ^
#520
0!
0a
00
#525
1!
1a
10
b1 ]
b10 W
1I
b11111001 L
b10100011001000011001 M
1O
b1111 Q
b10100011001000011001 =
b11111001 <
19
1*
b11111001 -
b10100011001000011001 .
b10100011001000011001 g
b11111001 f
1c
b10 ^
b1111 K
b1111 ;
b1111 ,
b1111 e
#530
0!
0a
00
#535
1!
1a
10
b10 ]
1`
b0 ^
1T
b0 X
#540
0!
0a
00
#545
1!
1a
10
b0 ]
b0 W
0T
0I
b0 K
b0 L
b0 M
0N
0O
0P
b0 Q
b0 R
b0 S
b11110000 t
b1111 u
b0 =
b0 <
b0 ;
09
0*
b0 ,
b0 -
b0 .
b0 g
b0 f
b0 e
0c
#550
0!
0a
00
#555
1!
1a
10
1%
b11110000 '
0`
b11110000 6
14
b1 X
#560
0!
0a
00
#565
1!
1a
10
0%
b1 W
0Z
b11110000 [
04
b10 X
1N
b11110000 R
b1 ^
#570
0!
0a
00
#575
1!
1a
10
b1 ]
b10 W
1J
b11110000 L
1O
b1111 Q
b11110000 <
1:
1+
b11110000 -
b11110000 f
1d
b10 ^
b1111 K
b1111 ;
b1111 ,
b1111 e
#580
0!
0a
00
#585
1!
1a
10
b10100000000000000000 h
b10100011001000000000 h
b10100011001000010000 h
b10 ]
1`
b10100011001000010000 /
b10100011001000010000 >
b0 ^
1T
b10100011001000010000 V
b0 X
b10100011001000010000 H
b10100011001000010000 8
b10100011001000010000 )
#590
0!
0a
00
#595
1!
1a
10
b0 ]
b0 W
0T
b0 V
0J
b0 K
b0 L
0N
0O
b0 Q
b0 R
b0 H
b11110001 t
b0 8
b0 <
b0 ;
0:
0+
b0 ,
b0 -
b0 )
b0 f
b0 e
0d
#600
0!
0a
00
#605
1!
1a
10
1%
b11110001 '
b11001000010000 h
b10000 h
b0 h
0`
b11110001 6
14
b0 /
b0 >
b1 X
#610
0!
0a
00
#615
1!
1a
10
0%
b1 W
b11110001 [
04
b10 X
1N
b11110001 R
b1 ^
#620
0!
0a
00
#625
1!
1a
10
b1 ]
b10 W
1J
b11110001 L
1O
b1111 Q
b11110001 <
1:
1+
b11110001 -
b11110001 f
1d
b10 ^
b1111 K
b1111 ;
b1111 ,
b1111 e
#630
0!
0a
00
#635
1!
1a
10
b10100000000000000000 h
b10100011001000000000 h
b10100011001000010001 h
b10 ]
1`
b10100011001000010001 /
b10100011001000010001 >
b0 ^
1T
b10100011001000010001 V
b0 X
b10100011001000010001 H
b10100011001000010001 8
b10100011001000010001 )
#640
0!
0a
00
#645
1!
1a
10
b0 ]
b0 W
0T
b0 V
0J
b0 K
b0 L
0N
0O
b0 Q
b0 R
b0 H
b11110010 t
b0 8
b0 <
b0 ;
0:
0+
b0 ,
b0 -
b0 )
b0 f
b0 e
0d
#650
0!
0a
00
#655
1!
1a
10
1%
b11110010 '
b11001000010001 h
b10001 h
b0 h
0`
b11110010 6
14
b0 /
b0 >
b1 X
#660
0!
0a
00
#665
1!
1a
10
0%
b1 W
b11110010 [
04
b10 X
1N
b11110010 R
b1 ^
#670
0!
0a
00
#675
1!
1a
10
b1 ]
b10 W
1J
b11110010 L
1O
b1111 Q
b11110010 <
1:
1+
b11110010 -
b11110010 f
1d
b10 ^
b1111 K
b1111 ;
b1111 ,
b1111 e
#680
0!
0a
00
#685
1!
1a
10
b10100000000000000000 h
b10100011001000000000 h
b10100011001000010010 h
b10 ]
1`
b10100011001000010010 /
b10100011001000010010 >
b0 ^
1T
b10100011001000010010 V
b0 X
b10100011001000010010 H
b10100011001000010010 8
b10100011001000010010 )
#690
0!
0a
00
#695
1!
1a
10
b0 ]
b0 W
0T
b0 V
0J
b0 K
b0 L
0N
0O
b0 Q
b0 R
b0 H
b11110011 t
b0 8
b0 <
b0 ;
0:
0+
b0 ,
b0 -
b0 )
b0 f
b0 e
0d
#700
0!
0a
00
#705
1!
1a
10
1%
b11110011 '
b11001000010010 h
b10010 h
b0 h
0`
b11110011 6
14
b0 /
b0 >
b1 X
#710
0!
0a
00
#715
1!
1a
10
0%
b1 W
b11110011 [
04
b10 X
1N
b11110011 R
b1 ^
#720
0!
0a
00
#725
1!
1a
10
b1 ]
b10 W
1J
b11110011 L
1O
b1111 Q
b11110011 <
1:
1+
b11110011 -
b11110011 f
1d
b10 ^
b1111 K
b1111 ;
b1111 ,
b1111 e
#730
0!
0a
00
#735
1!
1a
10
b10100000000000000000 h
b10100011001000000000 h
b10100011001000010011 h
b10 ]
1`
b10100011001000010011 /
b10100011001000010011 >
b0 ^
1T
b10100011001000010011 V
b0 X
b10100011001000010011 H
b10100011001000010011 8
b10100011001000010011 )
#740
0!
0a
00
#745
1!
1a
10
b0 ]
b0 W
0T
b0 V
0J
b0 K
b0 L
0N
0O
b0 Q
b0 R
b0 H
b11110100 t
b0 8
b0 <
b0 ;
0:
0+
b0 ,
b0 -
b0 )
b0 f
b0 e
0d
#750
0!
0a
00
#755
1!
1a
10
1%
b11110100 '
b11001000010011 h
b10011 h
b0 h
0`
b11110100 6
14
b0 /
b0 >
b1 X
#760
0!
0a
00
#765
1!
1a
10
0%
b1 W
b11110100 [
04
b10 X
1N
b11110100 R
b1 ^
#770
0!
0a
00
#775
1!
1a
10
b1 ]
b10 W
1J
b11110100 L
1O
b1111 Q
b11110100 <
1:
1+
b11110100 -
b11110100 f
1d
b10 ^
b1111 K
b1111 ;
b1111 ,
b1111 e
#780
0!
0a
00
#785
1!
1a
10
b10100000000000000000 h
b10100011001000000000 h
b10100011001000010100 h
b10 ]
1`
b10100011001000010100 /
b10100011001000010100 >
b0 ^
1T
b10100011001000010100 V
b0 X
b10100011001000010100 H
b10100011001000010100 8
b10100011001000010100 )
#790
0!
0a
00
#795
1!
1a
10
b0 ]
b0 W
0T
b0 V
0J
b0 K
b0 L
0N
0O
b0 Q
b0 R
b0 H
b11110101 t
b0 8
b0 <
b0 ;
0:
0+
b0 ,
b0 -
b0 )
b0 f
b0 e
0d
#800
0!
0a
00
#805
1!
1a
10
1%
b11110101 '
b11001000010100 h
b10100 h
b0 h
0`
b11110101 6
14
b0 /
b0 >
b1 X
#810
0!
0a
00
#815
1!
1a
10
0%
b1 W
b11110101 [
04
b10 X
1N
b11110101 R
b1 ^
#820
0!
0a
00
#825
1!
1a
10
b1 ]
b10 W
1J
b11110101 L
1O
b1111 Q
b11110101 <
1:
1+
b11110101 -
b11110101 f
1d
b10 ^
b1111 K
b1111 ;
b1111 ,
b1111 e
#830
0!
0a
00
#835
1!
1a
10
b10100000000000000000 h
b10100011001000000000 h
b10100011001000010101 h
b10 ]
1`
b10100011001000010101 /
b10100011001000010101 >
b0 ^
1T
b10100011001000010101 V
b0 X
b10100011001000010101 H
b10100011001000010101 8
b10100011001000010101 )
#840
0!
0a
00
#845
1!
1a
10
b0 ]
b0 W
0T
b0 V
0J
b0 K
b0 L
0N
0O
b0 Q
b0 R
b0 H
b11110110 t
b0 8
b0 <
b0 ;
0:
0+
b0 ,
b0 -
b0 )
b0 f
b0 e
0d
#850
0!
0a
00
#855
1!
1a
10
1%
b11110110 '
b11001000010101 h
b10101 h
b0 h
0`
b11110110 6
14
b0 /
b0 >
b1 X
#860
0!
0a
00
#865
1!
1a
10
0%
b1 W
b11110110 [
04
b10 X
1N
b11110110 R
b1 ^
#870
0!
0a
00
#875
1!
1a
10
b1 ]
b10 W
1J
b11110110 L
1O
b1111 Q
b11110110 <
1:
1+
b11110110 -
b11110110 f
1d
b10 ^
b1111 K
b1111 ;
b1111 ,
b1111 e
#880
0!
0a
00
#885
1!
1a
10
b10100000000000000000 h
b10100011001000000000 h
b10100011001000010110 h
b10 ]
1`
b10100011001000010110 /
b10100011001000010110 >
b0 ^
1T
b10100011001000010110 V
b0 X
b10100011001000010110 H
b10100011001000010110 8
b10100011001000010110 )
#890
0!
0a
00
#895
1!
1a
10
b0 ]
b0 W
0T
b0 V
0J
b0 K
b0 L
0N
0O
b0 Q
b0 R
b0 H
b11110111 t
b0 8
b0 <
b0 ;
0:
0+
b0 ,
b0 -
b0 )
b0 f
b0 e
0d
#900
0!
0a
00
#905
1!
1a
10
1%
b11110111 '
b11001000010110 h
b10110 h
b0 h
0`
b11110111 6
14
b0 /
b0 >
b1 X
#910
0!
0a
00
#915
1!
1a
10
0%
b1 W
b11110111 [
04
b10 X
1N
b11110111 R
b1 ^
#920
0!
0a
00
#925
1!
1a
10
b1 ]
b10 W
1J
b11110111 L
1O
b1111 Q
b11110111 <
1:
1+
b11110111 -
b11110111 f
1d
b10 ^
b1111 K
b1111 ;
b1111 ,
b1111 e
#930
0!
0a
00
#935
1!
1a
10
b10100000000000000000 h
b10100011001000000000 h
b10100011001000010111 h
b10 ]
1`
b10100011001000010111 /
b10100011001000010111 >
b0 ^
1T
b10100011001000010111 V
b0 X
b10100011001000010111 H
b10100011001000010111 8
b10100011001000010111 )
#940
0!
0a
00
#945
1!
1a
10
b0 ]
b0 W
0T
b0 V
0J
b0 K
b0 L
0N
0O
b0 Q
b0 R
b0 H
b11111000 t
b0 8
b0 <
b0 ;
0:
0+
b0 ,
b0 -
b0 )
b0 f
b0 e
0d
#950
0!
0a
00
#955
1!
1a
10
1%
b11111000 '
b11001000010111 h
b10111 h
b0 h
0`
b11111000 6
14
b0 /
b0 >
b1 X
#960
0!
0a
00
#965
1!
1a
10
0%
b1 W
b11111000 [
04
b10 X
1N
b11111000 R
b1 ^
#970
0!
0a
00
#975
1!
1a
10
b1 ]
b10 W
1J
b11111000 L
1O
b1111 Q
b11111000 <
1:
1+
b11111000 -
b11111000 f
1d
b10 ^
b1111 K
b1111 ;
b1111 ,
b1111 e
#980
0!
0a
00
#985
1!
1a
10
b10100000000000000000 h
b10100011001000000000 h
b10100011001000011000 h
b10 ]
1`
b10100011001000011000 /
b10100011001000011000 >
b0 ^
1T
b10100011001000011000 V
b0 X
b10100011001000011000 H
b10100011001000011000 8
b10100011001000011000 )
#990
0!
0a
00
#995
1!
1a
10
b0 ]
b0 W
0T
b0 V
0J
b0 K
b0 L
0N
0O
b0 Q
b0 R
b0 H
b11111001 t
b0 8
b0 <
b0 ;
0:
0+
b0 ,
b0 -
b0 )
b0 f
b0 e
0d
#1000
0!
0a
00
#1005
1!
1a
10
1%
b11111001 '
b11001000011000 h
b11000 h
b0 h
0`
b11111001 6
14
b0 /
b0 >
b1 X
#1010
0!
0a
00
#1015
1!
1a
10
0%
b1 W
b11111001 [
04
b10 X
1N
b11111001 R
b1 ^
#1020
0!
0a
00
#1025
1!
1a
10
b1 ]
b10 W
1J
b11111001 L
1O
b1111 Q
b11111001 <
1:
1+
b11111001 -
b11111001 f
1d
b10 ^
b1111 K
b1111 ;
b1111 ,
b1111 e
#1030
0!
0a
00
#1035
1!
1a
10
b10100000000000000000 h
b10100011001000000000 h
b10100011001000011001 h
b10 ]
1`
b10100011001000011001 /
b10100011001000011001 >
b0 ^
1T
b10100011001000011001 V
b0 X
b10100011001000011001 H
b10100011001000011001 8
b10100011001000011001 )
#1040
0!
0a
00
#1045
1!
1a
10
b0 ]
b0 W
0T
b0 V
0J
b0 K
b0 L
0N
0O
b0 Q
b0 R
b0 H
b10110000 v
b1111 w
b11000000110110010100001011110000 x
b1000 y
b0 8
b0 <
b0 ;
0:
0+
b0 ,
b0 -
b0 )
b0 f
b0 e
0d
#1050
0!
0a
00
#1055
1!
1a
10
1%
1&
b10110000 '
b11000000110110010100001011110000 (
b11001000011001 h
b11001 h
b0 h
0`
b11000000110110010100001011110000 7
b10110000 6
15
14
b0 /
b0 >
b1 X
#1060
0!
0a
00
#1065
1!
1a
10
b1 W
1Z
b10110000 [
b11000000110110010100001011110000 \
b10 X
1N
b10110000 R
1P
b11000000110110010100001011110000 S
b1 ^
#1070
0!
0a
00
#1075
1!
1a
10
b1 ]
b10 W
1I
b10110000 L
b11000000110110010100001011110000 M
1O
b1111 Q
b11000000110110010100001011110000 =
b10110000 <
19
1*
b10110000 -
b11000000110110010100001011110000 .
b11000000110110010100001011110000 g
b10110000 f
1c
b10 ^
b1111 K
b1111 ;
b1111 ,
b1111 e
#1080
0!
0a
00
#1085
1!
1a
10
b10110001 '
b11000000110110010100001011110001 (
b10 ]
1`
b11000000110110010100001011110001 7
b10110001 6
b1 ^
1T
b1 X
#1090
0!
0a
00
#1095
1!
1a
10
b1 ]
b1011000100 _
b1 W
b10110001 [
b11000000110110010100001011110001 \
0T
b10 X
0O
b10110001 R
b0 Q
b11000000110110010100001011110001 S
b0 K
b10110001 L
b11000000110110010100001011110001 M
b11000000110110010100001011110001 =
b10110001 <
b0 ;
b0 ,
b10110001 -
b11000000110110010100001011110001 .
b11000000110110010100001011110001 g
b10110001 f
b0 e
#1100
0!
0a
00
#1105
1!
1a
10
0`
b10 W
1O
b1111 Q
b10 ^
b1111 K
b1111 ;
b1111 ,
b1111 e
#1110
0!
0a
00
#1115
1!
1a
10
b10110010 '
b11000000110110010100001011110010 (
b10 ]
1`
b11000000110110010100001011110010 7
b10110010 6
b1 ^
1T
b1 X
#1120
0!
0a
00
#1125
1!
1a
10
b1 ]
b1011001000 _
b1 W
b10110010 [
b11000000110110010100001011110010 \
0T
b10 X
0O
b10110010 R
b0 Q
b11000000110110010100001011110010 S
b0 K
b10110010 L
b11000000110110010100001011110010 M
b11000000110110010100001011110010 =
b10110010 <
b0 ;
b0 ,
b10110010 -
b11000000110110010100001011110010 .
b11000000110110010100001011110010 g
b10110010 f
b0 e
#1130
0!
0a
00
#1135
1!
1a
10
0`
b10 W
1O
b1111 Q
b10 ^
b1111 K
b1111 ;
b1111 ,
b1111 e
#1140
0!
0a
00
#1145
1!
1a
10
b10110011 '
b11000000110110010100001011110011 (
b10 ]
1`
b11000000110110010100001011110011 7
b10110011 6
b1 ^
1T
b1 X
#1150
0!
0a
00
