apb2apb_bridge/run_cad/apb_bridge_tb.vcd
$date
    Dec  9, 2019  17:59:13
$end
$version
    TOOL:	ncsim(64)	15.20-s060
$end
$timescale
    1 ns
$end

$scope module apb_bridge_tb $end
$var reg       1 !    clk  $end
$var reg       1 "    rst_n  $end
$var reg       4 #    strb [3:0] $end
$var reg       2 $    dsel [1:0] $end
$var reg       1 %    trnsfr  $end
$var reg       1 &    wr  $end
$var reg      32 '    address [31:0] $end
$var reg      32 (    data_in [31:0] $end
$var reg      32 )    data_out [31:0] $end
$var reg       1 *    mem_wr  $end
$var reg       1 +    mem_rd  $end
$var reg       4 ,    mem_be [3:0] $end
$var reg      32 -    mem_address [31:0] $end
$var reg      32 .    mem_data_in [31:0] $end
$var reg      32 /    mem_data_out [31:0] $end

$scope module test_bus $end
$var wire      1 0    clk  $end
$var wire      1 1    rst_n  $end
$var wire      2 2    dsel [1:0] $end
$var wire      4 3    strb [3:0] $end
$var wire      1 4    trnsfr  $end
$var wire      1 5    wr  $end
$var wire     32 6    address [31:0] $end
$var wire     32 7    data_in [31:0] $end
$var reg      32 8    data_out [31:0] $end
$var reg       1 9    mem_wr  $end
$var reg       1 :    mem_rd  $end
$var reg       4 ;    mem_be [3:0] $end
$var reg      32 <    mem_address [31:0] $end
$var reg      32 =    mem_data_in [31:0] $end
$var wire     32 >    mem_data_out [31:0] $end
$var reg       1 ?    sel  $end
$var reg       1 @    enable  $end
$var reg       1 A    write  $end
$var reg       4 B    strobe [3:0] $end
$var reg      32 C    addr [31:0] $end
$var reg      32 D    wdata [31:0] $end
$var reg       1 E    ready  $end
$var reg       1 F    slverr  $end
$var reg      32 G    rdata [31:0] $end
$upscope $end


$scope module apb2apb $end

$scope module pbus $end
$var wire      1 0    clk  $end
$var wire      1 1    rst_n  $end
$var wire      2 2    dsel [1:0] $end
$var wire      4 3    strb [3:0] $end
$var wire      1 4    trnsfr  $end
$var wire      1 5    wr  $end
$var wire     32 6    address [31:0] $end
$var wire     32 7    data_in [31:0] $end
$var reg      32 H    data_out [31:0] $end
$var reg       1 I    mem_wr  $end
$var reg       1 J    mem_rd  $end
$var reg       4 K    mem_be [3:0] $end
$var reg      32 L    mem_address [31:0] $end
$var reg      32 M    mem_data_in [31:0] $end
$var wire     32 >    mem_data_out [31:0] $end
$var reg       1 N    sel  $end
$var reg       1 O    enable  $end
$var reg       1 P    write  $end
$var reg       4 Q    strobe [3:0] $end
$var reg      32 R    addr [31:0] $end
$var reg      32 S    wdata [31:0] $end
$var reg       1 T    ready  $end
$var reg       1 U    slverr  $end
$var reg      32 V    rdata [31:0] $end
$upscope $end


$scope module pmaster $end
$var reg       2 W    m_state [1:0] $end
$var reg       2 X    m_nxt_state [1:0] $end
$var reg       2 Y    strb_reg [1:0] $end
$var reg       1 Z    wr_reg  $end
$var reg      32 [    address_reg [31:0] $end
$var reg      32 \    data_in_reg [31:0] $end
$upscope $end


$scope module pslave $end
$var reg       2 ]    s_state [1:0] $end
$var reg       2 ^    s_nxt_state [1:0] $end
$var reg       1 _    enable_reg  $end
$upscope $end

$upscope $end


$scope module mem_bus $end
$var wire      1 `    clk  $end
$var wire      1 a    rst_n  $end
$var wire      1 b    mem_wr  $end
$var wire      1 c    mem_rd  $end
$var wire      4 d    mem_be [3:0] $end
$var wire     32 e    mem_address [31:0] $end
$var wire     32 f    mem_data_in [31:0] $end
$var reg      32 g    mem_data_out [31:0] $end
$upscope $end


$scope module memory $end

$scope begin genblk1[0] $end
$var parameter 32 h    k [31:0] $end
$upscope $end


$scope begin genblk1[1] $end
$var parameter 32 i    k [31:0] $end
$upscope $end


$scope begin genblk1[2] $end
$var parameter 32 j    k [31:0] $end
$upscope $end


$scope begin genblk1[3] $end
$var parameter 32 k    k [31:0] $end
$upscope $end


$scope begin genblk2[0] $end
$var parameter 32 l    m [31:0] $end
$upscope $end


$scope begin genblk2[1] $end
$var parameter 32 m    m [31:0] $end
$upscope $end


$scope begin genblk2[2] $end
$var parameter 32 n    m [31:0] $end
$upscope $end


$scope begin genblk2[3] $end
$var parameter 32 o    m [31:0] $end
$upscope $end

$upscope $end


$scope task single_write $end
$var reg      32 p    address_sr [31:0] $end
$var reg       2 q    dsel_sw [1:0] $end
$var reg      32 r    data_sr [31:0] $end
$upscope $end


$scope task single_read $end
$var reg      32 s    address_sr [31:0] $end
$var reg       2 t    dsel_sr [1:0] $end
$upscope $end


$scope task burst_write $end
$var reg      32 u    address_sr [31:0] $end
$var reg       2 v    dsel_bw [1:0] $end
$var reg      32 w    data_sr [31:0] $end
$var integer  32 x    count  $end
$upscope $end


$scope task burst_read $end
$var reg      32 y    address_sr [31:0] $end
$var reg       2 z    dsel_br [1:0] $end
$var integer  32 {    count  $end
$upscope $end

$upscope $end

$enddefinitions $end
$dumpvars
b11 o
b10 n
b1 m
b0 l
b11 k
b10 j
b1 i
b0 h
0!
0"
b0 #
b0 $
0%
0&
b0 '
b0 (
b0 )
0*
0+
b0 ,
b0 -
b0 .
bx /
00
01
b0 2
b0 3
04
05
b0 6
b0 7
b0 8
09
0:
b0 ;
b0 <
b0 =
bx >
x?
x@
xA
bx B
bx C
bx D
xE
xF
bx G
b0 H
0I
0J
b0 K
b0 L
b0 M
0N
0O
0P
b0 Q
b0 R
b0 S
0T
0U
b0 V
b0 W
b0 X
b0 Y
0Z
b0 [
b0 \
b0 ]
b0 ^
0_
0`
0a
0b
0c
b0 d
b0 e
b0 f
bx g
b0 p
b0 q
b0 r
b0 s
b0 t
b0 u
b0 v
b0 w
b0 x
b0 y
b0 z
b0 {
$end
#5
1!
1`
10
b0xxxxxxxxxxxxxxxxxxxxxxxx g
b0xxxxxxxxxxxxxxxx g
b0xxxxxxxx g
b0 g
b0 /
b0 >
#10
0!
0`
00
#15
1!
1`
10
#20
0!
0`
00
#25
1!
1`
10
#30
0!
0`
00
#35
1!
1`
10
#40
0!
0`
00
#45
1!
b11110000 p
b10100011001000010000 r
1`
10
1"
1a
11
#50
0!
0`
00
#55
1!
1`
10
1%
1&
b11110000 '
b10100011001000010000 (
b10100011001000010000 7
b11110000 6
15
14
b1 X
#60
0!
0`
00
#65
1!
1`
10
0%
0&
b1 W
1Z
b11110000 [
b10100011001000010000 \
b10 X
1N
b11110000 R
1P
b10100011001000010000 S
b1 ^
05
04
#70
0!
0`
00
#75
1!
1`
10
b1 ]
b10 W
1I
b11110000 L
b10100011001000010000 M
1O
b1111 Q
b10 ^
b1111 K
b1111 ;
b10100011001000010000 =
b11110000 <
19
1*
b11110000 -
b10100011001000010000 .
b1111 ,
b1111 d
b10100011001000010000 f
b11110000 e
1b
#80
0!
0`
00
#85
1!
1`
10
b10 ]
1_
b0 ^
1T
b0 X
#90
0!
0`
00
#95
1!
b11110001 p
b10100011001000010001 r
1`
10
b0 ]
b0 W
0T
0I
b0 K
b0 L
b0 M
0N
0O
0P
b0 Q
b0 R
b0 S
b0 =
b0 <
b0 ;
09
0*
b0 ,
b0 -
b0 .
b0 f
b0 e
b0 d
0b
#100
0!
0`
00
#105
1!
1`
10
1%
1&
b11110001 '
b10100011001000010001 (
0_
b10100011001000010001 7
b11110001 6
15
14
b1 X
#110
0!
0`
00
#115
1!
1`
10
0%
0&
b1 W
b11110001 [
b10100011001000010001 \
b10 X
1N
b11110001 R
1P
b10100011001000010001 S
b1 ^
05
04
#120
0!
0`
00
#125
1!
1`
10
b1 ]
b10 W
1I
b11110001 L
b10100011001000010001 M
1O
b1111 Q
b10 ^
b1111 K
b1111 ;
b10100011001000010001 =
b11110001 <
19
1*
b11110001 -
b10100011001000010001 .
b1111 ,
b1111 d
b10100011001000010001 f
b11110001 e
1b
#130
0!
0`
00
#135
1!
1`
10
b10 ]
1_
b0 ^
1T
b0 X
#140
0!
0`
00
#145
1!
b11110010 p
b10100011001000010010 r
1`
10
b0 ]
b0 W
0T
0I
b0 K
b0 L
b0 M
0N
0O
0P
b0 Q
b0 R
b0 S
b0 =
b0 <
b0 ;
09
0*
b0 ,
b0 -
b0 .
b0 f
b0 e
b0 d
0b
#150
0!
0`
00
#155
1!
1`
10
1%
1&
b11110010 '
b10100011001000010010 (
0_
b10100011001000010010 7
b11110010 6
15
14
b1 X
#160
0!
0`
00
#165
1!
1`
10
0%
0&
b1 W
b11110010 [
b10100011001000010010 \
b10 X
1N
b11110010 R
1P
b10100011001000010010 S
b1 ^
05
04
#170
0!
0`
00
#175
1!
1`
10
b1 ]
b10 W
1I
b11110010 L
b10100011001000010010 M
1O
b1111 Q
b10 ^
b1111 K
b1111 ;
b10100011001000010010 =
b11110010 <
19
1*
b11110010 -
b10100011001000010010 .
b1111 ,
b1111 d
b10100011001000010010 f
b11110010 e
1b
#180
0!
0`
00
#185
1!
1`
10
b10 ]
1_
b0 ^
1T
b0 X
#190
0!
0`
00
#195
1!
b11110011 p
b10100011001000010011 r
1`
10
b0 ]
b0 W
0T
0I
b0 K
b0 L
b0 M
0N
0O
0P
b0 Q
b0 R
b0 S
b0 =
b0 <
b0 ;
09
0*
b0 ,
b0 -
b0 .
b0 f
b0 e
b0 d
0b
#200
0!
0`
00
#205
1!
1`
10
1%
1&
b11110011 '
b10100011001000010011 (
0_
b10100011001000010011 7
b11110011 6
15
14
b1 X
#210
0!
0`
00
#215
1!
1`
10
0%
0&
b1 W
b11110011 [
b10100011001000010011 \
b10 X
1N
b11110011 R
1P
b10100011001000010011 S
b1 ^
05
04
#220
0!
0`
00
#225
1!
1`
10
b1 ]
b10 W
1I
b11110011 L
b10100011001000010011 M
1O
b1111 Q
b10 ^
b1111 K
b1111 ;
b10100011001000010011 =
b11110011 <
19
1*
b11110011 -
b10100011001000010011 .
b1111 ,
b1111 d
b10100011001000010011 f
b11110011 e
1b
#230
0!
0`
00
#235
1!
1`
10
b10 ]
1_
b0 ^
1T
b0 X
#240
0!
0`
00
#245
1!
b11110100 p
b10100011001000010100 r
1`
10
b0 ]
b0 W
0T
0I
b0 K
b0 L
b0 M
0N
0O
0P
b0 Q
b0 R
b0 S
b0 =
b0 <
b0 ;
09
0*
b0 ,
b0 -
b0 .
b0 f
b0 e
b0 d
0b
#250
0!
0`
00
#255
1!
1`
10
1%
1&
b11110100 '
b10100011001000010100 (
0_
b10100011001000010100 7
b11110100 6
15
14
b1 X
#260
0!
0`
00
#265
1!
1`
10
0%
0&
b1 W
b11110100 [
b10100011001000010100 \
b10 X
1N
b11110100 R
1P
b10100011001000010100 S
b1 ^
05
04
#270
0!
0`
00
#275
1!
1`
10
b1 ]
b10 W
1I
b11110100 L
b10100011001000010100 M
1O
b1111 Q
b10 ^
b1111 K
b1111 ;
b10100011001000010100 =
b11110100 <
19
1*
b11110100 -
b10100011001000010100 .
b1111 ,
b1111 d
b10100011001000010100 f
b11110100 e
1b
#280
0!
0`
00
#285
1!
1`
10
b10 ]
1_
b0 ^
1T
b0 X
#290
0!
0`
00
#295
1!
b11110101 p
b10100011001000010101 r
1`
10
b0 ]
b0 W
0T
0I
b0 K
b0 L
b0 M
0N
0O
0P
b0 Q
b0 R
b0 S
b0 =
b0 <
b0 ;
09
0*
b0 ,
b0 -
b0 .
b0 f
b0 e
b0 d
0b
#300
0!
0`
00
#305
1!
1`
10
1%
1&
b11110101 '
b10100011001000010101 (
0_
b10100011001000010101 7
b11110101 6
15
14
b1 X
#310
0!
0`
00
#315
1!
1`
10
0%
0&
b1 W
b11110101 [
b10100011001000010101 \
b10 X
1N
b11110101 R
1P
b10100011001000010101 S
b1 ^
05
04
#320
0!
0`
00
#325
1!
1`
10
b1 ]
b10 W
1I
b11110101 L
b10100011001000010101 M
1O
b1111 Q
b10 ^
b1111 K
b1111 ;
b10100011001000010101 =
b11110101 <
19
1*
b11110101 -
b10100011001000010101 .
b1111 ,
b1111 d
b10100011001000010101 f
b11110101 e
1b
#330
0!
0`
00
#335
1!
1`
10
b10 ]
1_
b0 ^
1T
b0 X
#340
0!
0`
00
#345
1!
b11110110 p
b10100011001000010110 r
1`
10
b0 ]
b0 W
0T
0I
b0 K
b0 L
b0 M
0N
0O
0P
b0 Q
b0 R
b0 S
b0 =
b0 <
b0 ;
09
0*
b0 ,
b0 -
b0 .
b0 f
b0 e
b0 d
0b
#350
0!
0`
00
#355
1!
1`
10
1%
1&
b11110110 '
b10100011001000010110 (
0_
b10100011001000010110 7
b11110110 6
15
14
b1 X
#360
0!
0`
00
#365
1!
1`
10
0%
0&
b1 W
b11110110 [
b10100011001000010110 \
b10 X
1N
b11110110 R
1P
b10100011001000010110 S
b1 ^
05
04
#370
0!
0`
00
#375
1!
1`
10
b1 ]
b10 W
1I
b11110110 L
b10100011001000010110 M
1O
b1111 Q
b10 ^
b1111 K
b1111 ;
b10100011001000010110 =
b11110110 <
19
1*
b11110110 -
b10100011001000010110 .
b1111 ,
b1111 d
b10100011001000010110 f
b11110110 e
1b
#380
0!
0`
00
#385
1!
1`
10
b10 ]
1_
b0 ^
1T
b0 X
#390
0!
0`
00
#395
1!
b11110111 p
b10100011001000010111 r
1`
10
b0 ]
b0 W
0T
0I
b0 K
b0 L
b0 M
0N
0O
0P
b0 Q
b0 R
b0 S
b0 =
b0 <
b0 ;
09
0*
b0 ,
b0 -
b0 .
b0 f
b0 e
b0 d
0b
#400
0!
0`
00
#405
1!
1`
10
1%
1&
b11110111 '
b10100011001000010111 (
0_
b10100011001000010111 7
b11110111 6
15
14
b1 X
#410
0!
0`
00
#415
1!
1`
10
0%
0&
b1 W
b11110111 [
b10100011001000010111 \
b10 X
1N
b11110111 R
1P
b10100011001000010111 S
b1 ^
05
04
#420
0!
0`
00
#425
1!
1`
10
b1 ]
b10 W
1I
b11110111 L
b10100011001000010111 M
1O
b1111 Q
b10 ^
b1111 K
b1111 ;
b10100011001000010111 =
b11110111 <
19
1*
b11110111 -
b10100011001000010111 .
b1111 ,
b1111 d
b10100011001000010111 f
b11110111 e
1b
#430
0!
0`
00
#435
1!
1`
10
b10 ]
1_
b0 ^
1T
b0 X
#440
0!
0`
00
#445
1!
b11111000 p
b10100011001000011000 r
1`
10
b0 ]
b0 W
0T
0I
b0 K
b0 L
b0 M
0N
0O
0P
b0 Q
b0 R
b0 S
b0 =
b0 <
b0 ;
09
0*
b0 ,
b0 -
b0 .
b0 f
b0 e
b0 d
0b
#450
0!
0`
00
#455
1!
1`
10
1%
1&
b11111000 '
b10100011001000011000 (
0_
b10100011001000011000 7
b11111000 6
15
14
b1 X
#460
0!
0`
00
#465
1!
1`
10
0%
0&
b1 W
b11111000 [
b10100011001000011000 \
b10 X
1N
b11111000 R
1P
b10100011001000011000 S
b1 ^
05
04
#470
0!
0`
00
#475
1!
1`
10
b1 ]
b10 W
1I
b11111000 L
b10100011001000011000 M
1O
b1111 Q
b10 ^
b1111 K
b1111 ;
b10100011001000011000 =
b11111000 <
19
1*
b11111000 -
b10100011001000011000 .
b1111 ,
b1111 d
b10100011001000011000 f
b11111000 e
1b
#480
0!
0`
00
#485
1!
1`
10
b10 ]
1_
b0 ^
1T
b0 X
#490
0!
0`
00
#495
1!
b11111001 p
b10100011001000011001 r
1`
10
b0 ]
b0 W
0T
0I
b0 K
b0 L
b0 M
0N
0O
0P
b0 Q
b0 R
b0 S
b0 =
b0 <
b0 ;
09
0*
b0 ,
b0 -
b0 .
b0 f
b0 e
b0 d
0b
#500
0!
0`
00
#505
1!
1`
10
1%
1&
b11111001 '
b10100011001000011001 (
0_
b10100011001000011001 7
b11111001 6
15
14
b1 X
#510
0!
0`
00
#515
1!
1`
10
0%
0&
b1 W
b11111001 [
b10100011001000011001 \
b10 X
1N
b11111001 R
1P
b10100011001000011001 S
b1 ^
05
04
#520
0!
0`
00
#525
1!
1`
10
b1 ]
b10 W
1I
b11111001 L
b10100011001000011001 M
1O
b1111 Q
b10 ^
b1111 K
b1111 ;
b10100011001000011001 =
b11111001 <
19
1*
b11111001 -
b10100011001000011001 .
b1111 ,
b1111 d
b10100011001000011001 f
b11111001 e
1b
#530
0!
0`
00
#535
1!
1`
10
b10 ]
1_
b0 ^
1T
b0 X
#540
0!
0`
00
#545
1!
b11110000 s
1`
10
b0 ]
b0 W
0T
0I
b0 K
b0 L
b0 M
0N
0O
0P
b0 Q
b0 R
b0 S
b0 =
b0 <
b0 ;
09
0*
b0 ,
b0 -
b0 .
b0 f
b0 e
b0 d
0b
#550
0!
0`
00
#555
1!
1`
10
1%
b11110000 '
0_
b11110000 6
14
b1 X
#560
0!
0`
00
#565
1!
1`
10
0%
b1 W
0Z
b11110000 [
b10 X
1N
b11110000 R
b1 ^
04
#570
0!
0`
00
#575
1!
1`
10
b1 ]
b10 W
1J
b11110000 L
1O
b1111 Q
b10 ^
b1111 K
b1111 ;
b11110000 <
1:
1+
b11110000 -
b1111 ,
b1111 d
b11110000 e
1c
#580
0!
0`
00
#585
1!
1`
10
b10100000000000000000 g
b10100011001000000000 g
b10100011001000010000 g
b10 ]
1_
b0 ^
1T
b0 X
b10100011001000010000 /
b10100011001000010000 >
b10100011001000010000 V
b10100011001000010000 H
b10100011001000010000 8
b10100011001000010000 )
#590
0!
0`
00
#595
1!
b11110001 s
1`
10
b0 ]
b0 W
0T
b0 V
0J
b0 K
b0 L
0N
0O
b0 Q
b0 R
b0 H
b0 8
b0 <
b0 ;
0:
0+
b0 ,
b0 -
b0 )
b0 e
b0 d
0c
#600
0!
0`
00
#605
1!
1`
10
1%
b11110001 '
b11001000010000 g
b10000 g
b0 g
0_
b11110001 6
14
b1 X
b0 /
b0 >
#610
0!
0`
00
#615
1!
1`
10
0%
b1 W
b11110001 [
b10 X
1N
b11110001 R
b1 ^
04
#620
0!
0`
00
#625
1!
1`
10
b1 ]
b10 W
1J
b11110001 L
1O
b1111 Q
b10 ^
b1111 K
b1111 ;
b11110001 <
1:
1+
b11110001 -
b1111 ,
b1111 d
b11110001 e
1c
#630
0!
0`
00
#635
1!
1`
10
b10100000000000000000 g
b10100011001000000000 g
b10100011001000010001 g
b10 ]
1_
b0 ^
1T
b0 X
b10100011001000010001 /
b10100011001000010001 >
b10100011001000010001 V
b10100011001000010001 H
b10100011001000010001 8
b10100011001000010001 )
#640
0!
0`
00
#645
1!
b11110010 s
1`
10
b0 ]
b0 W
0T
b0 V
0J
b0 K
b0 L
0N
0O
b0 Q
b0 R
b0 H
b0 8
b0 <
b0 ;
0:
0+
b0 ,
b0 -
b0 )
b0 e
b0 d
0c
#650
0!
0`
00
#655
1!
1`
10
1%
b11110010 '
b11001000010001 g
b10001 g
b0 g
0_
b11110010 6
14
b1 X
b0 /
b0 >
#660
0!
0`
00
#665
1!
1`
10
0%
b1 W
b11110010 [
b10 X
1N
b11110010 R
b1 ^
04
#670
0!
0`
00
#675
1!
1`
10
b1 ]
b10 W
1J
b11110010 L
1O
b1111 Q
b10 ^
b1111 K
b1111 ;
b11110010 <
1:
1+
b11110010 -
b1111 ,
b1111 d
b11110010 e
1c
#680
0!
0`
00
#685
1!
1`
10
b10100000000000000000 g
b10100011001000000000 g
b10100011001000010010 g
b10 ]
1_
b0 ^
1T
b0 X
b10100011001000010010 /
b10100011001000010010 >
b10100011001000010010 V
b10100011001000010010 H
b10100011001000010010 8
b10100011001000010010 )
#690
0!
0`
00
#695
1!
b11110011 s
1`
10
b0 ]
b0 W
0T
b0 V
0J
b0 K
b0 L
0N
0O
b0 Q
b0 R
b0 H
b0 8
b0 <
b0 ;
0:
0+
b0 ,
b0 -
b0 )
b0 e
b0 d
0c
#700
0!
0`
00
#705
1!
1`
10
1%
b11110011 '
b11001000010010 g
b10010 g
b0 g
0_
b11110011 6
14
b1 X
b0 /
b0 >
#710
0!
0`
00
#715
1!
1`
10
0%
b1 W
b11110011 [
b10 X
1N
b11110011 R
b1 ^
04
#720
0!
0`
00
#725
1!
1`
10
b1 ]
b10 W
1J
b11110011 L
1O
b1111 Q
b10 ^
b1111 K
b1111 ;
b11110011 <
1:
1+
b11110011 -
b1111 ,
b1111 d
b11110011 e
1c
#730
0!
0`
00
#735
1!
1`
10
b10100000000000000000 g
b10100011001000000000 g
b10100011001000010011 g
b10 ]
1_
b0 ^
1T
b0 X
b10100011001000010011 /
b10100011001000010011 >
b10100011001000010011 V
b10100011001000010011 H
b10100011001000010011 8
b10100011001000010011 )
#740
0!
0`
00
#745
1!
b11110100 s
1`
10
b0 ]
b0 W
0T
b0 V
0J
b0 K
b0 L
0N
0O
b0 Q
b0 R
b0 H
b0 8
b0 <
b0 ;
0:
0+
b0 ,
b0 -
b0 )
b0 e
b0 d
0c
#750
0!
0`
00
#755
1!
1`
10
1%
b11110100 '
b11001000010011 g
b10011 g
b0 g
0_
b11110100 6
14
b1 X
b0 /
b0 >
#760
0!
0`
00
#765
1!
1`
10
0%
b1 W
b11110100 [
b10 X
1N
b11110100 R
b1 ^
04
#770
0!
0`
00
#775
1!
1`
10
b1 ]
b10 W
1J
b11110100 L
1O
b1111 Q
b10 ^
b1111 K
b1111 ;
b11110100 <
1:
1+
b11110100 -
b1111 ,
b1111 d
b11110100 e
1c
#780
0!
0`
00
#785
1!
1`
10
b10100000000000000000 g
b10100011001000000000 g
b10100011001000010100 g
b10 ]
1_
b0 ^
1T
b0 X
b10100011001000010100 /
b10100011001000010100 >
b10100011001000010100 V
b10100011001000010100 H
b10100011001000010100 8
b10100011001000010100 )
#790
0!
0`
00
#795
1!
b11110101 s
1`
10
b0 ]
b0 W
0T
b0 V
0J
b0 K
b0 L
0N
0O
b0 Q
b0 R
b0 H
b0 8
b0 <
b0 ;
0:
0+
b0 ,
b0 -
b0 )
b0 e
b0 d
0c
#800
0!
0`
00
#805
1!
1`
10
1%
b11110101 '
b11001000010100 g
b10100 g
b0 g
0_
b11110101 6
14
b1 X
b0 /
b0 >
#810
0!
0`
00
#815
1!
1`
10
0%
b1 W
b11110101 [
b10 X
1N
b11110101 R
b1 ^
04
#820
0!
0`
00
#825
1!
1`
10
b1 ]
b10 W
1J
b11110101 L
1O
b1111 Q
b10 ^
b1111 K
b1111 ;
b11110101 <
1:
1+
b11110101 -
b1111 ,
b1111 d
b11110101 e
1c
#830
0!
0`
00
#835
1!
1`
10
b10100000000000000000 g
b10100011001000000000 g
b10100011001000010101 g
b10 ]
1_
b0 ^
1T
b0 X
b10100011001000010101 /
b10100011001000010101 >
b10100011001000010101 V
b10100011001000010101 H
b10100011001000010101 8
b10100011001000010101 )
#840
0!
0`
00
#845
1!
b11110110 s
1`
10
b0 ]
b0 W
0T
b0 V
0J
b0 K
b0 L
0N
0O
b0 Q
b0 R
b0 H
b0 8
b0 <
b0 ;
0:
0+
b0 ,
b0 -
b0 )
b0 e
b0 d
0c
#850
0!
0`
00
#855
1!
1`
10
1%
b11110110 '
b11001000010101 g
b10101 g
b0 g
0_
b11110110 6
14
b1 X
b0 /
b0 >
#860
0!
0`
00
#865
1!
1`
10
0%
b1 W
b11110110 [
b10 X
1N
b11110110 R
b1 ^
04
#870
0!
0`
00
#875
1!
1`
10
b1 ]
b10 W
1J
b11110110 L
1O
b1111 Q
b10 ^
b1111 K
b1111 ;
b11110110 <
1:
1+
b11110110 -
b1111 ,
b1111 d
b11110110 e
1c
#880
0!
0`
00
#885
1!
1`
10
b10100000000000000000 g
b10100011001000000000 g
b10100011001000010110 g
b10 ]
1_
b0 ^
1T
b0 X
b10100011001000010110 /
b10100011001000010110 >
b10100011001000010110 V
b10100011001000010110 H
b10100011001000010110 8
b10100011001000010110 )
#890
0!
0`
00
#895
1!
b11110111 s
1`
10
b0 ]
b0 W
0T
b0 V
0J
b0 K
b0 L
0N
0O
b0 Q
b0 R
b0 H
b0 8
b0 <
b0 ;
0:
0+
b0 ,
b0 -
b0 )
b0 e
b0 d
0c
#900
0!
0`
00
#905
1!
1`
10
1%
b11110111 '
b11001000010110 g
b10110 g
b0 g
0_
b11110111 6
14
b1 X
b0 /
b0 >
#910
0!
0`
00
#915
1!
1`
10
0%
b1 W
b11110111 [
b10 X
1N
b11110111 R
b1 ^
04
#920
0!
0`
00
#925
1!
1`
10
b1 ]
b10 W
1J
b11110111 L
1O
b1111 Q
b10 ^
b1111 K
b1111 ;
b11110111 <
1:
1+
b11110111 -
b1111 ,
b1111 d
b11110111 e
1c
#930
0!
0`
00
#935
1!
1`
10
b10100000000000000000 g
b10100011001000000000 g
b10100011001000010111 g
b10 ]
1_
b0 ^
1T
b0 X
b10100011001000010111 /
b10100011001000010111 >
b10100011001000010111 V
b10100011001000010111 H
b10100011001000010111 8
b10100011001000010111 )
#940
0!
0`
00
#945
1!
b11111000 s
1`
10
b0 ]
b0 W
0T
b0 V
0J
b0 K
b0 L
0N
0O
b0 Q
b0 R
b0 H
b0 8
b0 <
b0 ;
0:
0+
b0 ,
b0 -
b0 )
b0 e
b0 d
0c
#950
0!
0`
00
#955
1!
1`
10
1%
b11111000 '
b11001000010111 g
b10111 g
b0 g
0_
b11111000 6
14
b1 X
b0 /
b0 >
#960
0!
0`
00
#965
1!
1`
10
0%
b1 W
b11111000 [
b10 X
1N
b11111000 R
b1 ^
04
#970
0!
0`
00
#975
1!
1`
10
b1 ]
b10 W
1J
b11111000 L
1O
b1111 Q
b10 ^
b1111 K
b1111 ;
b11111000 <
1:
1+
b11111000 -
b1111 ,
b1111 d
b11111000 e
1c
#980
0!
0`
00
#985
1!
1`
10
b10100000000000000000 g
b10100011001000000000 g
b10100011001000011000 g
b10 ]
1_
b0 ^
1T
b0 X
b10100011001000011000 /
b10100011001000011000 >
b10100011001000011000 V
b10100011001000011000 H
b10100011001000011000 8
b10100011001000011000 )
#990
0!
0`
00
#995
1!
b11111001 s
1`
10
b0 ]
b0 W
0T
b0 V
0J
b0 K
b0 L
0N
0O
b0 Q
b0 R
b0 H
b0 8
b0 <
b0 ;
0:
0+
b0 ,
b0 -
b0 )
b0 e
b0 d
0c
#1000
0!
0`
00
#1005
1!
1`
10
1%
b11111001 '
b11001000011000 g
b11000 g
b0 g
0_
b11111001 6
14
b1 X
b0 /
b0 >
#1010
0!
0`
00
#1015
1!
1`
10
0%
b1 W
b11111001 [
b10 X
1N
b11111001 R
b1 ^
04
#1020
0!
0`
00
#1025
1!
1`
10
b1 ]
b10 W
1J
b11111001 L
1O
b1111 Q
b10 ^
b1111 K
b1111 ;
b11111001 <
1:
1+
b11111001 -
b1111 ,
b1111 d
b11111001 e
1c
#1030
0!
0`
00
#1035
1!
1`
10
b10100000000000000000 g
b10100011001000000000 g
b10100011001000011001 g
b10 ]
1_
b0 ^
1T
b0 X
b10100011001000011001 /
b10100011001000011001 >
b10100011001000011001 V
b10100011001000011001 H
b10100011001000011001 8
b10100011001000011001 )
#1040
0!
0`
00
#1045
1!
1`
10
b0 ]
b0 W
0T
b0 V
0J
b0 K
b0 L
0N
0O
b0 Q
b0 R
b0 H
b0 8
b0 <
b0 ;
0:
0+
b0 ,
b0 -
b0 )
b0 e
b0 d
0c
#1050
0!
0`
00
#1055
1!
1`
10
b11001000011001 g
b11001 g
b0 g
0_
b0 /
b0 >
#1060
0!
0`
00
#1065
1!
1`
10
#1070
0!
0`
00
#1075
1!
1`
10
#1080
0!
0`
00
#1085
1!
1`
10
#1090
0!
0`
00
#1095
1!
b10010 p
b1 q
b1010001000011111100101100101001 r
1`
10
#1100
0!
0`
00
#1105
1!
1`
10
1%
1&
b1 $
b10010 '
b1010001000011111100101100101001 (
b1010001000011111100101100101001 7
b10010 6
b1 2
15
14
b1 X
#1110
0!
0`
00
#1115
1!
1`
10
0%
0&
b1 W
1Z
b1001 [
b1010001000011111100101100101001 \
b10 X
1N
b1001 R
1P
b1010001000011111100101100101001 S
b1 ^
05
04
#1120
0!
0`
00
#1125
1!
1`
10
b1 ]
b10 W
1I
b1001 L
b1010001000011111100101100101001 M
1O
b11 Q
b10 ^
b11 K
b11 ;
b1010001000011111100101100101001 =
b1001 <
19
1*
b1001 -
b1010001000011111100101100101001 .
b11 ,
b11 d
b1010001000011111100101100101001 f
b1001 e
1b
#1130
0!
0`
00
#1135
1!
1`
10
b10 ]
1_
b0 ^
1T
b0 X
#1140
0!
0`
00
#1145
1!
b10011 p
b1010001000011111100101100101010 r
1`
10
b0 ]
b0 W
0T
0I
b0 K
b0 L
b0 M
0N
0O
0P
b0 Q
b0 R
b0 S
b0 =
b0 <
b0 ;
09
0*
b0 ,
b0 -
b0 .
b0 f
b0 e
b0 d
0b
#1150
0!
0`
00
#1155
1!
1`
10
1%
1&
b10011 '
b1010001000011111100101100101010 (
0_
b1010001000011111100101100101010 7
b10011 6
15
14
b1 X
#1160
0!
0`
00
#1165
1!
1`
10
0%
0&
b1 W
b10 Y
b1010001000011111100101100101010 \
b10 X
1N
b1001 R
1P
b11001011001010100000000000000000 S
b1 ^
05
04
#1170
0!
0`
00
#1175
1!
1`
10
b1 ]
b10 W
1I
b1001 L
b11001011001010100000000000000000 M
1O
b1100 Q
b10 ^
b1100 K
b1100 ;
b11001011001010100000000000000000 =
b1001 <
19
1*
b1001 -
b11001011001010100000000000000000 .
b1100 ,
b1100 d
b11001011001010100000000000000000 f
b1001 e
1b
#1180
0!
0`
00
#1185
1!
1`
10
b10 ]
1_
b0 ^
1T
b0 X
#1190
0!
0`
00
#1195
1!
b10100 p
b1010001000011111100101100101011 r
1`
10
b0 ]
b0 W
0T
0I
b0 K
b0 L
b0 M
0N
0O
0P
b0 Q
b0 R
b0 S
b0 =
b0 <
b0 ;
09
0*
b0 ,
b0 -
b0 .
b0 f
b0 e
b0 d
0b
#1200
0!
0`
00
#1205
1!
1`
10
1%
1&
b10100 '
b1010001000011111100101100101011 (
0_
b1010001000011111100101100101011 7
b10100 6
15
14
b1 X
#1210
0!
0`
00
#1215
1!
1`
10
0%
0&
b1 W
b0 Y
b1010 [
b1010001000011111100101100101011 \
b10 X
1N
b1010 R
1P
b1010001000011111100101100101011 S
b1 ^
05
04
