apb2apb_bridge/run_viv/apb_bridge_tb.vcd
$date
   Tue Oct 29 01:19:00 2019
$end
$version
  2019.1
$end
$timescale
  1ns
$end
$scope module apb_bridge_tb $end
$var reg 1 ! clk $end
$var reg 1 " rst_n $end
$var reg 4 # strb [3:0] $end
$var reg 1 $ trnsfr $end
$var reg 1 % wr $end
$var reg 32 & address [31:0] $end
$var reg 32 ' data_in [31:0] $end
$var reg 32 ( data_out [31:0] $end
$var reg 1 ) mem_wr $end
$var reg 1 * mem_rd $end
$var reg 4 + mem_be [3:0] $end
$var reg 32 , mem_address [31:0] $end
$var reg 32 - mem_data_in [31:0] $end
$var reg 32 . mem_data_out [31:0] $end
$scope module test_bus $end
$var wire 1 / clk $end
$var wire 1 0 rst_n $end
$var wire 4 1 strb [3:0] $end
$var wire 1 2 trnsfr $end
$var wire 1 3 wr $end
$var wire 32 4 address [31:0] $end
$var wire 32 5 data_in [31:0] $end
$var reg 32 ( data_out [31:0] $end
$var reg 1 ) mem_wr $end
$var reg 1 * mem_rd $end
$var reg 4 + mem_be [3:0] $end
$var reg 32 , mem_address [31:0] $end
$var reg 32 - mem_data_in [31:0] $end
$var wire 32 6 mem_data_out [31:0] $end
$var reg 1 7 sel $end
$var reg 1 8 enable $end
$var reg 1 9 write $end
$var reg 4 : strobe [3:0] $end
$var reg 32 ; addr [31:0] $end
$var reg 32 < wdata [31:0] $end
$var reg 1 = ready $end
$var reg 1 > slverr $end
$var reg 32 ? rdata [31:0] $end
$scope module bridge $end
$var wire 1 / clk $end
$var wire 1 0 rst_n $end
$var wire 4 1 strb [3:0] $end
$var wire 1 2 trnsfr $end
$var wire 1 3 wr $end
$var wire 32 4 address [31:0] $end
$var wire 32 5 data_in [31:0] $end
$var reg 32 ( data_out [31:0] $end
$var reg 1 ) mem_wr $end
$var reg 1 * mem_rd $end
$var reg 4 + mem_be [3:0] $end
$var reg 32 , mem_address [31:0] $end
$var reg 32 - mem_data_in [31:0] $end
$var wire 32 6 mem_data_out [31:0] $end
$upscope $end
$scope module master $end
$var wire 1 / clk $end
$var wire 1 0 rst_n $end
$var wire 4 1 strb [3:0] $end
$var wire 1 2 trnsfr $end
$var wire 1 3 wr $end
$var wire 32 4 address [31:0] $end
$var wire 32 5 data_in [31:0] $end
$var reg 32 ( data_out [31:0] $end
$var reg 1 7 sel $end
$var reg 1 8 enable $end
$var reg 1 9 write $end
$var reg 4 : strobe [3:0] $end
$var reg 32 ; addr [31:0] $end
$var reg 32 < wdata [31:0] $end
$var reg 1 = ready $end
$var reg 1 > slverr $end
$var reg 32 ? rdata [31:0] $end
$upscope $end
$scope module slave $end
$var wire 1 / clk $end
$var wire 1 0 rst_n $end
$var wire 1 2 trnsfr $end
$var reg 1 ) mem_wr $end
$var reg 1 * mem_rd $end
$var reg 4 + mem_be [3:0] $end
$var reg 32 , mem_address [31:0] $end
$var reg 32 - mem_data_in [31:0] $end
$var wire 32 6 mem_data_out [31:0] $end
$var reg 1 7 sel $end
$var reg 1 8 enable $end
$var reg 1 9 write $end
$var reg 4 : strobe [3:0] $end
$var reg 32 ; addr [31:0] $end
$var reg 32 < wdata [31:0] $end
$var reg 1 = ready $end
$var reg 1 > slverr $end
$var reg 32 ? rdata [31:0] $end
$upscope $end
$upscope $end
$scope module mem_bus $end
$var wire 1 @ clk $end
$var wire 1 A rst_n $end
$var wire 1 B mem_wr $end
$var wire 1 C mem_rd $end
$var wire 4 D mem_be [3:0] $end
$var wire 32 E mem_address [31:0] $end
$var wire 32 F mem_data_in [31:0] $end
$var reg 32 . mem_data_out [31:0] $end
$scope module mem $end
$var wire 1 @ clk $end
$var wire 1 A rst_n $end
$var wire 1 B mem_wr $end
$var wire 1 C mem_rd $end
$var wire 4 D mem_be [3:0] $end
$var wire 32 E mem_address [31:0] $end
$var wire 32 F mem_data_in [31:0] $end
$var reg 32 . mem_data_out [31:0] $end
$upscope $end
$upscope $end
$scope module apb2apb $end
$scope module ibus $end
$var wire 1 / clk $end
$var wire 1 0 rst_n $end
$var wire 4 1 strb [3:0] $end
$var wire 1 2 trnsfr $end
$var wire 1 3 wr $end
$var wire 32 4 address [31:0] $end
$var wire 32 5 data_in [31:0] $end
$var reg 32 ( data_out [31:0] $end
$var reg 1 ) mem_wr $end
$var reg 1 * mem_rd $end
$var reg 4 + mem_be [3:0] $end
$var reg 32 , mem_address [31:0] $end
$var reg 32 - mem_data_in [31:0] $end
$var wire 32 6 mem_data_out [31:0] $end
$var reg 1 7 sel $end
$var reg 1 8 enable $end
$var reg 1 9 write $end
$var reg 4 : strobe [3:0] $end
$var reg 32 ; addr [31:0] $end
$var reg 32 < wdata [31:0] $end
$var reg 1 = ready $end
$var reg 1 > slverr $end
$var reg 32 ? rdata [31:0] $end
$scope module bridge $end
$var wire 1 / clk $end
$var wire 1 0 rst_n $end
$var wire 4 1 strb [3:0] $end
$var wire 1 2 trnsfr $end
$var wire 1 3 wr $end
$var wire 32 4 address [31:0] $end
$var wire 32 5 data_in [31:0] $end
$var reg 32 ( data_out [31:0] $end
$var reg 1 ) mem_wr $end
$var reg 1 * mem_rd $end
$var reg 4 + mem_be [3:0] $end
$var reg 32 , mem_address [31:0] $end
$var reg 32 - mem_data_in [31:0] $end
$var wire 32 6 mem_data_out [31:0] $end
$upscope $end
$scope module master $end
$var wire 1 / clk $end
$var wire 1 0 rst_n $end
$var wire 4 1 strb [3:0] $end
$var wire 1 2 trnsfr $end
$var wire 1 3 wr $end
$var wire 32 4 address [31:0] $end
$var wire 32 5 data_in [31:0] $end
$var reg 32 ( data_out [31:0] $end
$var reg 1 7 sel $end
$var reg 1 8 enable $end
$var reg 1 9 write $end
$var reg 4 : strobe [3:0] $end
$var reg 32 ; addr [31:0] $end
$var reg 32 < wdata [31:0] $end
$var reg 1 = ready $end
$var reg 1 > slverr $end
$var reg 32 ? rdata [31:0] $end
$upscope $end
$scope module slave $end
$var wire 1 / clk $end
$var wire 1 0 rst_n $end
$var wire 1 2 trnsfr $end
$var reg 1 ) mem_wr $end
$var reg 1 * mem_rd $end
$var reg 4 + mem_be [3:0] $end
$var reg 32 , mem_address [31:0] $end
$var reg 32 - mem_data_in [31:0] $end
$var wire 32 6 mem_data_out [31:0] $end
$var reg 1 7 sel $end
$var reg 1 8 enable $end
$var reg 1 9 write $end
$var reg 4 : strobe [3:0] $end
$var reg 32 ; addr [31:0] $end
$var reg 32 < wdata [31:0] $end
$var reg 1 = ready $end
$var reg 1 > slverr $end
$var reg 32 ? rdata [31:0] $end
$upscope $end
$upscope $end
$scope module pbus $end
$var wire 1 G clk $end
$var wire 1 H rst_n $end
$var wire 4 I strb [3:0] $end
$var wire 1 J trnsfr $end
$var wire 1 K wr $end
$var wire 32 L address [31:0] $end
$var wire 32 M data_in [31:0] $end
$var reg 32 N data_out [31:0] $end
$var reg 1 O mem_wr $end
$var reg 1 P mem_rd $end
$var reg 4 Q mem_be [3:0] $end
$var reg 32 R mem_address [31:0] $end
$var reg 32 S mem_data_in [31:0] $end
$var wire 32 T mem_data_out [31:0] $end
$var reg 1 U sel $end
$var reg 1 V enable $end
$var reg 1 W write $end
$var reg 4 X strobe [3:0] $end
$var reg 32 Y addr [31:0] $end
$var reg 32 Z wdata [31:0] $end
$var reg 1 [ ready $end
$var reg 1 \ slverr $end
$var reg 32 ] rdata [31:0] $end
$scope module bridge $end
$var wire 1 G clk $end
$var wire 1 H rst_n $end
$var wire 4 I strb [3:0] $end
$var wire 1 J trnsfr $end
$var wire 1 K wr $end
$var wire 32 L address [31:0] $end
$var wire 32 M data_in [31:0] $end
$var reg 32 N data_out [31:0] $end
$var reg 1 O mem_wr $end
$var reg 1 P mem_rd $end
$var reg 4 Q mem_be [3:0] $end
$var reg 32 R mem_address [31:0] $end
$var reg 32 S mem_data_in [31:0] $end
$var wire 32 T mem_data_out [31:0] $end
$upscope $end
$scope module master $end
$var wire 1 G clk $end
$var wire 1 H rst_n $end
$var wire 4 I strb [3:0] $end
$var wire 1 J trnsfr $end
$var wire 1 K wr $end
$var wire 32 L address [31:0] $end
$var wire 32 M data_in [31:0] $end
$var reg 32 N data_out [31:0] $end
$var reg 1 U sel $end
$var reg 1 V enable $end
$var reg 1 W write $end
$var reg 4 X strobe [3:0] $end
$var reg 32 Y addr [31:0] $end
$var reg 32 Z wdata [31:0] $end
$var reg 1 [ ready $end
$var reg 1 \ slverr $end
$var reg 32 ] rdata [31:0] $end
$upscope $end
$scope module slave $end
$var wire 1 G clk $end
$var wire 1 H rst_n $end
$var wire 1 J trnsfr $end
$var reg 1 O mem_wr $end
$var reg 1 P mem_rd $end
$var reg 4 Q mem_be [3:0] $end
$var reg 32 R mem_address [31:0] $end
$var reg 32 S mem_data_in [31:0] $end
$var wire 32 T mem_data_out [31:0] $end
$var reg 1 U sel $end
$var reg 1 V enable $end
$var reg 1 W write $end
$var reg 4 X strobe [3:0] $end
$var reg 32 Y addr [31:0] $end
$var reg 32 Z wdata [31:0] $end
$var reg 1 [ ready $end
$var reg 1 \ slverr $end
$var reg 32 ] rdata [31:0] $end
$upscope $end
$upscope $end
$scope module pmaster $end
$var reg 2 ^ m_state [1:0] $end
$var reg 2 _ m_nxt_state [1:0] $end
$scope module mbus $end
$var wire 1 G clk $end
$var wire 1 H rst_n $end
$var wire 4 I strb [3:0] $end
$var wire 1 J trnsfr $end
$var wire 1 K wr $end
$var wire 32 L address [31:0] $end
$var wire 32 M data_in [31:0] $end
$var reg 32 N data_out [31:0] $end
$var reg 1 O mem_wr $end
$var reg 1 P mem_rd $end
$var reg 4 Q mem_be [3:0] $end
$var reg 32 R mem_address [31:0] $end
$var reg 32 S mem_data_in [31:0] $end
$var wire 32 T mem_data_out [31:0] $end
$var reg 1 U sel $end
$var reg 1 V enable $end
$var reg 1 W write $end
$var reg 4 X strobe [3:0] $end
$var reg 32 Y addr [31:0] $end
$var reg 32 Z wdata [31:0] $end
$var reg 1 [ ready $end
$var reg 1 \ slverr $end
$var reg 32 ] rdata [31:0] $end
$scope module bridge $end
$var wire 1 G clk $end
$var wire 1 H rst_n $end
$var wire 4 I strb [3:0] $end
$var wire 1 J trnsfr $end
$var wire 1 K wr $end
$var wire 32 L address [31:0] $end
$var wire 32 M data_in [31:0] $end
$var reg 32 N data_out [31:0] $end
$var reg 1 O mem_wr $end
$var reg 1 P mem_rd $end
$var reg 4 Q mem_be [3:0] $end
$var reg 32 R mem_address [31:0] $end
$var reg 32 S mem_data_in [31:0] $end
$var wire 32 T mem_data_out [31:0] $end
$upscope $end
$scope module master $end
$var wire 1 G clk $end
$var wire 1 H rst_n $end
$var wire 4 I strb [3:0] $end
$var wire 1 J trnsfr $end
$var wire 1 K wr $end
$var wire 32 L address [31:0] $end
$var wire 32 M data_in [31:0] $end
$var reg 32 N data_out [31:0] $end
$var reg 1 U sel $end
$var reg 1 V enable $end
$var reg 1 W write $end
$var reg 4 X strobe [3:0] $end
$var reg 32 Y addr [31:0] $end
$var reg 32 Z wdata [31:0] $end
$var reg 1 [ ready $end
$var reg 1 \ slverr $end
$var reg 32 ] rdata [31:0] $end
$upscope $end
$scope module slave $end
$var wire 1 G clk $end
$var wire 1 H rst_n $end
$var wire 1 J trnsfr $end
$var reg 1 O mem_wr $end
$var reg 1 P mem_rd $end
$var reg 4 Q mem_be [3:0] $end
$var reg 32 R mem_address [31:0] $end
$var reg 32 S mem_data_in [31:0] $end
$var wire 32 T mem_data_out [31:0] $end
$var reg 1 U sel $end
$var reg 1 V enable $end
$var reg 1 W write $end
$var reg 4 X strobe [3:0] $end
$var reg 32 Y addr [31:0] $end
$var reg 32 Z wdata [31:0] $end
$var reg 1 [ ready $end
$var reg 1 \ slverr $end
$var reg 32 ] rdata [31:0] $end
$upscope $end
$upscope $end
$upscope $end
$scope module pslave $end
$var reg 2 ` s_state [1:0] $end
$var reg 2 a s_nxt_state [1:0] $end
$var reg 32 b addr_compare [31:0] $end
$scope module sbus $end
$var wire 1 G clk $end
$var wire 1 H rst_n $end
$var wire 4 I strb [3:0] $end
$var wire 1 J trnsfr $end
$var wire 1 K wr $end
$var wire 32 L address [31:0] $end
$var wire 32 M data_in [31:0] $end
$var reg 32 N data_out [31:0] $end
$var reg 1 O mem_wr $end
$var reg 1 P mem_rd $end
$var reg 4 Q mem_be [3:0] $end
$var reg 32 R mem_address [31:0] $end
$var reg 32 S mem_data_in [31:0] $end
$var wire 32 T mem_data_out [31:0] $end
$var reg 1 U sel $end
$var reg 1 V enable $end
$var reg 1 W write $end
$var reg 4 X strobe [3:0] $end
$var reg 32 Y addr [31:0] $end
$var reg 32 Z wdata [31:0] $end
$var reg 1 [ ready $end
$var reg 1 \ slverr $end
$var reg 32 ] rdata [31:0] $end
$scope module bridge $end
$var wire 1 G clk $end
$var wire 1 H rst_n $end
$var wire 4 I strb [3:0] $end
$var wire 1 J trnsfr $end
$var wire 1 K wr $end
$var wire 32 L address [31:0] $end
$var wire 32 M data_in [31:0] $end
$var reg 32 N data_out [31:0] $end
$var reg 1 O mem_wr $end
$var reg 1 P mem_rd $end
$var reg 4 Q mem_be [3:0] $end
$var reg 32 R mem_address [31:0] $end
$var reg 32 S mem_data_in [31:0] $end
$var wire 32 T mem_data_out [31:0] $end
$upscope $end
$scope module master $end
$var wire 1 G clk $end
$var wire 1 H rst_n $end
$var wire 4 I strb [3:0] $end
$var wire 1 J trnsfr $end
$var wire 1 K wr $end
$var wire 32 L address [31:0] $end
$var wire 32 M data_in [31:0] $end
$var reg 32 N data_out [31:0] $end
$var reg 1 U sel $end
$var reg 1 V enable $end
$var reg 1 W write $end
$var reg 4 X strobe [3:0] $end
$var reg 32 Y addr [31:0] $end
$var reg 32 Z wdata [31:0] $end
$var reg 1 [ ready $end
$var reg 1 \ slverr $end
$var reg 32 ] rdata [31:0] $end
$upscope $end
$scope module slave $end
$var wire 1 G clk $end
$var wire 1 H rst_n $end
$var wire 1 J trnsfr $end
$var reg 1 O mem_wr $end
$var reg 1 P mem_rd $end
$var reg 4 Q mem_be [3:0] $end
$var reg 32 R mem_address [31:0] $end
$var reg 32 S mem_data_in [31:0] $end
$var wire 32 T mem_data_out [31:0] $end
$var reg 1 U sel $end
$var reg 1 V enable $end
$var reg 1 W write $end
$var reg 4 X strobe [3:0] $end
$var reg 32 Y addr [31:0] $end
$var reg 32 Z wdata [31:0] $end
$var reg 1 [ ready $end
$var reg 1 \ slverr $end
$var reg 32 ] rdata [31:0] $end
$upscope $end
$upscope $end
$upscope $end
$upscope $end
$scope module memory $end
$scope module membus $end
$var wire 1 @ clk $end
$var wire 1 A rst_n $end
$var wire 1 B mem_wr $end
$var wire 1 C mem_rd $end
$var wire 4 D mem_be [3:0] $end
$var wire 32 E mem_address [31:0] $end
$var wire 32 F mem_data_in [31:0] $end
$var reg 32 . mem_data_out [31:0] $end
$scope module mem $end
$var wire 1 @ clk $end
$var wire 1 A rst_n $end
$var wire 1 B mem_wr $end
$var wire 1 C mem_rd $end
$var wire 4 D mem_be [3:0] $end
$var wire 32 E mem_address [31:0] $end
$var wire 32 F mem_data_in [31:0] $end
$var reg 32 . mem_data_out [31:0] $end
$upscope $end
$upscope $end
$scope begin Block19_8 $end
$var reg 32 c i $end
$scope begin Block21_9 $end
$var reg 32 d j $end
$upscope $end
$upscope $end
$upscope $end
$scope begin Block67_22 $end
$var reg 32 e i $end
$upscope $end
$scope begin Block72_23 $end
$var reg 32 f i $end
$upscope $end
$scope task async_reset $end
$upscope $end
$scope task single_write $end
$var reg 32 g address_sr [31:0] $end
$var reg 4 h strb_sr [3:0] $end
$var reg 32 i data_sr [31:0] $end
$upscope $end
$scope task single_read $end
$var reg 32 j address_sr [31:0] $end
$var reg 4 k strb_sr [3:0] $end
$upscope $end
$scope task burst_write $end
$var reg 32 l address_sr [31:0] $end
$var reg 4 m strb_sr [3:0] $end
$var reg 32 n data_sr [31:0] $end
$scope begin Block129_25 $end
$var reg 32 o i $end
$upscope $end
$upscope $end
$upscope $end
$enddefinitions $end
#0
$dumpvars
0!
0"
b0 #
0$
0%
b0 &
b0 '
b0 (
0)
0*
b0 +
b0 ,
b0 -
bx .
0/
00
b0 1
02
03
b0 4
b0 5
bx 6
x7
x8
x9
bx :
bx ;
bx <
x=
x>
bx ?
0@
0A
0B
0C
b0 D
b0 E
b0 F
0G
0H
b0 I
0J
0K
b0 L
b0 M
b0 N
0O
0P
b0 Q
b0 R
b0 S
bx T
0U
0V
0W
b0 X
b0 Y
b0 Z
0[
0\
b0 ]
b0 ^
b0 _
b0 `
b0 a
b0 b
b100 c
b100000000 d
b0 e
b0 f
b0 g
b0 h
b0 i
b0 j
b0 k
b0 l
b0 m
b0 n
b0 o
$end
#5
1!
1/
1@
1G
b0 ^
b0 `
b0 b
#10
0!
0/
0@
0G
#15
1!
1/
1@
1G
b0 ^
b0 `
b0 b
#20
0!
0/
0@
0G
#25
1!
1/
1@
1G
b0 ^
b0 `
b0 b
#30
0!
0/
0@
0G
#35
1!
1/
1@
1G
b0 ^
b0 `
b0 b
#40
0!
0/
0@
0G
#45
1!
1"
1/
10
1@
1A
1G
1H
b0 ^
b0 `
b0 b
b0 e
b11110000 g
b1111 h
b10100011001000010000 i
#50
0!
0/
0@
0G
#55
1!
b1111 #
1$
1%
b11110000 &
b10100011001000010000 '
1/
b1111 1
12
13
b11110000 4
b10100011001000010000 5
1@
1G
b1111 I
1J
1K
b11110000 L
b10100011001000010000 M
b0 N
0U
0V
0W
b0 X
b0 Y
b0 Z
b0 ^
b1 _
b0 `
b0 a
#60
0!
0/
0@
0G
#65
1!
0$
1/
02
1@
1G
0J
b0 N
0O
0P
b0 Q
b0 R
b0 S
1U
0V
1W
b1111 X
b11110000 Y
b10100011001000010000 Z
0[
0\
b0 ]
b1 ^
b10 _
b0 `
b1 a
#70
0!
0/
0@
0G
#75
1!
1/
1@
1G
b0 N
0O
0P
b0 Q
b0 R
b0 S
1U
1V
0[
0\
b0 ]
b10 ^
b10 _
b1 `
b10 a
b1111000100 b
#80
0!
0/
0@
0G
#85
1!
1)
b1111 +
b11110000 ,
b10100011001000010000 -
1/
1@
1B
b1111 D
b11110000 E
b10100011001000010000 F
1G
b0 N
1O
0P
b1111 Q
b11110000 R
b10100011001000010000 S
1U
1V
1[
0\
b0 ]
b10 ^
b0 _
b10 `
b0 a
#90
0!
0/
0@
0G
#95
1!
0)
b0 +
b0 ,
b0 -
1/
1@
0B
b0 D
b0 E
b0 F
1G
b0 N
0O
0P
b0 Q
b0 R
b0 S
0U
0V
0W
b0 X
b0 Y
b0 Z
0[
0\
b0 ]
b0 ^
b0 _
b0 `
b0 a
b1 e
b11110001 g
b1111 h
b10100011001000010001 i
#100
0!
0/
0@
0G
#105
1!
b1111 #
1$
1%
b11110001 &
b10100011001000010001 '
1/
12
b11110001 4
b10100011001000010001 5
1@
1G
1J
b11110001 L
b10100011001000010001 M
b0 N
0U
0V
0W
b0 X
b0 Y
b0 Z
b0 ^
b1 _
b0 `
b0 a
#110
0!
0/
0@
0G
#115
1!
0$
1/
02
1@
1G
0J
b0 N
0O
0P
b0 Q
b0 R
b0 S
1U
0V
1W
b1111 X
b11110001 Y
b10100011001000010001 Z
0[
0\
b0 ]
b1 ^
b10 _
b0 `
b1 a
#120
0!
0/
0@
0G
#125
1!
1/
1@
1G
b0 N
0O
0P
b0 Q
b0 R
b0 S
1U
1V
0[
0\
b0 ]
b10 ^
b10 _
b1 `
b10 a
b1111001000 b
#130
0!
0/
0@
0G
#135
1!
1)
b1111 +
b11110001 ,
b10100011001000010001 -
1/
1@
1B
b1111 D
b11110001 E
b10100011001000010001 F
1G
b0 N
1O
0P
b1111 Q
b11110001 R
b10100011001000010001 S
1U
1V
1[
0\
b0 ]
b10 ^
b0 _
b10 `
b0 a
#140
0!
0/
0@
0G
#145
1!
0)
b0 +
b0 ,
b0 -
1/
1@
0B
b0 D
b0 E
b0 F
1G
b0 N
0O
0P
b0 Q
b0 R
b0 S
0U
0V
0W
b0 X
b0 Y
b0 Z
0[
0\
b0 ]
b0 ^
b0 _
b0 `
b0 a
b10 e
b11110010 g
b1111 h
b10100011001000010010 i
#150
0!
0/
0@
0G
#155
1!
b1111 #
1$
1%
b11110010 &
b10100011001000010010 '
1/
12
b11110010 4
b10100011001000010010 5
1@
1G
1J
b11110010 L
b10100011001000010010 M
b0 N
0U
0V
0W
b0 X
b0 Y
b0 Z
b0 ^
b1 _
b0 `
b0 a
#160
0!
0/
0@
0G
#165
1!
0$
1/
02
1@
1G
0J
b0 N
0O
0P
b0 Q
b0 R
b0 S
1U
0V
1W
b1111 X
b11110010 Y
b10100011001000010010 Z
0[
0\
b0 ]
b1 ^
b10 _
b0 `
b1 a
#170
0!
0/
0@
0G
#175
1!
1/
1@
1G
b0 N
0O
0P
b0 Q
b0 R
b0 S
1U
1V
0[
0\
b0 ]
b10 ^
b10 _
b1 `
b10 a
b1111001100 b
#180
0!
0/
0@
0G
#185
1!
1)
b1111 +
b11110010 ,
b10100011001000010010 -
1/
1@
1B
b1111 D
b11110010 E
b10100011001000010010 F
1G
b0 N
1O
0P
b1111 Q
b11110010 R
b10100011001000010010 S
1U
1V
1[
0\
b0 ]
b10 ^
b0 _
b10 `
b0 a
#190
0!
0/
0@
0G
#195
1!
0)
b0 +
b0 ,
b0 -
1/
1@
0B
b0 D
b0 E
b0 F
1G
b0 N
0O
0P
b0 Q
b0 R
b0 S
0U
0V
0W
b0 X
b0 Y
b0 Z
0[
0\
b0 ]
b0 ^
b0 _
b0 `
b0 a
b11 e
b11110011 g
b1111 h
b10100011001000010011 i
#200
0!
0/
0@
0G
#205
1!
b1111 #
1$
1%
b11110011 &
b10100011001000010011 '
1/
12
b11110011 4
b10100011001000010011 5
1@
1G
1J
b11110011 L
b10100011001000010011 M
b0 N
0U
0V
0W
b0 X
b0 Y
b0 Z
b0 ^
b1 _
b0 `
b0 a
#210
0!
0/
0@
0G
#215
1!
0$
1/
02
1@
1G
0J
b0 N
0O
0P
b0 Q
b0 R
b0 S
1U
0V
1W
b1111 X
b11110011 Y
b10100011001000010011 Z
0[
0\
b0 ]
b1 ^
b10 _
b0 `
b1 a
#220
0!
0/
0@
0G
#225
1!
1/
1@
1G
b0 N
0O
0P
b0 Q
b0 R
b0 S
1U
1V
0[
0\
b0 ]
b10 ^
b10 _
b1 `
b10 a
b1111010000 b
#230
0!
0/
0@
0G
#235
1!
1)
b1111 +
b11110011 ,
b10100011001000010011 -
1/
1@
1B
b1111 D
b11110011 E
b10100011001000010011 F
1G
b0 N
1O
0P
b1111 Q
b11110011 R
b10100011001000010011 S
1U
1V
1[
0\
b0 ]
b10 ^
b0 _
b10 `
b0 a
#240
0!
0/
0@
0G
#245
1!
0)
b0 +
b0 ,
b0 -
1/
1@
0B
b0 D
b0 E
b0 F
1G
b0 N
0O
0P
b0 Q
b0 R
b0 S
0U
0V
0W
b0 X
b0 Y
b0 Z
0[
0\
b0 ]
b0 ^
b0 _
b0 `
b0 a
b100 e
b11110100 g
b1111 h
b10100011001000010100 i
#250
0!
0/
0@
0G
#255
1!
b1111 #
1$
1%
b11110100 &
b10100011001000010100 '
1/
12
b11110100 4
b10100011001000010100 5
1@
1G
1J
b11110100 L
b10100011001000010100 M
b0 N
0U
0V
0W
b0 X
b0 Y
b0 Z
b0 ^
b1 _
b0 `
b0 a
#260
0!
0/
0@
0G
#265
1!
0$
1/
02
1@
1G
0J
b0 N
0O
0P
b0 Q
b0 R
b0 S
1U
0V
1W
b1111 X
b11110100 Y
b10100011001000010100 Z
0[
0\
b0 ]
b1 ^
b10 _
b0 `
b1 a
#270
0!
0/
0@
0G
#275
1!
1/
1@
1G
b0 N
0O
0P
b0 Q
b0 R
b0 S
1U
1V
0[
0\
b0 ]
b10 ^
b10 _
b1 `
b10 a
b1111010100 b
#280
0!
0/
0@
0G
#285
1!
1)
b1111 +
b11110100 ,
b10100011001000010100 -
1/
1@
1B
b1111 D
b11110100 E
b10100011001000010100 F
1G
b0 N
1O
0P
b1111 Q
b11110100 R
b10100011001000010100 S
1U
1V
1[
0\
b0 ]
b10 ^
b0 _
b10 `
b0 a
#290
0!
0/
0@
0G
#295
1!
0)
b0 +
b0 ,
b0 -
1/
1@
0B
b0 D
b0 E
b0 F
1G
b0 N
0O
0P
b0 Q
b0 R
b0 S
0U
0V
0W
b0 X
b0 Y
b0 Z
0[
0\
b0 ]
b0 ^
b0 _
b0 `
b0 a
b101 e
b11110101 g
b1111 h
b10100011001000010101 i
#300
0!
0/
0@
0G
#305
1!
b1111 #
1$
1%
b11110101 &
b10100011001000010101 '
1/
12
b11110101 4
b10100011001000010101 5
1@
1G
1J
b11110101 L
b10100011001000010101 M
b0 N
0U
0V
0W
b0 X
b0 Y
b0 Z
b0 ^
b1 _
b0 `
b0 a
#310
0!
0/
0@
0G
#315
1!
0$
1/
02
1@
1G
0J
b0 N
0O
0P
b0 Q
b0 R
b0 S
1U
0V
1W
b1111 X
b11110101 Y
b10100011001000010101 Z
0[
0\
b0 ]
b1 ^
b10 _
b0 `
b1 a
#320
0!
0/
0@
0G
#325
1!
1/
1@
1G
b0 N
0O
0P
b0 Q
b0 R
b0 S
1U
1V
0[
0\
b0 ]
b10 ^
b10 _
b1 `
b10 a
b1111011000 b
#330
0!
0/
0@
0G
#335
1!
1)
b1111 +
b11110101 ,
b10100011001000010101 -
1/
1@
1B
b1111 D
b11110101 E
b10100011001000010101 F
1G
b0 N
1O
0P
b1111 Q
b11110101 R
b10100011001000010101 S
1U
1V
1[
0\
b0 ]
b10 ^
b0 _
b10 `
b0 a
#340
0!
0/
0@
0G
#345
1!
0)
b0 +
b0 ,
b0 -
1/
1@
0B
b0 D
b0 E
b0 F
1G
b0 N
0O
0P
b0 Q
b0 R
b0 S
0U
0V
0W
b0 X
b0 Y
b0 Z
0[
0\
b0 ]
b0 ^
b0 _
b0 `
b0 a
b110 e
b11110110 g
b1111 h
b10100011001000010110 i
#350
0!
0/
0@
0G
#355
1!
b1111 #
1$
1%
b11110110 &
b10100011001000010110 '
1/
12
b11110110 4
b10100011001000010110 5
1@
1G
1J
b11110110 L
b10100011001000010110 M
b0 N
0U
0V
0W
b0 X
b0 Y
b0 Z
b0 ^
b1 _
b0 `
b0 a
#360
0!
0/
0@
0G
#365
1!
0$
1/
02
1@
1G
0J
b0 N
0O
0P
b0 Q
b0 R
b0 S
1U
0V
1W
b1111 X
b11110110 Y
b10100011001000010110 Z
0[
0\
b0 ]
b1 ^
b10 _
b0 `
b1 a
#370
0!
0/
0@
0G
#375
1!
1/
1@
1G
b0 N
0O
0P
b0 Q
b0 R
b0 S
1U
1V
0[
0\
b0 ]
b10 ^
b10 _
b1 `
b10 a
b1111011100 b
#380
0!
0/
0@
0G
#385
1!
1)
b1111 +
b11110110 ,
b10100011001000010110 -
1/
1@
1B
b1111 D
b11110110 E
b10100011001000010110 F
1G
b0 N
1O
0P
b1111 Q
b11110110 R
b10100011001000010110 S
1U
1V
1[
0\
b0 ]
b10 ^
b0 _
b10 `
b0 a
#390
0!
0/
0@
0G
#395
1!
0)
b0 +
b0 ,
b0 -
1/
1@
0B
b0 D
b0 E
b0 F
1G
b0 N
0O
0P
b0 Q
b0 R
b0 S
0U
0V
0W
b0 X
b0 Y
b0 Z
0[
0\
b0 ]
b0 ^
b0 _
b0 `
b0 a
b111 e
b11110111 g
b1111 h
b10100011001000010111 i
#400
0!
0/
0@
0G
#405
1!
b1111 #
1$
1%
b11110111 &
b10100011001000010111 '
1/
12
b11110111 4
b10100011001000010111 5
1@
1G
1J
b11110111 L
b10100011001000010111 M
b0 N
0U
0V
0W
b0 X
b0 Y
b0 Z
b0 ^
b1 _
b0 `
b0 a
#410
0!
0/
0@
0G
#415
1!
0$
1/
02
1@
1G
0J
b0 N
0O
0P
b0 Q
b0 R
b0 S
1U
0V
1W
b1111 X
b11110111 Y
b10100011001000010111 Z
0[
0\
b0 ]
b1 ^
b10 _
b0 `
b1 a
#420
0!
0/
0@
0G
#425
1!
1/
1@
1G
b0 N
0O
0P
b0 Q
b0 R
b0 S
1U
1V
0[
0\
b0 ]
b10 ^
b10 _
b1 `
b10 a
b1111100000 b
#430
0!
0/
0@
0G
#435
1!
1)
b1111 +
b11110111 ,
b10100011001000010111 -
1/
1@
1B
b1111 D
b11110111 E
b10100011001000010111 F
1G
b0 N
1O
0P
b1111 Q
b11110111 R
b10100011001000010111 S
1U
1V
1[
0\
b0 ]
b10 ^
b0 _
b10 `
b0 a
#440
0!
0/
0@
0G
#445
1!
0)
b0 +
b0 ,
b0 -
1/
1@
0B
b0 D
b0 E
b0 F
1G
b0 N
0O
0P
b0 Q
b0 R
b0 S
0U
0V
0W
b0 X
b0 Y
b0 Z
0[
0\
b0 ]
b0 ^
b0 _
b0 `
b0 a
b1000 e
b11111000 g
b1111 h
b10100011001000011000 i
#450
0!
0/
0@
0G
#455
1!
b1111 #
1$
1%
b11111000 &
b10100011001000011000 '
1/
12
b11111000 4
b10100011001000011000 5
1@
1G
1J
b11111000 L
b10100011001000011000 M
b0 N
0U
0V
0W
b0 X
b0 Y
b0 Z
b0 ^
b1 _
b0 `
b0 a
#460
0!
0/
0@
0G
#465
1!
0$
1/
02
1@
1G
0J
b0 N
0O
0P
b0 Q
b0 R
b0 S
1U
0V
1W
b1111 X
b11111000 Y
b10100011001000011000 Z
0[
0\
b0 ]
b1 ^
b10 _
b0 `
b1 a
#470
0!
0/
0@
0G
#475
1!
1/
1@
1G
b0 N
0O
0P
b0 Q
b0 R
b0 S
1U
1V
0[
0\
b0 ]
b10 ^
b10 _
b1 `
b10 a
b1111100100 b
#480
0!
0/
0@
0G
