apb2apb_bridge/run_viv/apb_bridge_tb.vcd
$date
   Wed Dec 11 16:23:40 2019
$end
$version
  2018.2
$end
$timescale
  1ns
$end
$scope module apb_bridge_tb $end
$var reg 1 ! clk $end
$var reg 1 " rst_n $end
$var reg 2 # dsel [1:0] $end
$var reg 1 $ trnsfr $end
$var reg 1 % wr $end
$var reg 32 & address [31:0] $end
$var reg 32 ' data_in [31:0] $end
$var reg 32 ( data_out [31:0] $end
$var reg 1 ) mem_wr $end
$var reg 1 * mem_rd $end
$var reg 4 + mem_be [3:0] $end
$var reg 32 , mem_address [31:0] $end
$var reg 32 - mem_data_in [31:0] $end
$var reg 32 . mem_data_out [31:0] $end
$scope module test_bus $end
$var wire 1 / clk $end
$var wire 1 0 rst_n $end
$var wire 2 1 dsel [1:0] $end
$var wire 1 2 trnsfr $end
$var wire 1 3 wr $end
$var wire 32 4 address [31:0] $end
$var wire 32 5 data_in [31:0] $end
$var reg 32 ( data_out [31:0] $end
$var reg 1 ) mem_wr $end
$var reg 1 * mem_rd $end
$var reg 4 + mem_be [3:0] $end
$var reg 32 , mem_address [31:0] $end
$var reg 32 - mem_data_in [31:0] $end
$var wire 32 6 mem_data_out [31:0] $end
$var reg 1 7 sel $end
$var reg 1 8 enable $end
$var reg 1 9 write $end
$var reg 4 : strb [3:0] $end
$var reg 32 ; addr [31:0] $end
$var reg 32 < wdata [31:0] $end
$var reg 1 = ready $end
$var reg 1 > slverr $end
$var reg 32 ? rdata [31:0] $end
$scope module bridge $end
$var wire 1 / clk $end
$var wire 1 0 rst_n $end
$var wire 2 1 dsel [1:0] $end
$var wire 1 2 trnsfr $end
$var wire 1 3 wr $end
$var wire 32 4 address [31:0] $end
$var wire 32 5 data_in [31:0] $end
$var reg 32 ( data_out [31:0] $end
$var reg 1 ) mem_wr $end
$var reg 1 * mem_rd $end
$var reg 4 + mem_be [3:0] $end
$var reg 32 , mem_address [31:0] $end
$var reg 32 - mem_data_in [31:0] $end
$var wire 32 6 mem_data_out [31:0] $end
$upscope $end
$scope module master $end
$var wire 1 / clk $end
$var wire 1 0 rst_n $end
$var wire 2 1 dsel [1:0] $end
$var wire 1 2 trnsfr $end
$var wire 1 3 wr $end
$var wire 32 4 address [31:0] $end
$var wire 32 5 data_in [31:0] $end
$var reg 32 ( data_out [31:0] $end
$var reg 1 7 sel $end
$var reg 1 8 enable $end
$var reg 1 9 write $end
$var reg 4 : strb [3:0] $end
$var reg 32 ; addr [31:0] $end
$var reg 32 < wdata [31:0] $end
$var reg 1 = ready $end
$var reg 1 > slverr $end
$var reg 32 ? rdata [31:0] $end
$upscope $end
$scope module slave $end
$var wire 1 / clk $end
$var wire 1 0 rst_n $end
$var wire 1 2 trnsfr $end
$var reg 1 ) mem_wr $end
$var reg 1 * mem_rd $end
$var reg 4 + mem_be [3:0] $end
$var reg 32 , mem_address [31:0] $end
$var reg 32 - mem_data_in [31:0] $end
$var wire 32 6 mem_data_out [31:0] $end
$var reg 1 7 sel $end
$var reg 1 8 enable $end
$var reg 1 9 write $end
$var reg 4 : strb [3:0] $end
$var reg 32 ; addr [31:0] $end
$var reg 32 < wdata [31:0] $end
$var reg 1 = ready $end
$var reg 1 > slverr $end
$var reg 32 ? rdata [31:0] $end
$upscope $end
$upscope $end
$scope module mem_bus $end
$var wire 1 @ clk $end
$var wire 1 A mem_wr $end
$var wire 1 B mem_rd $end
$var wire 4 C mem_be [3:0] $end
$var wire 32 D mem_address [31:0] $end
$var wire 32 E mem_data_in [31:0] $end
$var reg 32 . mem_data_out [31:0] $end
$scope module mem $end
$var wire 1 @ clk $end
$var wire 1 A mem_wr $end
$var wire 1 B mem_rd $end
$var wire 4 C mem_be [3:0] $end
$var wire 32 D mem_address [31:0] $end
$var wire 32 E mem_data_in [31:0] $end
$var reg 32 . mem_data_out [31:0] $end
$upscope $end
$upscope $end
$scope module apb2apb $end
$scope module ibus $end
$var wire 1 / clk $end
$var wire 1 0 rst_n $end
$var wire 2 1 dsel [1:0] $end
$var wire 1 2 trnsfr $end
$var wire 1 3 wr $end
$var wire 32 4 address [31:0] $end
$var wire 32 5 data_in [31:0] $end
$var reg 32 ( data_out [31:0] $end
$var reg 1 ) mem_wr $end
$var reg 1 * mem_rd $end
$var reg 4 + mem_be [3:0] $end
$var reg 32 , mem_address [31:0] $end
$var reg 32 - mem_data_in [31:0] $end
$var wire 32 6 mem_data_out [31:0] $end
$var reg 1 7 sel $end
$var reg 1 8 enable $end
$var reg 1 9 write $end
$var reg 4 : strb [3:0] $end
$var reg 32 ; addr [31:0] $end
$var reg 32 < wdata [31:0] $end
$var reg 1 = ready $end
$var reg 1 > slverr $end
$var reg 32 ? rdata [31:0] $end
$scope module bridge $end
$var wire 1 / clk $end
$var wire 1 0 rst_n $end
$var wire 2 1 dsel [1:0] $end
$var wire 1 2 trnsfr $end
$var wire 1 3 wr $end
$var wire 32 4 address [31:0] $end
$var wire 32 5 data_in [31:0] $end
$var reg 32 ( data_out [31:0] $end
$var reg 1 ) mem_wr $end
$var reg 1 * mem_rd $end
$var reg 4 + mem_be [3:0] $end
$var reg 32 , mem_address [31:0] $end
$var reg 32 - mem_data_in [31:0] $end
$var wire 32 6 mem_data_out [31:0] $end
$upscope $end
$scope module master $end
$var wire 1 / clk $end
$var wire 1 0 rst_n $end
$var wire 2 1 dsel [1:0] $end
$var wire 1 2 trnsfr $end
$var wire 1 3 wr $end
$var wire 32 4 address [31:0] $end
$var wire 32 5 data_in [31:0] $end
$var reg 32 ( data_out [31:0] $end
$var reg 1 7 sel $end
$var reg 1 8 enable $end
$var reg 1 9 write $end
$var reg 4 : strb [3:0] $end
$var reg 32 ; addr [31:0] $end
$var reg 32 < wdata [31:0] $end
$var reg 1 = ready $end
$var reg 1 > slverr $end
$var reg 32 ? rdata [31:0] $end
$upscope $end
$scope module slave $end
$var wire 1 / clk $end
$var wire 1 0 rst_n $end
$var wire 1 2 trnsfr $end
$var reg 1 ) mem_wr $end
$var reg 1 * mem_rd $end
$var reg 4 + mem_be [3:0] $end
$var reg 32 , mem_address [31:0] $end
$var reg 32 - mem_data_in [31:0] $end
$var wire 32 6 mem_data_out [31:0] $end
$var reg 1 7 sel $end
$var reg 1 8 enable $end
$var reg 1 9 write $end
$var reg 4 : strb [3:0] $end
$var reg 32 ; addr [31:0] $end
$var reg 32 < wdata [31:0] $end
$var reg 1 = ready $end
$var reg 1 > slverr $end
$var reg 32 ? rdata [31:0] $end
$upscope $end
$upscope $end
$scope module pbus $end
$var wire 1 F clk $end
$var wire 1 G rst_n $end
$var wire 2 H dsel [1:0] $end
$var wire 1 I trnsfr $end
$var wire 1 J wr $end
$var wire 32 K address [31:0] $end
$var wire 32 L data_in [31:0] $end
$var reg 32 M data_out [31:0] $end
$var reg 1 N mem_wr $end
$var reg 1 O mem_rd $end
$var reg 4 P mem_be [3:0] $end
$var reg 32 Q mem_address [31:0] $end
$var reg 32 R mem_data_in [31:0] $end
$var wire 32 S mem_data_out [31:0] $end
$var reg 1 T sel $end
$var reg 1 U enable $end
$var reg 1 V write $end
$var reg 4 W strb [3:0] $end
$var reg 32 X addr [31:0] $end
$var reg 32 Y wdata [31:0] $end
$var reg 1 Z ready $end
$var reg 1 [ slverr $end
$var reg 32 \ rdata [31:0] $end
$scope module bridge $end
$var wire 1 F clk $end
$var wire 1 G rst_n $end
$var wire 2 H dsel [1:0] $end
$var wire 1 I trnsfr $end
$var wire 1 J wr $end
$var wire 32 K address [31:0] $end
$var wire 32 L data_in [31:0] $end
$var reg 32 M data_out [31:0] $end
$var reg 1 N mem_wr $end
$var reg 1 O mem_rd $end
$var reg 4 P mem_be [3:0] $end
$var reg 32 Q mem_address [31:0] $end
$var reg 32 R mem_data_in [31:0] $end
$var wire 32 S mem_data_out [31:0] $end
$upscope $end
$scope module master $end
$var wire 1 F clk $end
$var wire 1 G rst_n $end
$var wire 2 H dsel [1:0] $end
$var wire 1 I trnsfr $end
$var wire 1 J wr $end
$var wire 32 K address [31:0] $end
$var wire 32 L data_in [31:0] $end
$var reg 32 M data_out [31:0] $end
$var reg 1 T sel $end
$var reg 1 U enable $end
$var reg 1 V write $end
$var reg 4 W strb [3:0] $end
$var reg 32 X addr [31:0] $end
$var reg 32 Y wdata [31:0] $end
$var reg 1 Z ready $end
$var reg 1 [ slverr $end
$var reg 32 \ rdata [31:0] $end
$upscope $end
$scope module slave $end
$var wire 1 F clk $end
$var wire 1 G rst_n $end
$var wire 1 I trnsfr $end
$var reg 1 N mem_wr $end
$var reg 1 O mem_rd $end
$var reg 4 P mem_be [3:0] $end
$var reg 32 Q mem_address [31:0] $end
$var reg 32 R mem_data_in [31:0] $end
$var wire 32 S mem_data_out [31:0] $end
$var reg 1 T sel $end
$var reg 1 U enable $end
$var reg 1 V write $end
$var reg 4 W strb [3:0] $end
$var reg 32 X addr [31:0] $end
$var reg 32 Y wdata [31:0] $end
$var reg 1 Z ready $end
$var reg 1 [ slverr $end
$var reg 32 \ rdata [31:0] $end
$upscope $end
$upscope $end
$scope module pmaster $end
$var reg 2 ] m_state [1:0] $end
$var reg 2 ^ m_nxt_state [1:0] $end
$var reg 2 _ strb_reg [1:0] $end
$var reg 1 ` wr_reg $end
$var reg 32 a address_reg [31:0] $end
$var reg 32 b data_in_reg [31:0] $end
$scope module mbus $end
$var wire 1 F clk $end
$var wire 1 G rst_n $end
$var wire 2 H dsel [1:0] $end
$var wire 1 I trnsfr $end
$var wire 1 J wr $end
$var wire 32 K address [31:0] $end
$var wire 32 L data_in [31:0] $end
$var reg 32 M data_out [31:0] $end
$var reg 1 N mem_wr $end
$var reg 1 O mem_rd $end
$var reg 4 P mem_be [3:0] $end
$var reg 32 Q mem_address [31:0] $end
$var reg 32 R mem_data_in [31:0] $end
$var wire 32 S mem_data_out [31:0] $end
$var reg 1 T sel $end
$var reg 1 U enable $end
$var reg 1 V write $end
$var reg 4 W strb [3:0] $end
$var reg 32 X addr [31:0] $end
$var reg 32 Y wdata [31:0] $end
$var reg 1 Z ready $end
$var reg 1 [ slverr $end
$var reg 32 \ rdata [31:0] $end
$scope module bridge $end
$var wire 1 F clk $end
$var wire 1 G rst_n $end
$var wire 2 H dsel [1:0] $end
$var wire 1 I trnsfr $end
$var wire 1 J wr $end
$var wire 32 K address [31:0] $end
$var wire 32 L data_in [31:0] $end
$var reg 32 M data_out [31:0] $end
$var reg 1 N mem_wr $end
$var reg 1 O mem_rd $end
$var reg 4 P mem_be [3:0] $end
$var reg 32 Q mem_address [31:0] $end
$var reg 32 R mem_data_in [31:0] $end
$var wire 32 S mem_data_out [31:0] $end
$upscope $end
$scope module master $end
$var wire 1 F clk $end
$var wire 1 G rst_n $end
$var wire 2 H dsel [1:0] $end
$var wire 1 I trnsfr $end
$var wire 1 J wr $end
$var wire 32 K address [31:0] $end
$var wire 32 L data_in [31:0] $end
$var reg 32 M data_out [31:0] $end
$var reg 1 T sel $end
$var reg 1 U enable $end
$var reg 1 V write $end
$var reg 4 W strb [3:0] $end
$var reg 32 X addr [31:0] $end
$var reg 32 Y wdata [31:0] $end
$var reg 1 Z ready $end
$var reg 1 [ slverr $end
$var reg 32 \ rdata [31:0] $end
$upscope $end
$scope module slave $end
$var wire 1 F clk $end
$var wire 1 G rst_n $end
$var wire 1 I trnsfr $end
$var reg 1 N mem_wr $end
$var reg 1 O mem_rd $end
$var reg 4 P mem_be [3:0] $end
$var reg 32 Q mem_address [31:0] $end
$var reg 32 R mem_data_in [31:0] $end
$var wire 32 S mem_data_out [31:0] $end
$var reg 1 T sel $end
$var reg 1 U enable $end
$var reg 1 V write $end
$var reg 4 W strb [3:0] $end
$var reg 32 X addr [31:0] $end
$var reg 32 Y wdata [31:0] $end
$var reg 1 Z ready $end
$var reg 1 [ slverr $end
$var reg 32 \ rdata [31:0] $end
$upscope $end
$upscope $end
$upscope $end
$scope module pslave $end
$var reg 1 c ready_reg $end
$var reg 1 d slverr_reg $end
$var reg 32 e rdata_reg [31:0] $end
$var reg 32 f rdata_filt_reg [31:0] $end
$scope module sbus $end
$var wire 1 F clk $end
$var wire 1 G rst_n $end
$var wire 2 H dsel [1:0] $end
$var wire 1 I trnsfr $end
$var wire 1 J wr $end
$var wire 32 K address [31:0] $end
$var wire 32 L data_in [31:0] $end
$var reg 32 M data_out [31:0] $end
$var reg 1 N mem_wr $end
$var reg 1 O mem_rd $end
$var reg 4 P mem_be [3:0] $end
$var reg 32 Q mem_address [31:0] $end
$var reg 32 R mem_data_in [31:0] $end
$var wire 32 S mem_data_out [31:0] $end
$var reg 1 T sel $end
$var reg 1 U enable $end
$var reg 1 V write $end
$var reg 4 W strb [3:0] $end
$var reg 32 X addr [31:0] $end
$var reg 32 Y wdata [31:0] $end
$var reg 1 Z ready $end
$var reg 1 [ slverr $end
$var reg 32 \ rdata [31:0] $end
$scope module bridge $end
$var wire 1 F clk $end
$var wire 1 G rst_n $end
$var wire 2 H dsel [1:0] $end
$var wire 1 I trnsfr $end
$var wire 1 J wr $end
$var wire 32 K address [31:0] $end
$var wire 32 L data_in [31:0] $end
$var reg 32 M data_out [31:0] $end
$var reg 1 N mem_wr $end
$var reg 1 O mem_rd $end
$var reg 4 P mem_be [3:0] $end
$var reg 32 Q mem_address [31:0] $end
$var reg 32 R mem_data_in [31:0] $end
$var wire 32 S mem_data_out [31:0] $end
$upscope $end
$scope module master $end
$var wire 1 F clk $end
$var wire 1 G rst_n $end
$var wire 2 H dsel [1:0] $end
$var wire 1 I trnsfr $end
$var wire 1 J wr $end
$var wire 32 K address [31:0] $end
$var wire 32 L data_in [31:0] $end
$var reg 32 M data_out [31:0] $end
$var reg 1 T sel $end
$var reg 1 U enable $end
$var reg 1 V write $end
$var reg 4 W strb [3:0] $end
$var reg 32 X addr [31:0] $end
$var reg 32 Y wdata [31:0] $end
$var reg 1 Z ready $end
$var reg 1 [ slverr $end
$var reg 32 \ rdata [31:0] $end
$upscope $end
$scope module slave $end
$var wire 1 F clk $end
$var wire 1 G rst_n $end
$var wire 1 I trnsfr $end
$var reg 1 N mem_wr $end
$var reg 1 O mem_rd $end
$var reg 4 P mem_be [3:0] $end
$var reg 32 Q mem_address [31:0] $end
$var reg 32 R mem_data_in [31:0] $end
$var wire 32 S mem_data_out [31:0] $end
$var reg 1 T sel $end
$var reg 1 U enable $end
$var reg 1 V write $end
$var reg 4 W strb [3:0] $end
$var reg 32 X addr [31:0] $end
$var reg 32 Y wdata [31:0] $end
$var reg 1 Z ready $end
$var reg 1 [ slverr $end
$var reg 32 \ rdata [31:0] $end
$upscope $end
$upscope $end
$upscope $end
$upscope $end
$scope module memory $end
$scope module membus $end
$var wire 1 @ clk $end
$var wire 1 A mem_wr $end
$var wire 1 B mem_rd $end
$var wire 4 C mem_be [3:0] $end
$var wire 32 D mem_address [31:0] $end
$var wire 32 E mem_data_in [31:0] $end
$var reg 32 . mem_data_out [31:0] $end
$scope module mem $end
$var wire 1 @ clk $end
$var wire 1 A mem_wr $end
$var wire 1 B mem_rd $end
$var wire 4 C mem_be [3:0] $end
$var wire 32 D mem_address [31:0] $end
$var wire 32 E mem_data_in [31:0] $end
$var reg 32 . mem_data_out [31:0] $end
$upscope $end
$upscope $end
$scope begin Block18_8 $end
$var reg 32 g i $end
$scope begin Block20_9 $end
$var reg 32 h j $end
$upscope $end
$upscope $end
$upscope $end
$scope begin Block69_22 $end
$var reg 32 i i $end
$upscope $end
$scope begin Block74_23 $end
$var reg 32 j i $end
$upscope $end
$scope begin Block81_24 $end
$var reg 32 k i $end
$upscope $end
$scope begin Block86_25 $end
$var reg 32 l i $end
$upscope $end
$scope begin Block93_26 $end
$var reg 32 m i $end
$upscope $end
$scope begin Block98_27 $end
$var reg 32 n i $end
$upscope $end
$scope begin Block106_28 $end
$var reg 32 o i $end
$upscope $end
$scope begin Block112_29 $end
$var reg 32 p i $end
$upscope $end
$scope begin Block118_30 $end
$var reg 32 q i $end
$upscope $end
$scope begin Block149_32 $end
$var reg 32 r wmemtrnsf_fd $end
$scope begin Block149_33 $end
$var reg 32 s i2 $end
$scope begin Block149_34 $end
$var reg 32 t i1 $end
$upscope $end
$upscope $end
$upscope $end
$scope task async_reset $end
$upscope $end
$scope task single_write $end
$var reg 32 u address_sr [31:0] $end
$var reg 2 v dsel_sw [1:0] $end
$var reg 32 w data_sr [31:0] $end
$upscope $end
$scope task single_read $end
$var reg 32 x address_sr [31:0] $end
$var reg 2 y dsel_sr [1:0] $end
$upscope $end
$scope task burst_write $end
$var reg 32 z address_sr [31:0] $end
$var reg 2 { dsel_bw [1:0] $end
$var reg 32 | data_sr [31:0] $end
$var reg 32 } count $end
$scope begin Block197_35 $end
$var reg 32 ~ i $end
$upscope $end
$upscope $end
$scope task burst_read $end
$var reg 32 !! address_sr [31:0] $end
$var reg 2 "! dsel_br [1:0] $end
$var reg 32 #! count $end
$scope begin Block216_36 $end
$var reg 32 $! i $end
$upscope $end
$upscope $end
$upscope $end
$enddefinitions $end
#0
$dumpvars
0!
b0 !!
0"
b0 "!
b0 #
b0 #!
0$
b0 $!
0%
b0 &
b0 '
b0 (
0)
0*
b0 +
b0 ,
b0 -
b0 .
0/
00
b0 1
02
03
b0 4
b0 5
b0 6
x7
x8
x9
bx :
bx ;
bx <
x=
x>
bx ?
0@
0A
0B
b0 C
b0 D
b0 E
0F
0G
b0 H
0I
0J
b0 K
b0 L
b0 M
0N
0O
b0 P
b0 Q
b0 R
b0 S
0T
0U
0V
b0 W
b0 X
b0 Y
0Z
0[
b0 \
b0 ]
b0 ^
b0 _
0`
b0 a
b0 b
0c
0d
b0 e
b0 f
b100 g
b100000000 h
b0 i
b0 j
b0 k
b0 l
b0 m
b0 n
b0 o
b0 p
b0 q
b0 r
b0 s
b0 t
b0 u
b0 v
b0 w
b0 x
b0 y
b0 z
b0 {
b0 |
b0 }
b0 ~
$end
#5
1!
1/
1@
1F
0N
0O
b0 P
b0 Q
b0 R
b0 ]
b0 _
0`
b0 a
b0 b
0c
0d
b0 e
#10
0!
0/
0@
0F
#15
1!
1/
1@
1F
0N
0O
b0 P
b0 Q
b0 R
b0 ]
b0 _
0`
b0 a
b0 b
0c
0d
b0 e
#20
0!
0/
0@
0F
#25
1!
1/
1@
1F
0N
0O
b0 P
b0 Q
b0 R
b0 ]
b0 _
0`
b0 a
b0 b
0c
0d
b0 e
#30
0!
0/
0@
0F
#35
1!
1/
1@
1F
0N
0O
b0 P
b0 Q
b0 R
b0 ]
b0 _
0`
b0 a
b0 b
0c
0d
b0 e
#40
0!
0/
0@
0F
#45
1!
1"
1/
10
1@
1F
1G
0N
0O
b0 P
b0 Q
b0 R
b0 ]
b0 _
0`
b0 a
b0 b
0c
0d
b0 e
b0 i
b11110000 u
b0 v
b10100011001000010000 w
#50
0!
0/
0@
0F
#55
1!
b0 #
1$
1%
b11110000 &
b10100011001000010000 '
1/
12
13
b11110000 4
b10100011001000010000 5
1@
1F
1I
1J
b11110000 K
b10100011001000010000 L
0N
0O
b0 P
b0 Q
b0 R
b0 ]
b1 ^
b0 _
0`
b0 a
b0 b
0c
0d
b0 e
#60
0!
0/
0@
0F
#65
1!
0$
0%
1/
02
03
1@
1F
0I
0J
b0 M
0N
0O
b0 P
b0 Q
b0 R
1T
1V
b0 W
b11110000 X
b10100011001000010000 Y
b0 \
b1 ]
b10 ^
b0 _
1`
b11110000 a
b10100011001000010000 b
0c
0d
b0 e
#70
0!
0/
0@
0F
#75
1!
1)
b11110000 ,
b10100011001000010000 -
b0 .
1/
1@
1A
b11110000 D
b10100011001000010000 E
1F
b0 M
1N
0O
b0 P
b11110000 Q
b10100011001000010000 R
1U
b1111 W
b11110000 X
b10100011001000010000 Y
b0 \
b10 ]
b10 ^
b0 _
1`
b11110000 a
b10100011001000010000 b
0c
0d
b0 e
b11111111111111111111111111111111 f
#80
0!
0/
0@
0F
#85
1!
b1111 +
1/
1@
b1111 C
1F
b0 M
1N
0O
b1111 P
b11110000 Q
b10100011001000010000 R
b1111 W
b11110000 X
b10100011001000010000 Y
1Z
b0 \
b10 ]
b0 ^
b0 _
1`
b11110000 a
b10100011001000010000 b
1c
0d
b0 e
#90
0!
0/
0@
0F
#95
1!
b0 .
1/
1@
1F
b0 M
1N
0O
b1111 P
b11110000 Q
b10100011001000010000 R
0T
0U
0V
b0 W
b0 X
b0 Y
0Z
b0 \
b0 ]
b0 ^
b0 _
1`
b11110000 a
b10100011001000010000 b
1c
0d
b0 e
b0 f
b1 i
b11110001 u
b0 v
b10100011001000010001 w
#100
0!
0/
0@
0F
#105
1!
b0 #
1$
1%
b11110001 &
b10100011001000010001 '
0)
b0 +
b0 ,
b0 -
b0 .
1/
12
13
b11110001 4
b10100011001000010001 5
1@
0A
b0 C
b0 D
b0 E
1F
1I
1J
b11110001 K
b10100011001000010001 L
0N
0O
b0 P
b0 Q
b0 R
b0 \
b0 ]
b1 ^
b0 _
1`
b11110000 a
b10100011001000010000 b
0c
0d
b0 e
#110
0!
0/
0@
0F
#115
1!
0$
0%
1/
02
03
1@
1F
0I
0J
b0 M
0N
0O
b0 P
b0 Q
b0 R
1T
1V
b0 W
b11110001 X
b10100011001000010001 Y
b0 \
b1 ]
b10 ^
b0 _
1`
b11110001 a
b10100011001000010001 b
0c
0d
b0 e
#120
0!
0/
0@
0F
#125
1!
1)
b11110001 ,
b10100011001000010001 -
b0 .
1/
1@
1A
b11110001 D
b10100011001000010001 E
1F
b0 M
1N
0O
b0 P
b11110001 Q
b10100011001000010001 R
1U
b1111 W
b11110001 X
b10100011001000010001 Y
b0 \
b10 ]
b10 ^
b0 _
1`
b11110001 a
b10100011001000010001 b
0c
0d
b0 e
b11111111111111111111111111111111 f
#130
0!
0/
0@
0F
#135
1!
b1111 +
1/
1@
b1111 C
1F
b0 M
1N
0O
b1111 P
b11110001 Q
b10100011001000010001 R
b1111 W
b11110001 X
b10100011001000010001 Y
1Z
b0 \
b10 ]
b0 ^
b0 _
1`
b11110001 a
b10100011001000010001 b
1c
0d
b0 e
#140
0!
0/
0@
0F
#145
1!
b0 .
1/
1@
1F
b0 M
1N
0O
b1111 P
b11110001 Q
b10100011001000010001 R
0T
0U
0V
b0 W
b0 X
b0 Y
0Z
b0 \
b0 ]
b0 ^
b0 _
1`
b11110001 a
b10100011001000010001 b
1c
0d
b0 e
b0 f
b10 i
b11110010 u
b0 v
b10100011001000010010 w
#150
0!
0/
0@
0F
#155
1!
b0 #
1$
1%
b11110010 &
b10100011001000010010 '
0)
b0 +
b0 ,
b0 -
b0 .
1/
12
13
b11110010 4
b10100011001000010010 5
1@
0A
b0 C
b0 D
b0 E
1F
1I
1J
b11110010 K
b10100011001000010010 L
0N
0O
b0 P
b0 Q
b0 R
b0 \
b0 ]
b1 ^
b0 _
1`
b11110001 a
b10100011001000010001 b
0c
0d
b0 e
#160
0!
0/
0@
0F
#165
1!
0$
0%
1/
02
03
1@
1F
0I
0J
b0 M
0N
0O
b0 P
b0 Q
b0 R
1T
1V
b0 W
b11110010 X
b10100011001000010010 Y
b0 \
b1 ]
b10 ^
b0 _
1`
b11110010 a
b10100011001000010010 b
0c
0d
b0 e
#170
0!
0/
0@
0F
#175
1!
1)
b11110010 ,
b10100011001000010010 -
b0 .
1/
1@
1A
b11110010 D
b10100011001000010010 E
1F
b0 M
1N
0O
b0 P
b11110010 Q
b10100011001000010010 R
1U
b1111 W
b11110010 X
b10100011001000010010 Y
b0 \
b10 ]
b10 ^
b0 _
1`
b11110010 a
b10100011001000010010 b
0c
0d
b0 e
b11111111111111111111111111111111 f
#180
0!
0/
0@
0F
#185
1!
b1111 +
1/
1@
b1111 C
1F
b0 M
1N
0O
b1111 P
b11110010 Q
b10100011001000010010 R
b1111 W
b11110010 X
b10100011001000010010 Y
1Z
b0 \
b10 ]
b0 ^
b0 _
1`
b11110010 a
b10100011001000010010 b
1c
0d
b0 e
#190
0!
0/
0@
0F
#195
1!
b0 .
1/
1@
1F
b0 M
1N
0O
b1111 P
b11110010 Q
b10100011001000010010 R
0T
0U
0V
b0 W
b0 X
b0 Y
0Z
b0 \
b0 ]
b0 ^
b0 _
1`
b11110010 a
b10100011001000010010 b
1c
0d
b0 e
b0 f
b11 i
b11110011 u
b0 v
b10100011001000010011 w
#200
0!
0/
0@
0F
#205
1!
b0 #
1$
1%
b11110011 &
b10100011001000010011 '
0)
b0 +
b0 ,
b0 -
b0 .
1/
12
13
b11110011 4
b10100011001000010011 5
1@
0A
b0 C
b0 D
b0 E
1F
1I
1J
b11110011 K
b10100011001000010011 L
0N
0O
b0 P
b0 Q
b0 R
b0 \
b0 ]
b1 ^
b0 _
1`
b11110010 a
b10100011001000010010 b
0c
0d
b0 e
#210
0!
0/
0@
0F
#215
1!
0$
0%
1/
02
03
1@
1F
0I
0J
b0 M
0N
0O
b0 P
b0 Q
b0 R
1T
1V
b0 W
b11110011 X
b10100011001000010011 Y
b0 \
b1 ]
b10 ^
b0 _
1`
b11110011 a
b10100011001000010011 b
0c
0d
b0 e
#220
0!
0/
0@
0F
#225
1!
1)
b11110011 ,
b10100011001000010011 -
b0 .
1/
1@
1A
b11110011 D
b10100011001000010011 E
1F
b0 M
1N
0O
b0 P
b11110011 Q
b10100011001000010011 R
1U
b1111 W
b11110011 X
b10100011001000010011 Y
b0 \
b10 ]
b10 ^
b0 _
1`
b11110011 a
b10100011001000010011 b
0c
0d
b0 e
b11111111111111111111111111111111 f
#230
0!
0/
0@
0F
#235
1!
b1111 +
1/
1@
b1111 C
1F
b0 M
1N
0O
b1111 P
b11110011 Q
b10100011001000010011 R
b1111 W
b11110011 X
b10100011001000010011 Y
1Z
b0 \
b10 ]
b0 ^
b0 _
1`
b11110011 a
b10100011001000010011 b
1c
0d
b0 e
#240
0!
0/
0@
0F
#245
1!
b0 .
1/
1@
1F
b0 M
1N
0O
b1111 P
b11110011 Q
b10100011001000010011 R
0T
0U
0V
b0 W
b0 X
b0 Y
0Z
b0 \
b0 ]
b0 ^
b0 _
1`
b11110011 a
b10100011001000010011 b
1c
0d
b0 e
b0 f
b100 i
b11110100 u
b0 v
b10100011001000010100 w
#250
0!
0/
0@
0F
#255
1!
b0 #
1$
1%
b11110100 &
b10100011001000010100 '
0)
b0 +
b0 ,
b0 -
b0 .
1/
12
13
b11110100 4
b10100011001000010100 5
1@
0A
b0 C
b0 D
b0 E
1F
1I
1J
b11110100 K
b10100011001000010100 L
0N
0O
b0 P
b0 Q
b0 R
b0 \
b0 ]
b1 ^
b0 _
1`
b11110011 a
b10100011001000010011 b
0c
0d
b0 e
#260
0!
0/
0@
0F
#265
1!
0$
0%
1/
02
03
1@
1F
0I
0J
b0 M
0N
0O
b0 P
b0 Q
b0 R
1T
1V
b0 W
b11110100 X
b10100011001000010100 Y
b0 \
b1 ]
b10 ^
b0 _
1`
b11110100 a
b10100011001000010100 b
0c
0d
b0 e
#270
0!
0/
0@
0F
#275
1!
1)
b11110100 ,
b10100011001000010100 -
b0 .
1/
1@
1A
b11110100 D
b10100011001000010100 E
1F
b0 M
1N
0O
b0 P
b11110100 Q
b10100011001000010100 R
1U
b1111 W
b11110100 X
b10100011001000010100 Y
b0 \
b10 ]
b10 ^
b0 _
1`
b11110100 a
b10100011001000010100 b
0c
0d
b0 e
b11111111111111111111111111111111 f
#280
0!
0/
0@
0F
#285
1!
b1111 +
1/
1@
b1111 C
1F
b0 M
1N
0O
b1111 P
b11110100 Q
b10100011001000010100 R
b1111 W
b11110100 X
b10100011001000010100 Y
1Z
b0 \
b10 ]
b0 ^
b0 _
1`
b11110100 a
b10100011001000010100 b
1c
0d
b0 e
#290
0!
0/
0@
0F
#295
1!
b0 .
1/
1@
1F
b0 M
1N
0O
b1111 P
b11110100 Q
b10100011001000010100 R
0T
0U
0V
b0 W
b0 X
b0 Y
0Z
b0 \
b0 ]
b0 ^
b0 _
1`
b11110100 a
b10100011001000010100 b
1c
0d
b0 e
b0 f
b101 i
b11110101 u
b0 v
b10100011001000010101 w
#300
0!
0/
0@
0F
#305
1!
b0 #
1$
1%
b11110101 &
b10100011001000010101 '
0)
b0 +
b0 ,
b0 -
b0 .
1/
12
13
b11110101 4
b10100011001000010101 5
1@
0A
b0 C
b0 D
b0 E
1F
1I
1J
b11110101 K
b10100011001000010101 L
0N
0O
b0 P
b0 Q
b0 R
b0 \
b0 ]
b1 ^
b0 _
1`
b11110100 a
b10100011001000010100 b
0c
0d
b0 e
#310
0!
0/
0@
0F
#315
1!
0$
0%
1/
02
03
1@
1F
0I
0J
b0 M
0N
0O
b0 P
b0 Q
b0 R
1T
1V
b0 W
b11110101 X
b10100011001000010101 Y
b0 \
b1 ]
b10 ^
b0 _
1`
b11110101 a
b10100011001000010101 b
0c
0d
b0 e
#320
0!
0/
0@
0F
#325
1!
1)
b11110101 ,
b10100011001000010101 -
b0 .
1/
1@
1A
b11110101 D
b10100011001000010101 E
1F
b0 M
1N
0O
b0 P
b11110101 Q
b10100011001000010101 R
1U
b1111 W
b11110101 X
b10100011001000010101 Y
b0 \
b10 ]
b10 ^
b0 _
1`
b11110101 a
b10100011001000010101 b
0c
0d
b0 e
b11111111111111111111111111111111 f
#330
0!
0/
0@
0F
#335
1!
b1111 +
1/
1@
b1111 C
1F
b0 M
1N
0O
b1111 P
b11110101 Q
b10100011001000010101 R
b1111 W
b11110101 X
b10100011001000010101 Y
1Z
b0 \
b10 ]
b0 ^
b0 _
1`
b11110101 a
b10100011001000010101 b
1c
0d
b0 e
#340
0!
0/
0@
0F
