apb2apb_bridge/run_viv/apb_bridge_tb.vcd
$date
   Sat Dec 14 00:42:46 2019
$end
$version
  2019.1
$end
$timescale
  1ns
$end
$scope module apb_bridge_tb $end
$var reg 1 ! clk $end
$var reg 1 " rst_n $end
$var reg 2 # dsel [1:0] $end
$var reg 1 $ trnsfr $end
$var reg 1 % wr $end
$var reg 32 & address [31:0] $end
$var reg 32 ' data_in [31:0] $end
$var reg 32 ( data_out [31:0] $end
$var reg 1 ) mem_wr $end
$var reg 1 * mem_rd $end
$var reg 4 + mem_be [3:0] $end
$var reg 32 , mem_address [31:0] $end
$var reg 32 - mem_data_in [31:0] $end
$var reg 32 . mem_data_out [31:0] $end
$var reg 32 / read_data_out [31:0] $end
$scope module test_bus $end
$var wire 1 0 clk $end
$var wire 1 1 rst_n $end
$var wire 2 2 dsel [1:0] $end
$var wire 1 3 trnsfr $end
$var wire 1 4 wr $end
$var wire 32 5 address [31:0] $end
$var wire 32 6 data_in [31:0] $end
$var reg 32 ( data_out [31:0] $end
$var reg 1 ) mem_wr $end
$var reg 1 * mem_rd $end
$var reg 4 + mem_be [3:0] $end
$var reg 32 , mem_address [31:0] $end
$var reg 32 - mem_data_in [31:0] $end
$var wire 32 7 mem_data_out [31:0] $end
$var reg 1 8 sel $end
$var reg 1 9 enable $end
$var reg 1 : write $end
$var reg 4 ; strb [3:0] $end
$var reg 32 < addr [31:0] $end
$var reg 32 = wdata [31:0] $end
$var reg 1 > ready $end
$var reg 1 ? slverr $end
$var reg 32 @ rdata [31:0] $end
$scope module bridge $end
$var wire 1 0 clk $end
$var wire 1 1 rst_n $end
$var wire 2 2 dsel [1:0] $end
$var wire 1 3 trnsfr $end
$var wire 1 4 wr $end
$var wire 32 5 address [31:0] $end
$var wire 32 6 data_in [31:0] $end
$var reg 32 ( data_out [31:0] $end
$var reg 1 ) mem_wr $end
$var reg 1 * mem_rd $end
$var reg 4 + mem_be [3:0] $end
$var reg 32 , mem_address [31:0] $end
$var reg 32 - mem_data_in [31:0] $end
$var wire 32 7 mem_data_out [31:0] $end
$upscope $end
$scope module master $end
$var wire 1 0 clk $end
$var wire 1 1 rst_n $end
$var wire 2 2 dsel [1:0] $end
$var wire 1 3 trnsfr $end
$var wire 1 4 wr $end
$var wire 32 5 address [31:0] $end
$var wire 32 6 data_in [31:0] $end
$var reg 32 ( data_out [31:0] $end
$var reg 1 8 sel $end
$var reg 1 9 enable $end
$var reg 1 : write $end
$var reg 4 ; strb [3:0] $end
$var reg 32 < addr [31:0] $end
$var reg 32 = wdata [31:0] $end
$var reg 1 > ready $end
$var reg 1 ? slverr $end
$var reg 32 @ rdata [31:0] $end
$upscope $end
$scope module slave $end
$var wire 1 0 clk $end
$var wire 1 1 rst_n $end
$var wire 1 3 trnsfr $end
$var reg 1 ) mem_wr $end
$var reg 1 * mem_rd $end
$var reg 4 + mem_be [3:0] $end
$var reg 32 , mem_address [31:0] $end
$var reg 32 - mem_data_in [31:0] $end
$var wire 32 7 mem_data_out [31:0] $end
$var reg 1 8 sel $end
$var reg 1 9 enable $end
$var reg 1 : write $end
$var reg 4 ; strb [3:0] $end
$var reg 32 < addr [31:0] $end
$var reg 32 = wdata [31:0] $end
$var reg 1 > ready $end
$var reg 1 ? slverr $end
$var reg 32 @ rdata [31:0] $end
$upscope $end
$upscope $end
$scope module mem_bus $end
$var wire 1 A clk $end
$var wire 1 B mem_wr $end
$var wire 1 C mem_rd $end
$var wire 4 D mem_be [3:0] $end
$var wire 32 E mem_address [31:0] $end
$var wire 32 F mem_data_in [31:0] $end
$var reg 32 . mem_data_out [31:0] $end
$scope module mem $end
$var wire 1 A clk $end
$var wire 1 B mem_wr $end
$var wire 1 C mem_rd $end
$var wire 4 D mem_be [3:0] $end
$var wire 32 E mem_address [31:0] $end
$var wire 32 F mem_data_in [31:0] $end
$var reg 32 . mem_data_out [31:0] $end
$upscope $end
$upscope $end
$scope module apb2apb $end
$scope module ibus $end
$var wire 1 0 clk $end
$var wire 1 1 rst_n $end
$var wire 2 2 dsel [1:0] $end
$var wire 1 3 trnsfr $end
$var wire 1 4 wr $end
$var wire 32 5 address [31:0] $end
$var wire 32 6 data_in [31:0] $end
$var reg 32 ( data_out [31:0] $end
$var reg 1 ) mem_wr $end
$var reg 1 * mem_rd $end
$var reg 4 + mem_be [3:0] $end
$var reg 32 , mem_address [31:0] $end
$var reg 32 - mem_data_in [31:0] $end
$var wire 32 7 mem_data_out [31:0] $end
$var reg 1 8 sel $end
$var reg 1 9 enable $end
$var reg 1 : write $end
$var reg 4 ; strb [3:0] $end
$var reg 32 < addr [31:0] $end
$var reg 32 = wdata [31:0] $end
$var reg 1 > ready $end
$var reg 1 ? slverr $end
$var reg 32 @ rdata [31:0] $end
$scope module bridge $end
$var wire 1 0 clk $end
$var wire 1 1 rst_n $end
$var wire 2 2 dsel [1:0] $end
$var wire 1 3 trnsfr $end
$var wire 1 4 wr $end
$var wire 32 5 address [31:0] $end
$var wire 32 6 data_in [31:0] $end
$var reg 32 ( data_out [31:0] $end
$var reg 1 ) mem_wr $end
$var reg 1 * mem_rd $end
$var reg 4 + mem_be [3:0] $end
$var reg 32 , mem_address [31:0] $end
$var reg 32 - mem_data_in [31:0] $end
$var wire 32 7 mem_data_out [31:0] $end
$upscope $end
$scope module master $end
$var wire 1 0 clk $end
$var wire 1 1 rst_n $end
$var wire 2 2 dsel [1:0] $end
$var wire 1 3 trnsfr $end
$var wire 1 4 wr $end
$var wire 32 5 address [31:0] $end
$var wire 32 6 data_in [31:0] $end
$var reg 32 ( data_out [31:0] $end
$var reg 1 8 sel $end
$var reg 1 9 enable $end
$var reg 1 : write $end
$var reg 4 ; strb [3:0] $end
$var reg 32 < addr [31:0] $end
$var reg 32 = wdata [31:0] $end
$var reg 1 > ready $end
$var reg 1 ? slverr $end
$var reg 32 @ rdata [31:0] $end
$upscope $end
$scope module slave $end
$var wire 1 0 clk $end
$var wire 1 1 rst_n $end
$var wire 1 3 trnsfr $end
$var reg 1 ) mem_wr $end
$var reg 1 * mem_rd $end
$var reg 4 + mem_be [3:0] $end
$var reg 32 , mem_address [31:0] $end
$var reg 32 - mem_data_in [31:0] $end
$var wire 32 7 mem_data_out [31:0] $end
$var reg 1 8 sel $end
$var reg 1 9 enable $end
$var reg 1 : write $end
$var reg 4 ; strb [3:0] $end
$var reg 32 < addr [31:0] $end
$var reg 32 = wdata [31:0] $end
$var reg 1 > ready $end
$var reg 1 ? slverr $end
$var reg 32 @ rdata [31:0] $end
$upscope $end
$upscope $end
$scope module pbus $end
$var wire 1 G clk $end
$var wire 1 H rst_n $end
$var wire 2 I dsel [1:0] $end
$var wire 1 J trnsfr $end
$var wire 1 K wr $end
$var wire 32 L address [31:0] $end
$var wire 32 M data_in [31:0] $end
$var reg 32 N data_out [31:0] $end
$var reg 1 O mem_wr $end
$var reg 1 P mem_rd $end
$var reg 4 Q mem_be [3:0] $end
$var reg 32 R mem_address [31:0] $end
$var reg 32 S mem_data_in [31:0] $end
$var wire 32 T mem_data_out [31:0] $end
$var reg 1 U sel $end
$var reg 1 V enable $end
$var reg 1 W write $end
$var reg 4 X strb [3:0] $end
$var reg 32 Y addr [31:0] $end
$var reg 32 Z wdata [31:0] $end
$var reg 1 [ ready $end
$var reg 1 \ slverr $end
$var reg 32 ] rdata [31:0] $end
$scope module bridge $end
$var wire 1 G clk $end
$var wire 1 H rst_n $end
$var wire 2 I dsel [1:0] $end
$var wire 1 J trnsfr $end
$var wire 1 K wr $end
$var wire 32 L address [31:0] $end
$var wire 32 M data_in [31:0] $end
$var reg 32 N data_out [31:0] $end
$var reg 1 O mem_wr $end
$var reg 1 P mem_rd $end
$var reg 4 Q mem_be [3:0] $end
$var reg 32 R mem_address [31:0] $end
$var reg 32 S mem_data_in [31:0] $end
$var wire 32 T mem_data_out [31:0] $end
$upscope $end
$scope module master $end
$var wire 1 G clk $end
$var wire 1 H rst_n $end
$var wire 2 I dsel [1:0] $end
$var wire 1 J trnsfr $end
$var wire 1 K wr $end
$var wire 32 L address [31:0] $end
$var wire 32 M data_in [31:0] $end
$var reg 32 N data_out [31:0] $end
$var reg 1 U sel $end
$var reg 1 V enable $end
$var reg 1 W write $end
$var reg 4 X strb [3:0] $end
$var reg 32 Y addr [31:0] $end
$var reg 32 Z wdata [31:0] $end
$var reg 1 [ ready $end
$var reg 1 \ slverr $end
$var reg 32 ] rdata [31:0] $end
$upscope $end
$scope module slave $end
$var wire 1 G clk $end
$var wire 1 H rst_n $end
$var wire 1 J trnsfr $end
$var reg 1 O mem_wr $end
$var reg 1 P mem_rd $end
$var reg 4 Q mem_be [3:0] $end
$var reg 32 R mem_address [31:0] $end
$var reg 32 S mem_data_in [31:0] $end
$var wire 32 T mem_data_out [31:0] $end
$var reg 1 U sel $end
$var reg 1 V enable $end
$var reg 1 W write $end
$var reg 4 X strb [3:0] $end
$var reg 32 Y addr [31:0] $end
$var reg 32 Z wdata [31:0] $end
$var reg 1 [ ready $end
$var reg 1 \ slverr $end
$var reg 32 ] rdata [31:0] $end
$upscope $end
$upscope $end
$scope module pmaster $end
$var reg 2 ^ m_state [1:0] $end
$var reg 2 _ m_nxt_state [1:0] $end
$var reg 2 ` strb_reg [1:0] $end
$var reg 1 a wr_reg $end
$var reg 32 b address_reg [31:0] $end
$var reg 32 c data_in_reg [31:0] $end
$scope module mbus $end
$var wire 1 G clk $end
$var wire 1 H rst_n $end
$var wire 2 I dsel [1:0] $end
$var wire 1 J trnsfr $end
$var wire 1 K wr $end
$var wire 32 L address [31:0] $end
$var wire 32 M data_in [31:0] $end
$var reg 32 N data_out [31:0] $end
$var reg 1 O mem_wr $end
$var reg 1 P mem_rd $end
$var reg 4 Q mem_be [3:0] $end
$var reg 32 R mem_address [31:0] $end
$var reg 32 S mem_data_in [31:0] $end
$var wire 32 T mem_data_out [31:0] $end
$var reg 1 U sel $end
$var reg 1 V enable $end
$var reg 1 W write $end
$var reg 4 X strb [3:0] $end
$var reg 32 Y addr [31:0] $end
$var reg 32 Z wdata [31:0] $end
$var reg 1 [ ready $end
$var reg 1 \ slverr $end
$var reg 32 ] rdata [31:0] $end
$scope module bridge $end
$var wire 1 G clk $end
$var wire 1 H rst_n $end
$var wire 2 I dsel [1:0] $end
$var wire 1 J trnsfr $end
$var wire 1 K wr $end
$var wire 32 L address [31:0] $end
$var wire 32 M data_in [31:0] $end
$var reg 32 N data_out [31:0] $end
$var reg 1 O mem_wr $end
$var reg 1 P mem_rd $end
$var reg 4 Q mem_be [3:0] $end
$var reg 32 R mem_address [31:0] $end
$var reg 32 S mem_data_in [31:0] $end
$var wire 32 T mem_data_out [31:0] $end
$upscope $end
$scope module master $end
$var wire 1 G clk $end
$var wire 1 H rst_n $end
$var wire 2 I dsel [1:0] $end
$var wire 1 J trnsfr $end
$var wire 1 K wr $end
$var wire 32 L address [31:0] $end
$var wire 32 M data_in [31:0] $end
$var reg 32 N data_out [31:0] $end
$var reg 1 U sel $end
$var reg 1 V enable $end
$var reg 1 W write $end
$var reg 4 X strb [3:0] $end
$var reg 32 Y addr [31:0] $end
$var reg 32 Z wdata [31:0] $end
$var reg 1 [ ready $end
$var reg 1 \ slverr $end
$var reg 32 ] rdata [31:0] $end
$upscope $end
$scope module slave $end
$var wire 1 G clk $end
$var wire 1 H rst_n $end
$var wire 1 J trnsfr $end
$var reg 1 O mem_wr $end
$var reg 1 P mem_rd $end
$var reg 4 Q mem_be [3:0] $end
$var reg 32 R mem_address [31:0] $end
$var reg 32 S mem_data_in [31:0] $end
$var wire 32 T mem_data_out [31:0] $end
$var reg 1 U sel $end
$var reg 1 V enable $end
$var reg 1 W write $end
$var reg 4 X strb [3:0] $end
$var reg 32 Y addr [31:0] $end
$var reg 32 Z wdata [31:0] $end
$var reg 1 [ ready $end
$var reg 1 \ slverr $end
$var reg 32 ] rdata [31:0] $end
$upscope $end
$upscope $end
$upscope $end
$scope module pslave $end
$var reg 1 d ready_reg $end
$var reg 1 e slverr_reg $end
$var reg 32 f rdata_reg [31:0] $end
$var reg 32 g rdata_filt_reg [31:0] $end
$scope module sbus $end
$var wire 1 G clk $end
$var wire 1 H rst_n $end
$var wire 2 I dsel [1:0] $end
$var wire 1 J trnsfr $end
$var wire 1 K wr $end
$var wire 32 L address [31:0] $end
$var wire 32 M data_in [31:0] $end
$var reg 32 N data_out [31:0] $end
$var reg 1 O mem_wr $end
$var reg 1 P mem_rd $end
$var reg 4 Q mem_be [3:0] $end
$var reg 32 R mem_address [31:0] $end
$var reg 32 S mem_data_in [31:0] $end
$var wire 32 T mem_data_out [31:0] $end
$var reg 1 U sel $end
$var reg 1 V enable $end
$var reg 1 W write $end
$var reg 4 X strb [3:0] $end
$var reg 32 Y addr [31:0] $end
$var reg 32 Z wdata [31:0] $end
$var reg 1 [ ready $end
$var reg 1 \ slverr $end
$var reg 32 ] rdata [31:0] $end
$scope module bridge $end
$var wire 1 G clk $end
$var wire 1 H rst_n $end
$var wire 2 I dsel [1:0] $end
$var wire 1 J trnsfr $end
$var wire 1 K wr $end
$var wire 32 L address [31:0] $end
$var wire 32 M data_in [31:0] $end
$var reg 32 N data_out [31:0] $end
$var reg 1 O mem_wr $end
$var reg 1 P mem_rd $end
$var reg 4 Q mem_be [3:0] $end
$var reg 32 R mem_address [31:0] $end
$var reg 32 S mem_data_in [31:0] $end
$var wire 32 T mem_data_out [31:0] $end
$upscope $end
$scope module master $end
$var wire 1 G clk $end
$var wire 1 H rst_n $end
$var wire 2 I dsel [1:0] $end
$var wire 1 J trnsfr $end
$var wire 1 K wr $end
$var wire 32 L address [31:0] $end
$var wire 32 M data_in [31:0] $end
$var reg 32 N data_out [31:0] $end
$var reg 1 U sel $end
$var reg 1 V enable $end
$var reg 1 W write $end
$var reg 4 X strb [3:0] $end
$var reg 32 Y addr [31:0] $end
$var reg 32 Z wdata [31:0] $end
$var reg 1 [ ready $end
$var reg 1 \ slverr $end
$var reg 32 ] rdata [31:0] $end
$upscope $end
$scope module slave $end
$var wire 1 G clk $end
$var wire 1 H rst_n $end
$var wire 1 J trnsfr $end
$var reg 1 O mem_wr $end
$var reg 1 P mem_rd $end
$var reg 4 Q mem_be [3:0] $end
$var reg 32 R mem_address [31:0] $end
$var reg 32 S mem_data_in [31:0] $end
$var wire 32 T mem_data_out [31:0] $end
$var reg 1 U sel $end
$var reg 1 V enable $end
$var reg 1 W write $end
$var reg 4 X strb [3:0] $end
$var reg 32 Y addr [31:0] $end
$var reg 32 Z wdata [31:0] $end
$var reg 1 [ ready $end
$var reg 1 \ slverr $end
$var reg 32 ] rdata [31:0] $end
$upscope $end
$upscope $end
$upscope $end
$upscope $end
$scope module memory $end
$scope module membus $end
$var wire 1 A clk $end
$var wire 1 B mem_wr $end
$var wire 1 C mem_rd $end
$var wire 4 D mem_be [3:0] $end
$var wire 32 E mem_address [31:0] $end
$var wire 32 F mem_data_in [31:0] $end
$var reg 32 . mem_data_out [31:0] $end
$scope module mem $end
$var wire 1 A clk $end
$var wire 1 B mem_wr $end
$var wire 1 C mem_rd $end
$var wire 4 D mem_be [3:0] $end
$var wire 32 E mem_address [31:0] $end
$var wire 32 F mem_data_in [31:0] $end
$var reg 32 . mem_data_out [31:0] $end
$upscope $end
$upscope $end
$scope begin Block18_8 $end
$var reg 32 h i $end
$scope begin Block20_9 $end
$var reg 32 i j $end
$upscope $end
$upscope $end
$upscope $end
$scope begin Block71_21 $end
$var reg 32 j i $end
$upscope $end
$scope begin Block76_22 $end
$var reg 32 k i $end
$upscope $end
$scope begin Block83_23 $end
$var reg 32 l i $end
$upscope $end
$scope begin Block88_24 $end
$var reg 32 m i $end
$upscope $end
$scope begin Block95_25 $end
$var reg 32 n i $end
$upscope $end
$scope begin Block100_26 $end
$var reg 32 o i $end
$upscope $end
$scope begin Block108_27 $end
$var reg 32 p i $end
$upscope $end
$scope begin Block114_28 $end
$var reg 32 q i $end
$upscope $end
$scope begin Block120_29 $end
$var reg 32 r i $end
$upscope $end
$scope begin Block151_31 $end
$var reg 32 s wmemtrnsf_fd $end
$scope begin Block151_32 $end
$var reg 32 t i2 $end
$scope begin Block151_33 $end
$var reg 32 u i1 $end
$upscope $end
$upscope $end
$upscope $end
$scope task async_reset $end
$upscope $end
$scope task single_write $end
$var reg 32 v address_sr [31:0] $end
$var reg 2 w dsel_sw [1:0] $end
$var reg 32 x data_sr [31:0] $end
$upscope $end
$scope task single_read $end
$var reg 32 y address_sr [31:0] $end
$var reg 2 z dsel_sr [1:0] $end
$upscope $end
$scope task burst_write $end
$var reg 32 { address_sr [31:0] $end
$var reg 2 | dsel_bw [1:0] $end
$var reg 32 } data_sr [31:0] $end
$var reg 32 ~ count $end
$scope begin Block208_35 $end
$var reg 32 !! i $end
$upscope $end
$scope begin Block218_37 $end
$var reg 32 "! j $end
$upscope $end
$upscope $end
$scope task burst_read $end
$var reg 32 #! address_sr [31:0] $end
$var reg 2 $! dsel_br [1:0] $end
$var reg 32 %! count $end
$scope begin Block240_39 $end
$var reg 32 &! i $end
$upscope $end
$scope begin Block249_41 $end
$var reg 32 '! j $end
$upscope $end
$scope begin Block257_43 $end
$var reg 32 (! j $end
$upscope $end
$upscope $end
$upscope $end
$enddefinitions $end
#0
$dumpvars
0!
b0 !!
0"
b0 "!
b0 #
b0 #!
0$
b0 $!
0%
b0 %!
b0 &
b0 &!
b0 '
b0 '!
b0 (
b0 (!
0)
0*
b0 +
b0 ,
b0 -
b0 .
bx /
00
01
b0 2
03
04
b0 5
b0 6
b0 7
x8
x9
x:
bx ;
bx <
bx =
x>
x?
bx @
0A
0B
0C
b0 D
b0 E
b0 F
0G
0H
b0 I
0J
0K
b0 L
b0 M
b0 N
0O
0P
b0 Q
b0 R
b0 S
b0 T
0U
0V
0W
b0 X
b0 Y
b0 Z
0[
0\
b0 ]
b0 ^
b0 _
b0 `
0a
b0 b
b0 c
0d
0e
b0 f
b0 g
b100 h
b100000000 i
b0 j
b0 k
b0 l
b0 m
b0 n
b0 o
b0 p
b0 q
b0 r
b0 s
b0 t
b0 u
b0 v
b0 w
b0 x
b0 y
b0 z
b0 {
b0 |
b0 }
b0 ~
$end
#5
1!
10
1A
1G
0O
0P
b0 Q
b0 R
b0 S
b0 ^
b0 `
0a
b0 b
b0 c
0d
0e
b0 f
#10
0!
00
0A
0G
#15
1!
10
1A
1G
0O
0P
b0 Q
b0 R
b0 S
b0 ^
b0 `
0a
b0 b
b0 c
0d
0e
b0 f
#20
0!
00
0A
0G
#25
1!
10
1A
1G
0O
0P
b0 Q
b0 R
b0 S
b0 ^
b0 `
0a
b0 b
b0 c
0d
0e
b0 f
#30
0!
00
0A
0G
#35
1!
10
1A
1G
0O
0P
b0 Q
b0 R
b0 S
b0 ^
b0 `
0a
b0 b
b0 c
0d
0e
b0 f
#40
0!
00
0A
0G
#45
1!
1"
10
11
1A
1G
1H
0O
0P
b0 Q
b0 R
b0 S
b0 ^
b0 `
0a
b0 b
b0 c
0d
0e
b0 f
b0 j
b11110000 v
b0 w
b10100011001000010000 x
#50
0!
00
0A
0G
#55
1!
b0 #
1$
1%
b11110000 &
b10100011001000010000 '
10
13
14
b11110000 5
b10100011001000010000 6
1A
1G
1J
1K
b11110000 L
b10100011001000010000 M
0O
0P
b0 Q
b0 R
b0 S
b0 ^
b1 _
b0 `
0a
b0 b
b0 c
0d
0e
b0 f
#60
0!
00
0A
0G
#65
1!
0$
0%
10
03
04
1A
1G
0J
0K
b0 N
0O
0P
b0 Q
b0 R
b0 S
1U
1W
b0 X
b11110000 Y
b10100011001000010000 Z
b0 ]
b1 ^
b10 _
b0 `
1a
b11110000 b
b10100011001000010000 c
0d
0e
b0 f
#70
0!
00
0A
0G
#75
1!
1)
b11110000 ,
b10100011001000010000 -
b0 .
10
1A
1B
b11110000 E
b10100011001000010000 F
1G
b0 N
1O
0P
b0 Q
b11110000 R
b10100011001000010000 S
1V
b1111 X
b11110000 Y
b10100011001000010000 Z
b0 ]
b10 ^
b10 _
b0 `
1a
b11110000 b
b10100011001000010000 c
0d
0e
b0 f
b11111111111111111111111111111111 g
#80
0!
00
0A
0G
#85
1!
b1111 +
10
1A
b1111 D
1G
b0 N
1O
0P
b1111 Q
b11110000 R
b10100011001000010000 S
b1111 X
b11110000 Y
b10100011001000010000 Z
1[
b0 ]
b10 ^
b0 _
b0 `
1a
b11110000 b
b10100011001000010000 c
1d
0e
b0 f
#90
0!
00
0A
0G
#95
1!
b0 .
10
1A
1G
b0 N
1O
0P
b1111 Q
b11110000 R
b10100011001000010000 S
0U
0V
0W
b0 X
b0 Y
b0 Z
0[
b0 ]
b0 ^
b0 _
b0 `
1a
b11110000 b
b10100011001000010000 c
1d
0e
b0 f
b0 g
b1 j
b11110001 v
b0 w
b10100011001000010001 x
#100
0!
00
0A
0G
#105
1!
b0 #
1$
1%
b11110001 &
b10100011001000010001 '
0)
b0 +
b0 ,
b0 -
b0 .
10
13
14
b11110001 5
b10100011001000010001 6
1A
0B
b0 D
b0 E
b0 F
1G
1J
1K
b11110001 L
b10100011001000010001 M
0O
0P
b0 Q
b0 R
b0 S
b0 ]
b0 ^
b1 _
b0 `
1a
b11110000 b
b10100011001000010000 c
0d
0e
b0 f
#110
0!
00
0A
0G
#115
1!
0$
0%
10
03
04
1A
1G
0J
0K
b0 N
0O
0P
b0 Q
b0 R
b0 S
1U
1W
b0 X
b11110001 Y
b10100011001000010001 Z
b0 ]
b1 ^
b10 _
b0 `
1a
b11110001 b
b10100011001000010001 c
0d
0e
b0 f
#120
0!
00
0A
0G
#125
1!
1)
b11110001 ,
b10100011001000010001 -
b0 .
10
1A
1B
b11110001 E
b10100011001000010001 F
1G
b0 N
1O
0P
b0 Q
b11110001 R
b10100011001000010001 S
1V
b1111 X
b11110001 Y
b10100011001000010001 Z
b0 ]
b10 ^
b10 _
b0 `
1a
b11110001 b
b10100011001000010001 c
0d
0e
b0 f
b11111111111111111111111111111111 g
#130
0!
00
0A
0G
#135
1!
b1111 +
10
1A
b1111 D
1G
b0 N
1O
0P
b1111 Q
b11110001 R
b10100011001000010001 S
b1111 X
b11110001 Y
b10100011001000010001 Z
1[
b0 ]
b10 ^
b0 _
b0 `
1a
b11110001 b
b10100011001000010001 c
1d
0e
b0 f
#140
0!
00
0A
0G
#145
1!
b0 .
10
1A
1G
b0 N
1O
0P
b1111 Q
b11110001 R
b10100011001000010001 S
0U
0V
0W
b0 X
b0 Y
b0 Z
0[
b0 ]
b0 ^
b0 _
b0 `
1a
b11110001 b
b10100011001000010001 c
1d
0e
b0 f
b0 g
b10 j
b11110010 v
b0 w
b10100011001000010010 x
#150
0!
00
0A
0G
#155
1!
b0 #
1$
1%
b11110010 &
b10100011001000010010 '
0)
b0 +
b0 ,
b0 -
b0 .
10
13
14
b11110010 5
b10100011001000010010 6
1A
0B
b0 D
b0 E
b0 F
1G
1J
1K
b11110010 L
b10100011001000010010 M
0O
0P
b0 Q
b0 R
b0 S
b0 ]
b0 ^
b1 _
b0 `
1a
b11110001 b
b10100011001000010001 c
0d
0e
b0 f
#160
0!
00
0A
0G
#165
1!
0$
0%
10
03
04
1A
1G
0J
0K
b0 N
0O
0P
b0 Q
b0 R
b0 S
1U
1W
b0 X
b11110010 Y
b10100011001000010010 Z
b0 ]
b1 ^
b10 _
b0 `
1a
b11110010 b
b10100011001000010010 c
0d
0e
b0 f
#170
0!
00
0A
0G
#175
1!
1)
b11110010 ,
b10100011001000010010 -
b0 .
10
1A
1B
b11110010 E
b10100011001000010010 F
1G
b0 N
1O
0P
b0 Q
b11110010 R
b10100011001000010010 S
1V
b1111 X
b11110010 Y
b10100011001000010010 Z
b0 ]
b10 ^
b10 _
b0 `
1a
b11110010 b
b10100011001000010010 c
0d
0e
b0 f
b11111111111111111111111111111111 g
#180
0!
00
0A
0G
#185
1!
b1111 +
10
1A
b1111 D
1G
b0 N
1O
0P
b1111 Q
b11110010 R
b10100011001000010010 S
b1111 X
b11110010 Y
b10100011001000010010 Z
1[
b0 ]
b10 ^
b0 _
b0 `
1a
b11110010 b
b10100011001000010010 c
1d
0e
b0 f
#190
0!
00
0A
0G
#195
1!
b0 .
10
1A
1G
b0 N
1O
0P
b1111 Q
b11110010 R
b10100011001000010010 S
0U
0V
0W
b0 X
b0 Y
b0 Z
0[
b0 ]
b0 ^
b0 _
b0 `
1a
b11110010 b
b10100011001000010010 c
1d
0e
b0 f
b0 g
b11 j
b11110011 v
b0 w
b10100011001000010011 x
#200
0!
00
0A
0G
#205
1!
b0 #
1$
1%
b11110011 &
b10100011001000010011 '
0)
b0 +
b0 ,
b0 -
b0 .
10
13
14
b11110011 5
b10100011001000010011 6
1A
0B
b0 D
b0 E
b0 F
1G
1J
1K
b11110011 L
b10100011001000010011 M
0O
0P
b0 Q
b0 R
b0 S
b0 ]
b0 ^
b1 _
b0 `
1a
b11110010 b
b10100011001000010010 c
0d
0e
b0 f
#210
0!
00
0A
0G
#215
1!
0$
0%
10
03
04
1A
1G
0J
0K
b0 N
0O
0P
b0 Q
b0 R
b0 S
1U
1W
b0 X
b11110011 Y
b10100011001000010011 Z
b0 ]
b1 ^
b10 _
b0 `
1a
b11110011 b
b10100011001000010011 c
0d
0e
b0 f
#220
0!
00
0A
0G
#225
1!
1)
b11110011 ,
b10100011001000010011 -
b0 .
10
1A
1B
b11110011 E
b10100011001000010011 F
1G
b0 N
1O
0P
b0 Q
b11110011 R
b10100011001000010011 S
1V
b1111 X
b11110011 Y
b10100011001000010011 Z
b0 ]
b10 ^
b10 _
b0 `
1a
b11110011 b
b10100011001000010011 c
0d
0e
b0 f
b11111111111111111111111111111111 g
#230
0!
00
0A
0G
#235
1!
b1111 +
10
1A
b1111 D
1G
b0 N
1O
0P
b1111 Q
b11110011 R
b10100011001000010011 S
b1111 X
b11110011 Y
b10100011001000010011 Z
1[
b0 ]
b10 ^
b0 _
b0 `
1a
b11110011 b
b10100011001000010011 c
1d
0e
b0 f
#240
0!
00
0A
0G
#245
1!
b0 .
10
1A
1G
b0 N
1O
0P
b1111 Q
b11110011 R
b10100011001000010011 S
0U
0V
0W
b0 X
b0 Y
b0 Z
0[
b0 ]
b0 ^
b0 _
b0 `
1a
b11110011 b
b10100011001000010011 c
1d
0e
b0 f
b0 g
b100 j
b11110100 v
b0 w
b10100011001000010100 x
#250
0!
00
0A
0G
#255
1!
b0 #
1$
1%
b11110100 &
b10100011001000010100 '
0)
b0 +
b0 ,
b0 -
b0 .
10
13
14
b11110100 5
b10100011001000010100 6
1A
0B
b0 D
b0 E
b0 F
1G
1J
1K
b11110100 L
b10100011001000010100 M
0O
0P
b0 Q
b0 R
b0 S
b0 ]
b0 ^
b1 _
b0 `
1a
b11110011 b
b10100011001000010011 c
0d
0e
b0 f
#260
0!
00
0A
0G
#265
1!
0$
0%
10
03
04
1A
1G
0J
0K
b0 N
0O
0P
b0 Q
b0 R
b0 S
1U
1W
b0 X
b11110100 Y
b10100011001000010100 Z
b0 ]
b1 ^
b10 _
b0 `
1a
b11110100 b
b10100011001000010100 c
0d
0e
b0 f
#270
0!
00
0A
0G
#275
1!
1)
b11110100 ,
b10100011001000010100 -
b0 .
10
1A
1B
b11110100 E
b10100011001000010100 F
1G
b0 N
1O
0P
b0 Q
b11110100 R
b10100011001000010100 S
1V
b1111 X
b11110100 Y
b10100011001000010100 Z
b0 ]
b10 ^
b10 _
b0 `
1a
b11110100 b
b10100011001000010100 c
0d
0e
b0 f
b11111111111111111111111111111111 g
#280
0!
00
0A
0G
#285
1!
b1111 +
10
1A
b1111 D
1G
b0 N
1O
0P
b1111 Q
b11110100 R
b10100011001000010100 S
b1111 X
b11110100 Y
b10100011001000010100 Z
1[
b0 ]
b10 ^
b0 _
b0 `
1a
b11110100 b
b10100011001000010100 c
1d
0e
b0 f
#290
0!
00
0A
0G
#295
1!
b0 .
10
1A
1G
b0 N
1O
0P
b1111 Q
b11110100 R
b10100011001000010100 S
0U
0V
0W
b0 X
b0 Y
b0 Z
0[
b0 ]
b0 ^
b0 _
b0 `
1a
b11110100 b
b10100011001000010100 c
1d
0e
b0 f
b0 g
b101 j
b11110101 v
b0 w
b10100011001000010101 x
#300
0!
00
0A
0G
#305
1!
b0 #
1$
1%
b11110101 &
b10100011001000010101 '
0)
b0 +
b0 ,
b0 -
b0 .
10
13
14
b11110101 5
b10100011001000010101 6
1A
0B
b0 D
b0 E
b0 F
1G
1J
1K
b11110101 L
b10100011001000010101 M
0O
0P
b0 Q
b0 R
b0 S
b0 ]
b0 ^
b1 _
b0 `
1a
b11110100 b
b10100011001000010100 c
0d
0e
b0 f
#310
0!
00
0A
0G
#315
1!
0$
0%
10
03
04
1A
1G
0J
0K
b0 N
0O
0P
b0 Q
b0 R
b0 S
1U
1W
b0 X
b11110101 Y
b10100011001000010101 Z
b0 ]
b1 ^
b10 _
b0 `
1a
b11110101 b
b10100011001000010101 c
0d
0e
b0 f
#320
0!
00
0A
0G
#325
1!
1)
b11110101 ,
b10100011001000010101 -
b0 .
10
1A
1B
b11110101 E
b10100011001000010101 F
1G
b0 N
1O
0P
b0 Q
b11110101 R
b10100011001000010101 S
1V
b1111 X
b11110101 Y
b10100011001000010101 Z
b0 ]
b10 ^
b10 _
b0 `
1a
b11110101 b
b10100011001000010101 c
0d
0e
b0 f
b11111111111111111111111111111111 g
#330
0!
00
0A
0G
#335
1!
b1111 +
10
1A
b1111 D
1G
b0 N
1O
0P
b1111 Q
b11110101 R
b10100011001000010101 S
b1111 X
b11110101 Y
b10100011001000010101 Z
1[
b0 ]
b10 ^
b0 _
b0 `
1a
b11110101 b
b10100011001000010101 c
1d
0e
b0 f
#340
0!
00
0A
0G
