apb2apb_bridge/run_viv/apb_bridge_tb.vcd
$date
   Sat Dec 14 12:24:36 2019
$end
$version
  2019.1
$end
$timescale
  1ns
$end
$scope module apb_bridge_tb $end
$var reg 1 ! clk $end
$var reg 1 " rst_n $end
$var reg 2 # dsel [1:0] $end
$var reg 1 $ trnsfr $end
$var reg 1 % wr $end
$var reg 32 & address [31:0] $end
$var reg 32 ' data_in [31:0] $end
$var reg 32 ( data_out [31:0] $end
$var reg 1 ) mem_wr $end
$var reg 1 * mem_rd $end
$var reg 4 + mem_be [3:0] $end
$var reg 32 , mem_address [31:0] $end
$var reg 32 - mem_data_in [31:0] $end
$var reg 32 . mem_data_out [31:0] $end
$var reg 32 / read_data_out [31:0] $end
$var reg 32 0 read_addr_out [31:0] $end
$scope module test_bus $end
$var wire 1 1 clk $end
$var wire 1 2 rst_n $end
$var wire 2 3 dsel [1:0] $end
$var wire 1 4 trnsfr $end
$var wire 1 5 wr $end
$var wire 32 6 address [31:0] $end
$var wire 32 7 data_in [31:0] $end
$var reg 32 ( data_out [31:0] $end
$var reg 1 ) mem_wr $end
$var reg 1 * mem_rd $end
$var reg 4 + mem_be [3:0] $end
$var reg 32 , mem_address [31:0] $end
$var reg 32 - mem_data_in [31:0] $end
$var wire 32 8 mem_data_out [31:0] $end
$var reg 1 9 sel $end
$var reg 1 : enable $end
$var reg 1 ; write $end
$var reg 4 < strb [3:0] $end
$var reg 32 = addr [31:0] $end
$var reg 32 > wdata [31:0] $end
$var reg 1 ? ready $end
$var reg 1 @ slverr $end
$var reg 32 A rdata [31:0] $end
$scope module bridge $end
$var wire 1 1 clk $end
$var wire 1 2 rst_n $end
$var wire 2 3 dsel [1:0] $end
$var wire 1 4 trnsfr $end
$var wire 1 5 wr $end
$var wire 32 6 address [31:0] $end
$var wire 32 7 data_in [31:0] $end
$var reg 32 ( data_out [31:0] $end
$var reg 1 ) mem_wr $end
$var reg 1 * mem_rd $end
$var reg 4 + mem_be [3:0] $end
$var reg 32 , mem_address [31:0] $end
$var reg 32 - mem_data_in [31:0] $end
$var wire 32 8 mem_data_out [31:0] $end
$upscope $end
$scope module master $end
$var wire 1 1 clk $end
$var wire 1 2 rst_n $end
$var wire 2 3 dsel [1:0] $end
$var wire 1 4 trnsfr $end
$var wire 1 5 wr $end
$var wire 32 6 address [31:0] $end
$var wire 32 7 data_in [31:0] $end
$var reg 32 ( data_out [31:0] $end
$var reg 1 9 sel $end
$var reg 1 : enable $end
$var reg 1 ; write $end
$var reg 4 < strb [3:0] $end
$var reg 32 = addr [31:0] $end
$var reg 32 > wdata [31:0] $end
$var reg 1 ? ready $end
$var reg 1 @ slverr $end
$var reg 32 A rdata [31:0] $end
$upscope $end
$scope module slave $end
$var wire 1 1 clk $end
$var wire 1 2 rst_n $end
$var wire 1 4 trnsfr $end
$var reg 1 ) mem_wr $end
$var reg 1 * mem_rd $end
$var reg 4 + mem_be [3:0] $end
$var reg 32 , mem_address [31:0] $end
$var reg 32 - mem_data_in [31:0] $end
$var wire 32 8 mem_data_out [31:0] $end
$var reg 1 9 sel $end
$var reg 1 : enable $end
$var reg 1 ; write $end
$var reg 4 < strb [3:0] $end
$var reg 32 = addr [31:0] $end
$var reg 32 > wdata [31:0] $end
$var reg 1 ? ready $end
$var reg 1 @ slverr $end
$var reg 32 A rdata [31:0] $end
$upscope $end
$upscope $end
$scope module mem_bus $end
$var wire 1 B clk $end
$var wire 1 C mem_wr $end
$var wire 1 D mem_rd $end
$var wire 4 E mem_be [3:0] $end
$var wire 32 F mem_address [31:0] $end
$var wire 32 G mem_data_in [31:0] $end
$var reg 32 . mem_data_out [31:0] $end
$scope module mem $end
$var wire 1 B clk $end
$var wire 1 C mem_wr $end
$var wire 1 D mem_rd $end
$var wire 4 E mem_be [3:0] $end
$var wire 32 F mem_address [31:0] $end
$var wire 32 G mem_data_in [31:0] $end
$var reg 32 . mem_data_out [31:0] $end
$upscope $end
$upscope $end
$scope module apb2apb $end
$scope module ibus $end
$var wire 1 1 clk $end
$var wire 1 2 rst_n $end
$var wire 2 3 dsel [1:0] $end
$var wire 1 4 trnsfr $end
$var wire 1 5 wr $end
$var wire 32 6 address [31:0] $end
$var wire 32 7 data_in [31:0] $end
$var reg 32 ( data_out [31:0] $end
$var reg 1 ) mem_wr $end
$var reg 1 * mem_rd $end
$var reg 4 + mem_be [3:0] $end
$var reg 32 , mem_address [31:0] $end
$var reg 32 - mem_data_in [31:0] $end
$var wire 32 8 mem_data_out [31:0] $end
$var reg 1 9 sel $end
$var reg 1 : enable $end
$var reg 1 ; write $end
$var reg 4 < strb [3:0] $end
$var reg 32 = addr [31:0] $end
$var reg 32 > wdata [31:0] $end
$var reg 1 ? ready $end
$var reg 1 @ slverr $end
$var reg 32 A rdata [31:0] $end
$scope module bridge $end
$var wire 1 1 clk $end
$var wire 1 2 rst_n $end
$var wire 2 3 dsel [1:0] $end
$var wire 1 4 trnsfr $end
$var wire 1 5 wr $end
$var wire 32 6 address [31:0] $end
$var wire 32 7 data_in [31:0] $end
$var reg 32 ( data_out [31:0] $end
$var reg 1 ) mem_wr $end
$var reg 1 * mem_rd $end
$var reg 4 + mem_be [3:0] $end
$var reg 32 , mem_address [31:0] $end
$var reg 32 - mem_data_in [31:0] $end
$var wire 32 8 mem_data_out [31:0] $end
$upscope $end
$scope module master $end
$var wire 1 1 clk $end
$var wire 1 2 rst_n $end
$var wire 2 3 dsel [1:0] $end
$var wire 1 4 trnsfr $end
$var wire 1 5 wr $end
$var wire 32 6 address [31:0] $end
$var wire 32 7 data_in [31:0] $end
$var reg 32 ( data_out [31:0] $end
$var reg 1 9 sel $end
$var reg 1 : enable $end
$var reg 1 ; write $end
$var reg 4 < strb [3:0] $end
$var reg 32 = addr [31:0] $end
$var reg 32 > wdata [31:0] $end
$var reg 1 ? ready $end
$var reg 1 @ slverr $end
$var reg 32 A rdata [31:0] $end
$upscope $end
$scope module slave $end
$var wire 1 1 clk $end
$var wire 1 2 rst_n $end
$var wire 1 4 trnsfr $end
$var reg 1 ) mem_wr $end
$var reg 1 * mem_rd $end
$var reg 4 + mem_be [3:0] $end
$var reg 32 , mem_address [31:0] $end
$var reg 32 - mem_data_in [31:0] $end
$var wire 32 8 mem_data_out [31:0] $end
$var reg 1 9 sel $end
$var reg 1 : enable $end
$var reg 1 ; write $end
$var reg 4 < strb [3:0] $end
$var reg 32 = addr [31:0] $end
$var reg 32 > wdata [31:0] $end
$var reg 1 ? ready $end
$var reg 1 @ slverr $end
$var reg 32 A rdata [31:0] $end
$upscope $end
$upscope $end
$scope module pbus $end
$var wire 1 H clk $end
$var wire 1 I rst_n $end
$var wire 2 J dsel [1:0] $end
$var wire 1 K trnsfr $end
$var wire 1 L wr $end
$var wire 32 M address [31:0] $end
$var wire 32 N data_in [31:0] $end
$var reg 32 O data_out [31:0] $end
$var reg 1 P mem_wr $end
$var reg 1 Q mem_rd $end
$var reg 4 R mem_be [3:0] $end
$var reg 32 S mem_address [31:0] $end
$var reg 32 T mem_data_in [31:0] $end
$var wire 32 U mem_data_out [31:0] $end
$var reg 1 V sel $end
$var reg 1 W enable $end
$var reg 1 X write $end
$var reg 4 Y strb [3:0] $end
$var reg 32 Z addr [31:0] $end
$var reg 32 [ wdata [31:0] $end
$var reg 1 \ ready $end
$var reg 1 ] slverr $end
$var reg 32 ^ rdata [31:0] $end
$scope module bridge $end
$var wire 1 H clk $end
$var wire 1 I rst_n $end
$var wire 2 J dsel [1:0] $end
$var wire 1 K trnsfr $end
$var wire 1 L wr $end
$var wire 32 M address [31:0] $end
$var wire 32 N data_in [31:0] $end
$var reg 32 O data_out [31:0] $end
$var reg 1 P mem_wr $end
$var reg 1 Q mem_rd $end
$var reg 4 R mem_be [3:0] $end
$var reg 32 S mem_address [31:0] $end
$var reg 32 T mem_data_in [31:0] $end
$var wire 32 U mem_data_out [31:0] $end
$upscope $end
$scope module master $end
$var wire 1 H clk $end
$var wire 1 I rst_n $end
$var wire 2 J dsel [1:0] $end
$var wire 1 K trnsfr $end
$var wire 1 L wr $end
$var wire 32 M address [31:0] $end
$var wire 32 N data_in [31:0] $end
$var reg 32 O data_out [31:0] $end
$var reg 1 V sel $end
$var reg 1 W enable $end
$var reg 1 X write $end
$var reg 4 Y strb [3:0] $end
$var reg 32 Z addr [31:0] $end
$var reg 32 [ wdata [31:0] $end
$var reg 1 \ ready $end
$var reg 1 ] slverr $end
$var reg 32 ^ rdata [31:0] $end
$upscope $end
$scope module slave $end
$var wire 1 H clk $end
$var wire 1 I rst_n $end
$var wire 1 K trnsfr $end
$var reg 1 P mem_wr $end
$var reg 1 Q mem_rd $end
$var reg 4 R mem_be [3:0] $end
$var reg 32 S mem_address [31:0] $end
$var reg 32 T mem_data_in [31:0] $end
$var wire 32 U mem_data_out [31:0] $end
$var reg 1 V sel $end
$var reg 1 W enable $end
$var reg 1 X write $end
$var reg 4 Y strb [3:0] $end
$var reg 32 Z addr [31:0] $end
$var reg 32 [ wdata [31:0] $end
$var reg 1 \ ready $end
$var reg 1 ] slverr $end
$var reg 32 ^ rdata [31:0] $end
$upscope $end
$upscope $end
$scope module pmaster $end
$var reg 2 _ m_state [1:0] $end
$var reg 2 ` m_nxt_state [1:0] $end
$var reg 2 a strb_reg [1:0] $end
$var reg 1 b wr_reg $end
$var reg 32 c address_reg [31:0] $end
$var reg 32 d data_in_reg [31:0] $end
$scope module mbus $end
$var wire 1 H clk $end
$var wire 1 I rst_n $end
$var wire 2 J dsel [1:0] $end
$var wire 1 K trnsfr $end
$var wire 1 L wr $end
$var wire 32 M address [31:0] $end
$var wire 32 N data_in [31:0] $end
$var reg 32 O data_out [31:0] $end
$var reg 1 P mem_wr $end
$var reg 1 Q mem_rd $end
$var reg 4 R mem_be [3:0] $end
$var reg 32 S mem_address [31:0] $end
$var reg 32 T mem_data_in [31:0] $end
$var wire 32 U mem_data_out [31:0] $end
$var reg 1 V sel $end
$var reg 1 W enable $end
$var reg 1 X write $end
$var reg 4 Y strb [3:0] $end
$var reg 32 Z addr [31:0] $end
$var reg 32 [ wdata [31:0] $end
$var reg 1 \ ready $end
$var reg 1 ] slverr $end
$var reg 32 ^ rdata [31:0] $end
$scope module bridge $end
$var wire 1 H clk $end
$var wire 1 I rst_n $end
$var wire 2 J dsel [1:0] $end
$var wire 1 K trnsfr $end
$var wire 1 L wr $end
$var wire 32 M address [31:0] $end
$var wire 32 N data_in [31:0] $end
$var reg 32 O data_out [31:0] $end
$var reg 1 P mem_wr $end
$var reg 1 Q mem_rd $end
$var reg 4 R mem_be [3:0] $end
$var reg 32 S mem_address [31:0] $end
$var reg 32 T mem_data_in [31:0] $end
$var wire 32 U mem_data_out [31:0] $end
$upscope $end
$scope module master $end
$var wire 1 H clk $end
$var wire 1 I rst_n $end
$var wire 2 J dsel [1:0] $end
$var wire 1 K trnsfr $end
$var wire 1 L wr $end
$var wire 32 M address [31:0] $end
$var wire 32 N data_in [31:0] $end
$var reg 32 O data_out [31:0] $end
$var reg 1 V sel $end
$var reg 1 W enable $end
$var reg 1 X write $end
$var reg 4 Y strb [3:0] $end
$var reg 32 Z addr [31:0] $end
$var reg 32 [ wdata [31:0] $end
$var reg 1 \ ready $end
$var reg 1 ] slverr $end
$var reg 32 ^ rdata [31:0] $end
$upscope $end
$scope module slave $end
$var wire 1 H clk $end
$var wire 1 I rst_n $end
$var wire 1 K trnsfr $end
$var reg 1 P mem_wr $end
$var reg 1 Q mem_rd $end
$var reg 4 R mem_be [3:0] $end
$var reg 32 S mem_address [31:0] $end
$var reg 32 T mem_data_in [31:0] $end
$var wire 32 U mem_data_out [31:0] $end
$var reg 1 V sel $end
$var reg 1 W enable $end
$var reg 1 X write $end
$var reg 4 Y strb [3:0] $end
$var reg 32 Z addr [31:0] $end
$var reg 32 [ wdata [31:0] $end
$var reg 1 \ ready $end
$var reg 1 ] slverr $end
$var reg 32 ^ rdata [31:0] $end
$upscope $end
$upscope $end
$upscope $end
$scope module pslave $end
$var reg 1 e ready_reg $end
$var reg 1 f slverr_reg $end
$var reg 32 g rdata_reg [31:0] $end
$var reg 32 h rdata_filt_reg [31:0] $end
$scope module sbus $end
$var wire 1 H clk $end
$var wire 1 I rst_n $end
$var wire 2 J dsel [1:0] $end
$var wire 1 K trnsfr $end
$var wire 1 L wr $end
$var wire 32 M address [31:0] $end
$var wire 32 N data_in [31:0] $end
$var reg 32 O data_out [31:0] $end
$var reg 1 P mem_wr $end
$var reg 1 Q mem_rd $end
$var reg 4 R mem_be [3:0] $end
$var reg 32 S mem_address [31:0] $end
$var reg 32 T mem_data_in [31:0] $end
$var wire 32 U mem_data_out [31:0] $end
$var reg 1 V sel $end
$var reg 1 W enable $end
$var reg 1 X write $end
$var reg 4 Y strb [3:0] $end
$var reg 32 Z addr [31:0] $end
$var reg 32 [ wdata [31:0] $end
$var reg 1 \ ready $end
$var reg 1 ] slverr $end
$var reg 32 ^ rdata [31:0] $end
$scope module bridge $end
$var wire 1 H clk $end
$var wire 1 I rst_n $end
$var wire 2 J dsel [1:0] $end
$var wire 1 K trnsfr $end
$var wire 1 L wr $end
$var wire 32 M address [31:0] $end
$var wire 32 N data_in [31:0] $end
$var reg 32 O data_out [31:0] $end
$var reg 1 P mem_wr $end
$var reg 1 Q mem_rd $end
$var reg 4 R mem_be [3:0] $end
$var reg 32 S mem_address [31:0] $end
$var reg 32 T mem_data_in [31:0] $end
$var wire 32 U mem_data_out [31:0] $end
$upscope $end
$scope module master $end
$var wire 1 H clk $end
$var wire 1 I rst_n $end
$var wire 2 J dsel [1:0] $end
$var wire 1 K trnsfr $end
$var wire 1 L wr $end
$var wire 32 M address [31:0] $end
$var wire 32 N data_in [31:0] $end
$var reg 32 O data_out [31:0] $end
$var reg 1 V sel $end
$var reg 1 W enable $end
$var reg 1 X write $end
$var reg 4 Y strb [3:0] $end
$var reg 32 Z addr [31:0] $end
$var reg 32 [ wdata [31:0] $end
$var reg 1 \ ready $end
$var reg 1 ] slverr $end
$var reg 32 ^ rdata [31:0] $end
$upscope $end
$scope module slave $end
$var wire 1 H clk $end
$var wire 1 I rst_n $end
$var wire 1 K trnsfr $end
$var reg 1 P mem_wr $end
$var reg 1 Q mem_rd $end
$var reg 4 R mem_be [3:0] $end
$var reg 32 S mem_address [31:0] $end
$var reg 32 T mem_data_in [31:0] $end
$var wire 32 U mem_data_out [31:0] $end
$var reg 1 V sel $end
$var reg 1 W enable $end
$var reg 1 X write $end
$var reg 4 Y strb [3:0] $end
$var reg 32 Z addr [31:0] $end
$var reg 32 [ wdata [31:0] $end
$var reg 1 \ ready $end
$var reg 1 ] slverr $end
$var reg 32 ^ rdata [31:0] $end
$upscope $end
$upscope $end
$upscope $end
$upscope $end
$scope module memory $end
$scope module membus $end
$var wire 1 B clk $end
$var wire 1 C mem_wr $end
$var wire 1 D mem_rd $end
$var wire 4 E mem_be [3:0] $end
$var wire 32 F mem_address [31:0] $end
$var wire 32 G mem_data_in [31:0] $end
$var reg 32 . mem_data_out [31:0] $end
$scope module mem $end
$var wire 1 B clk $end
$var wire 1 C mem_wr $end
$var wire 1 D mem_rd $end
$var wire 4 E mem_be [3:0] $end
$var wire 32 F mem_address [31:0] $end
$var wire 32 G mem_data_in [31:0] $end
$var reg 32 . mem_data_out [31:0] $end
$upscope $end
$upscope $end
$scope begin Block18_8 $end
$var reg 32 i i $end
$scope begin Block20_9 $end
$var reg 32 j j $end
$upscope $end
$upscope $end
$upscope $end
$scope begin Block72_21 $end
$var reg 32 k i $end
$upscope $end
$scope begin Block77_22 $end
$var reg 32 l i $end
$upscope $end
$scope begin Block84_23 $end
$var reg 32 m i $end
$upscope $end
$scope begin Block89_24 $end
$var reg 32 n i $end
$upscope $end
$scope begin Block96_25 $end
$var reg 32 o i $end
$upscope $end
$scope begin Block101_26 $end
$var reg 32 p i $end
$upscope $end
$scope begin Block109_27 $end
$var reg 32 q i $end
$upscope $end
$scope begin Block115_28 $end
$var reg 32 r i $end
$upscope $end
$scope begin Block121_29 $end
$var reg 32 s i $end
$upscope $end
$scope begin Block152_31 $end
$var reg 32 t wmemtrnsf_fd $end
$scope begin Block152_32 $end
$var reg 32 u i2 $end
$scope begin Block152_33 $end
$var reg 32 v i1 $end
$upscope $end
$upscope $end
$upscope $end
$scope task async_reset $end
$upscope $end
$scope task single_write $end
$var reg 32 w address_sr [31:0] $end
$var reg 2 x dsel_sw [1:0] $end
$var reg 32 y data_sr [31:0] $end
$upscope $end
$scope task single_read $end
$var reg 32 z address_sr [31:0] $end
$var reg 2 { dsel_sr [1:0] $end
$upscope $end
$scope task burst_write $end
$var reg 32 | address_sr [31:0] $end
$var reg 2 } dsel_bw [1:0] $end
$var reg 32 ~ data_sr [31:0] $end
$var reg 32 !! count $end
$scope begin Block209_35 $end
$var reg 32 "! i $end
$upscope $end
$scope begin Block219_37 $end
$var reg 32 #! j $end
$upscope $end
$upscope $end
$scope task burst_read $end
$var reg 32 $! address_sr [31:0] $end
$var reg 2 %! dsel_br [1:0] $end
$var reg 32 &! count $end
$scope begin Block241_39 $end
$var reg 32 '! i $end
$upscope $end
$scope begin Block250_41 $end
$var reg 32 (! j $end
$upscope $end
$scope begin Block259_43 $end
$var reg 32 )! j $end
$upscope $end
$upscope $end
$upscope $end
$enddefinitions $end
#0
$dumpvars
0!
b0 !!
0"
b0 "!
b0 #
b0 #!
0$
b0 $!
0%
b0 %!
b0 &
b0 &!
b0 '
b0 '!
b0 (
b0 (!
0)
b0 )!
0*
b0 +
b0 ,
b0 -
b0 .
bx /
bx 0
01
02
b0 3
04
05
b0 6
b0 7
b0 8
x9
x:
x;
bx <
bx =
bx >
x?
x@
bx A
0B
0C
0D
b0 E
b0 F
b0 G
0H
0I
b0 J
0K
0L
b0 M
b0 N
b0 O
0P
0Q
b0 R
b0 S
b0 T
b0 U
0V
0W
0X
b0 Y
b0 Z
b0 [
0\
0]
b0 ^
b0 _
b0 `
b0 a
0b
b0 c
b0 d
0e
0f
b0 g
b0 h
b100 i
b100000000 j
b0 k
b0 l
b0 m
b0 n
b0 o
b0 p
b0 q
b0 r
b0 s
b0 t
b0 u
b0 v
b0 w
b0 x
b0 y
b0 z
b0 {
b0 |
b0 }
b0 ~
$end
#5
1!
11
1B
1H
0P
0Q
b0 R
b0 S
b0 T
b0 _
b0 a
0b
b0 c
b0 d
0e
0f
b0 g
#10
0!
01
0B
0H
#15
1!
11
1B
1H
0P
0Q
b0 R
b0 S
b0 T
b0 _
b0 a
0b
b0 c
b0 d
0e
0f
b0 g
#20
0!
01
0B
0H
#25
1!
11
1B
1H
0P
0Q
b0 R
b0 S
b0 T
b0 _
b0 a
0b
b0 c
b0 d
0e
0f
b0 g
#30
0!
01
0B
0H
#35
1!
11
1B
1H
0P
0Q
b0 R
b0 S
b0 T
b0 _
b0 a
0b
b0 c
b0 d
0e
0f
b0 g
#40
0!
01
0B
0H
#45
1!
1"
11
12
1B
1H
1I
0P
0Q
b0 R
b0 S
b0 T
b0 _
b0 a
0b
b0 c
b0 d
0e
0f
b0 g
b0 k
b11110000 w
b0 x
b10100011001000010000 y
#50
0!
01
0B
0H
#55
1!
b0 #
1$
1%
b11110000 &
b10100011001000010000 '
11
14
15
b11110000 6
b10100011001000010000 7
1B
1H
1K
1L
b11110000 M
b10100011001000010000 N
0P
0Q
b0 R
b0 S
b0 T
b0 _
b1 `
b0 a
0b
b0 c
b0 d
0e
0f
b0 g
#60
0!
01
0B
0H
#65
1!
0$
0%
11
04
05
1B
1H
0K
0L
b0 O
0P
0Q
b0 R
b0 S
b0 T
1V
1X
b0 Y
b11110000 Z
b10100011001000010000 [
b0 ^
b1 _
b10 `
b0 a
1b
b11110000 c
b10100011001000010000 d
0e
0f
b0 g
#70
0!
01
0B
0H
#75
1!
1)
b11110000 ,
b10100011001000010000 -
b0 .
11
1B
1C
b11110000 F
b10100011001000010000 G
1H
b0 O
1P
0Q
b0 R
b11110000 S
b10100011001000010000 T
1W
b1111 Y
b11110000 Z
b10100011001000010000 [
b0 ^
b10 _
b10 `
b0 a
1b
b11110000 c
b10100011001000010000 d
0e
0f
b0 g
b11111111111111111111111111111111 h
#80
0!
01
0B
0H
#85
1!
b1111 +
11
1B
b1111 E
1H
b0 O
1P
0Q
b1111 R
b11110000 S
b10100011001000010000 T
b1111 Y
b11110000 Z
b10100011001000010000 [
1\
b0 ^
b10 _
b0 `
b0 a
1b
b11110000 c
b10100011001000010000 d
1e
0f
b0 g
#90
0!
01
0B
0H
#95
1!
b0 .
11
1B
1H
b0 O
1P
0Q
b1111 R
b11110000 S
b10100011001000010000 T
0V
0W
0X
b0 Y
b0 Z
b0 [
0\
b0 ^
b0 _
b0 `
b0 a
1b
b11110000 c
b10100011001000010000 d
1e
0f
b0 g
b0 h
b1 k
b11110001 w
b0 x
b10100011001000010001 y
#100
0!
01
0B
0H
#105
1!
b0 #
1$
1%
b11110001 &
b10100011001000010001 '
0)
b0 +
b0 ,
b0 -
b0 .
11
14
15
b11110001 6
b10100011001000010001 7
1B
0C
b0 E
b0 F
b0 G
1H
1K
1L
b11110001 M
b10100011001000010001 N
0P
0Q
b0 R
b0 S
b0 T
b0 ^
b0 _
b1 `
b0 a
1b
b11110000 c
b10100011001000010000 d
0e
0f
b0 g
#110
0!
01
0B
0H
#115
1!
0$
0%
11
04
05
1B
1H
0K
0L
b0 O
0P
0Q
b0 R
b0 S
b0 T
1V
1X
b0 Y
b11110001 Z
b10100011001000010001 [
b0 ^
b1 _
b10 `
b0 a
1b
b11110001 c
b10100011001000010001 d
0e
0f
b0 g
#120
0!
01
0B
0H
#125
1!
1)
b11110001 ,
b10100011001000010001 -
b0 .
11
1B
1C
b11110001 F
b10100011001000010001 G
1H
b0 O
1P
0Q
b0 R
b11110001 S
b10100011001000010001 T
1W
b1111 Y
b11110001 Z
b10100011001000010001 [
b0 ^
b10 _
b10 `
b0 a
1b
b11110001 c
b10100011001000010001 d
0e
0f
b0 g
b11111111111111111111111111111111 h
#130
0!
01
0B
0H
#135
1!
b1111 +
11
1B
b1111 E
1H
b0 O
1P
0Q
b1111 R
b11110001 S
b10100011001000010001 T
b1111 Y
b11110001 Z
b10100011001000010001 [
1\
b0 ^
b10 _
b0 `
b0 a
1b
b11110001 c
b10100011001000010001 d
1e
0f
b0 g
#140
0!
01
0B
0H
#145
1!
b0 .
11
1B
1H
b0 O
1P
0Q
b1111 R
b11110001 S
b10100011001000010001 T
0V
0W
0X
b0 Y
b0 Z
b0 [
0\
b0 ^
b0 _
b0 `
b0 a
1b
b11110001 c
b10100011001000010001 d
1e
0f
b0 g
b0 h
b10 k
b11110010 w
b0 x
b10100011001000010010 y
#150
0!
01
0B
0H
#155
1!
b0 #
1$
1%
b11110010 &
b10100011001000010010 '
0)
b0 +
b0 ,
b0 -
b0 .
11
14
15
b11110010 6
b10100011001000010010 7
1B
0C
b0 E
b0 F
b0 G
1H
1K
1L
b11110010 M
b10100011001000010010 N
0P
0Q
b0 R
b0 S
b0 T
b0 ^
b0 _
b1 `
b0 a
1b
b11110001 c
b10100011001000010001 d
0e
0f
b0 g
#160
0!
01
0B
0H
#165
1!
0$
0%
11
04
05
1B
1H
0K
0L
b0 O
0P
0Q
b0 R
b0 S
b0 T
1V
1X
b0 Y
b11110010 Z
b10100011001000010010 [
b0 ^
b1 _
b10 `
b0 a
1b
b11110010 c
b10100011001000010010 d
0e
0f
b0 g
#170
0!
01
0B
0H
#175
1!
1)
b11110010 ,
b10100011001000010010 -
b0 .
11
1B
1C
b11110010 F
b10100011001000010010 G
1H
b0 O
1P
0Q
b0 R
b11110010 S
b10100011001000010010 T
1W
b1111 Y
b11110010 Z
b10100011001000010010 [
b0 ^
b10 _
b10 `
b0 a
1b
b11110010 c
b10100011001000010010 d
0e
0f
b0 g
b11111111111111111111111111111111 h
#180
0!
01
0B
0H
#185
1!
b1111 +
11
1B
b1111 E
1H
b0 O
1P
0Q
b1111 R
b11110010 S
b10100011001000010010 T
b1111 Y
b11110010 Z
b10100011001000010010 [
1\
b0 ^
b10 _
b0 `
b0 a
1b
b11110010 c
b10100011001000010010 d
1e
0f
b0 g
#190
0!
01
0B
0H
#195
1!
b0 .
11
1B
1H
b0 O
1P
0Q
b1111 R
b11110010 S
b10100011001000010010 T
0V
0W
0X
b0 Y
b0 Z
b0 [
0\
b0 ^
b0 _
b0 `
b0 a
1b
b11110010 c
b10100011001000010010 d
1e
0f
b0 g
b0 h
b11 k
b11110011 w
b0 x
b10100011001000010011 y
#200
0!
01
0B
0H
#205
1!
b0 #
1$
1%
b11110011 &
b10100011001000010011 '
0)
b0 +
b0 ,
b0 -
b0 .
11
14
15
b11110011 6
b10100011001000010011 7
1B
0C
b0 E
b0 F
b0 G
1H
1K
1L
b11110011 M
b10100011001000010011 N
0P
0Q
b0 R
b0 S
b0 T
b0 ^
b0 _
b1 `
b0 a
1b
b11110010 c
b10100011001000010010 d
0e
0f
b0 g
#210
0!
01
0B
0H
#215
1!
0$
0%
11
04
05
1B
1H
0K
0L
b0 O
0P
0Q
b0 R
b0 S
b0 T
1V
1X
b0 Y
b11110011 Z
b10100011001000010011 [
b0 ^
b1 _
b10 `
b0 a
1b
b11110011 c
b10100011001000010011 d
0e
0f
b0 g
#220
0!
01
0B
0H
#225
1!
1)
b11110011 ,
b10100011001000010011 -
b0 .
11
1B
1C
b11110011 F
b10100011001000010011 G
1H
b0 O
1P
0Q
b0 R
b11110011 S
b10100011001000010011 T
1W
b1111 Y
b11110011 Z
b10100011001000010011 [
b0 ^
b10 _
b10 `
b0 a
1b
b11110011 c
b10100011001000010011 d
0e
0f
b0 g
b11111111111111111111111111111111 h
#230
0!
01
0B
0H
#235
1!
b1111 +
11
1B
b1111 E
1H
b0 O
1P
0Q
b1111 R
b11110011 S
b10100011001000010011 T
b1111 Y
b11110011 Z
b10100011001000010011 [
1\
b0 ^
b10 _
b0 `
b0 a
1b
b11110011 c
b10100011001000010011 d
1e
0f
b0 g
#240
0!
01
0B
0H
#245
1!
b0 .
11
1B
1H
b0 O
1P
0Q
b1111 R
b11110011 S
b10100011001000010011 T
0V
0W
0X
b0 Y
b0 Z
b0 [
0\
b0 ^
b0 _
b0 `
b0 a
1b
b11110011 c
b10100011001000010011 d
1e
0f
b0 g
b0 h
b100 k
b11110100 w
b0 x
b10100011001000010100 y
#250
0!
01
0B
0H
#255
1!
b0 #
1$
1%
b11110100 &
b10100011001000010100 '
0)
b0 +
b0 ,
b0 -
b0 .
11
14
15
b11110100 6
b10100011001000010100 7
1B
0C
b0 E
b0 F
b0 G
1H
1K
1L
b11110100 M
b10100011001000010100 N
0P
0Q
b0 R
b0 S
b0 T
b0 ^
b0 _
b1 `
b0 a
1b
b11110011 c
b10100011001000010011 d
0e
0f
b0 g
#260
0!
01
0B
0H
#265
1!
0$
0%
11
04
05
1B
1H
0K
0L
b0 O
0P
0Q
b0 R
b0 S
b0 T
1V
1X
b0 Y
b11110100 Z
b10100011001000010100 [
b0 ^
b1 _
b10 `
b0 a
1b
b11110100 c
b10100011001000010100 d
0e
0f
b0 g
#270
0!
01
0B
0H
#275
1!
1)
b11110100 ,
b10100011001000010100 -
b0 .
11
1B
1C
b11110100 F
b10100011001000010100 G
1H
b0 O
1P
0Q
b0 R
b11110100 S
b10100011001000010100 T
1W
b1111 Y
b11110100 Z
b10100011001000010100 [
b0 ^
b10 _
b10 `
b0 a
1b
b11110100 c
b10100011001000010100 d
0e
0f
b0 g
b11111111111111111111111111111111 h
#280
0!
01
0B
0H
#285
1!
b1111 +
11
1B
b1111 E
1H
b0 O
1P
0Q
b1111 R
b11110100 S
b10100011001000010100 T
b1111 Y
b11110100 Z
b10100011001000010100 [
1\
b0 ^
b10 _
b0 `
b0 a
1b
b11110100 c
b10100011001000010100 d
1e
0f
b0 g
#290
0!
01
0B
0H
#295
1!
b0 .
11
1B
1H
b0 O
1P
0Q
b1111 R
b11110100 S
b10100011001000010100 T
0V
0W
0X
b0 Y
b0 Z
b0 [
0\
b0 ^
b0 _
b0 `
b0 a
1b
b11110100 c
b10100011001000010100 d
1e
0f
b0 g
b0 h
b101 k
b11110101 w
b0 x
b10100011001000010101 y
#300
0!
01
0B
0H
#305
1!
b0 #
1$
1%
b11110101 &
b10100011001000010101 '
0)
b0 +
b0 ,
b0 -
b0 .
11
14
15
b11110101 6
b10100011001000010101 7
1B
0C
b0 E
b0 F
b0 G
1H
1K
1L
b11110101 M
b10100011001000010101 N
0P
0Q
b0 R
b0 S
b0 T
b0 ^
b0 _
b1 `
b0 a
1b
b11110100 c
b10100011001000010100 d
0e
0f
b0 g
#310
0!
01
0B
0H
#315
1!
0$
0%
11
04
05
1B
1H
0K
0L
b0 O
0P
0Q
b0 R
b0 S
b0 T
1V
1X
b0 Y
b11110101 Z
b10100011001000010101 [
b0 ^
b1 _
b10 `
b0 a
1b
b11110101 c
b10100011001000010101 d
0e
0f
b0 g
#320
0!
01
0B
0H
#325
1!
1)
b11110101 ,
b10100011001000010101 -
b0 .
11
1B
1C
b11110101 F
b10100011001000010101 G
1H
b0 O
1P
0Q
b0 R
b11110101 S
b10100011001000010101 T
1W
b1111 Y
b11110101 Z
b10100011001000010101 [
b0 ^
b10 _
b10 `
b0 a
1b
b11110101 c
b10100011001000010101 d
0e
0f
b0 g
b11111111111111111111111111111111 h
#330
0!
01
0B
0H
#335
1!
b1111 +
11
1B
b1111 E
1H
b0 O
1P
0Q
b1111 R
b11110101 S
b10100011001000010101 T
b1111 Y
b11110101 Z
b10100011001000010101 [
1\
b0 ^
b10 _
b0 `
b0 a
1b
b11110101 c
b10100011001000010101 d
1e
0f
b0 g
#340
0!
01
0B
0H
