apb2apb_bridge/run_viv/apb_bridge_tb.vcd
$date
   Sun Dec 15 12:51:13 2019
$end
$version
  2019.1
$end
$timescale
  1ns
$end
$scope module apb_bridge_tb $end
$var reg 1 ! clk $end
$var reg 1 " rst_n $end
$var reg 2 # dsel [1:0] $end
$var reg 1 $ trnsfr $end
$var reg 1 % wr $end
$var reg 32 & address [31:0] $end
$var reg 32 ' data_in [31:0] $end
$var reg 32 ( data_out [31:0] $end
$var reg 1 ) mem_wr $end
$var reg 1 * mem_rd $end
$var reg 4 + mem_be [3:0] $end
$var reg 32 , mem_address [31:0] $end
$var reg 32 - mem_data_in [31:0] $end
$var reg 32 . mem_data_out [31:0] $end
$var reg 32 / write_data_in [31:0] $end
$var reg 32 0 write_addr_in [31:0] $end
$var reg 32 1 read_data_out [31:0] $end
$var reg 32 2 read_addr_in [31:0] $end
$scope module test_bus $end
$var wire 1 3 clk $end
$var wire 1 4 rst_n $end
$var wire 2 5 dsel [1:0] $end
$var wire 1 6 trnsfr $end
$var wire 1 7 wr $end
$var wire 32 8 address [31:0] $end
$var wire 32 9 data_in [31:0] $end
$var reg 32 ( data_out [31:0] $end
$var reg 1 ) mem_wr $end
$var reg 1 * mem_rd $end
$var reg 4 + mem_be [3:0] $end
$var reg 32 , mem_address [31:0] $end
$var reg 32 - mem_data_in [31:0] $end
$var wire 32 : mem_data_out [31:0] $end
$var reg 1 ; sel $end
$var reg 1 < enable $end
$var reg 1 = write $end
$var reg 4 > strb [3:0] $end
$var reg 32 ? addr [31:0] $end
$var reg 32 @ wdata [31:0] $end
$var reg 1 A ready $end
$var reg 1 B slverr $end
$var reg 32 C rdata [31:0] $end
$scope module bridge $end
$var wire 1 3 clk $end
$var wire 1 4 rst_n $end
$var wire 2 5 dsel [1:0] $end
$var wire 1 6 trnsfr $end
$var wire 1 7 wr $end
$var wire 32 8 address [31:0] $end
$var wire 32 9 data_in [31:0] $end
$var reg 32 ( data_out [31:0] $end
$var reg 1 ) mem_wr $end
$var reg 1 * mem_rd $end
$var reg 4 + mem_be [3:0] $end
$var reg 32 , mem_address [31:0] $end
$var reg 32 - mem_data_in [31:0] $end
$var wire 32 : mem_data_out [31:0] $end
$upscope $end
$scope module master $end
$var wire 1 3 clk $end
$var wire 1 4 rst_n $end
$var wire 2 5 dsel [1:0] $end
$var wire 1 6 trnsfr $end
$var wire 1 7 wr $end
$var wire 32 8 address [31:0] $end
$var wire 32 9 data_in [31:0] $end
$var reg 32 ( data_out [31:0] $end
$var reg 1 ; sel $end
$var reg 1 < enable $end
$var reg 1 = write $end
$var reg 4 > strb [3:0] $end
$var reg 32 ? addr [31:0] $end
$var reg 32 @ wdata [31:0] $end
$var reg 1 A ready $end
$var reg 1 B slverr $end
$var reg 32 C rdata [31:0] $end
$upscope $end
$scope module slave $end
$var wire 1 3 clk $end
$var wire 1 4 rst_n $end
$var wire 1 6 trnsfr $end
$var reg 1 ) mem_wr $end
$var reg 1 * mem_rd $end
$var reg 4 + mem_be [3:0] $end
$var reg 32 , mem_address [31:0] $end
$var reg 32 - mem_data_in [31:0] $end
$var wire 32 : mem_data_out [31:0] $end
$var reg 1 ; sel $end
$var reg 1 < enable $end
$var reg 1 = write $end
$var reg 4 > strb [3:0] $end
$var reg 32 ? addr [31:0] $end
$var reg 32 @ wdata [31:0] $end
$var reg 1 A ready $end
$var reg 1 B slverr $end
$var reg 32 C rdata [31:0] $end
$upscope $end
$upscope $end
$scope module mem_bus $end
$var wire 1 D clk $end
$var wire 1 E mem_wr $end
$var wire 1 F mem_rd $end
$var wire 4 G mem_be [3:0] $end
$var wire 32 H mem_address [31:0] $end
$var wire 32 I mem_data_in [31:0] $end
$var reg 32 . mem_data_out [31:0] $end
$scope module mem $end
$var wire 1 D clk $end
$var wire 1 E mem_wr $end
$var wire 1 F mem_rd $end
$var wire 4 G mem_be [3:0] $end
$var wire 32 H mem_address [31:0] $end
$var wire 32 I mem_data_in [31:0] $end
$var reg 32 . mem_data_out [31:0] $end
$upscope $end
$upscope $end
$scope module apb2apb $end
$scope module ibus $end
$var wire 1 3 clk $end
$var wire 1 4 rst_n $end
$var wire 2 5 dsel [1:0] $end
$var wire 1 6 trnsfr $end
$var wire 1 7 wr $end
$var wire 32 8 address [31:0] $end
$var wire 32 9 data_in [31:0] $end
$var reg 32 ( data_out [31:0] $end
$var reg 1 ) mem_wr $end
$var reg 1 * mem_rd $end
$var reg 4 + mem_be [3:0] $end
$var reg 32 , mem_address [31:0] $end
$var reg 32 - mem_data_in [31:0] $end
$var wire 32 : mem_data_out [31:0] $end
$var reg 1 ; sel $end
$var reg 1 < enable $end
$var reg 1 = write $end
$var reg 4 > strb [3:0] $end
$var reg 32 ? addr [31:0] $end
$var reg 32 @ wdata [31:0] $end
$var reg 1 A ready $end
$var reg 1 B slverr $end
$var reg 32 C rdata [31:0] $end
$scope module bridge $end
$var wire 1 3 clk $end
$var wire 1 4 rst_n $end
$var wire 2 5 dsel [1:0] $end
$var wire 1 6 trnsfr $end
$var wire 1 7 wr $end
$var wire 32 8 address [31:0] $end
$var wire 32 9 data_in [31:0] $end
$var reg 32 ( data_out [31:0] $end
$var reg 1 ) mem_wr $end
$var reg 1 * mem_rd $end
$var reg 4 + mem_be [3:0] $end
$var reg 32 , mem_address [31:0] $end
$var reg 32 - mem_data_in [31:0] $end
$var wire 32 : mem_data_out [31:0] $end
$upscope $end
$scope module master $end
$var wire 1 3 clk $end
$var wire 1 4 rst_n $end
$var wire 2 5 dsel [1:0] $end
$var wire 1 6 trnsfr $end
$var wire 1 7 wr $end
$var wire 32 8 address [31:0] $end
$var wire 32 9 data_in [31:0] $end
$var reg 32 ( data_out [31:0] $end
$var reg 1 ; sel $end
$var reg 1 < enable $end
$var reg 1 = write $end
$var reg 4 > strb [3:0] $end
$var reg 32 ? addr [31:0] $end
$var reg 32 @ wdata [31:0] $end
$var reg 1 A ready $end
$var reg 1 B slverr $end
$var reg 32 C rdata [31:0] $end
$upscope $end
$scope module slave $end
$var wire 1 3 clk $end
$var wire 1 4 rst_n $end
$var wire 1 6 trnsfr $end
$var reg 1 ) mem_wr $end
$var reg 1 * mem_rd $end
$var reg 4 + mem_be [3:0] $end
$var reg 32 , mem_address [31:0] $end
$var reg 32 - mem_data_in [31:0] $end
$var wire 32 : mem_data_out [31:0] $end
$var reg 1 ; sel $end
$var reg 1 < enable $end
$var reg 1 = write $end
$var reg 4 > strb [3:0] $end
$var reg 32 ? addr [31:0] $end
$var reg 32 @ wdata [31:0] $end
$var reg 1 A ready $end
$var reg 1 B slverr $end
$var reg 32 C rdata [31:0] $end
$upscope $end
$upscope $end
$scope module pbus $end
$var wire 1 J clk $end
$var wire 1 K rst_n $end
$var wire 2 L dsel [1:0] $end
$var wire 1 M trnsfr $end
$var wire 1 N wr $end
$var wire 32 O address [31:0] $end
$var wire 32 P data_in [31:0] $end
$var reg 32 Q data_out [31:0] $end
$var reg 1 R mem_wr $end
$var reg 1 S mem_rd $end
$var reg 4 T mem_be [3:0] $end
$var reg 32 U mem_address [31:0] $end
$var reg 32 V mem_data_in [31:0] $end
$var wire 32 W mem_data_out [31:0] $end
$var reg 1 X sel $end
$var reg 1 Y enable $end
$var reg 1 Z write $end
$var reg 4 [ strb [3:0] $end
$var reg 32 \ addr [31:0] $end
$var reg 32 ] wdata [31:0] $end
$var reg 1 ^ ready $end
$var reg 1 _ slverr $end
$var reg 32 ` rdata [31:0] $end
$scope module bridge $end
$var wire 1 J clk $end
$var wire 1 K rst_n $end
$var wire 2 L dsel [1:0] $end
$var wire 1 M trnsfr $end
$var wire 1 N wr $end
$var wire 32 O address [31:0] $end
$var wire 32 P data_in [31:0] $end
$var reg 32 Q data_out [31:0] $end
$var reg 1 R mem_wr $end
$var reg 1 S mem_rd $end
$var reg 4 T mem_be [3:0] $end
$var reg 32 U mem_address [31:0] $end
$var reg 32 V mem_data_in [31:0] $end
$var wire 32 W mem_data_out [31:0] $end
$upscope $end
$scope module master $end
$var wire 1 J clk $end
$var wire 1 K rst_n $end
$var wire 2 L dsel [1:0] $end
$var wire 1 M trnsfr $end
$var wire 1 N wr $end
$var wire 32 O address [31:0] $end
$var wire 32 P data_in [31:0] $end
$var reg 32 Q data_out [31:0] $end
$var reg 1 X sel $end
$var reg 1 Y enable $end
$var reg 1 Z write $end
$var reg 4 [ strb [3:0] $end
$var reg 32 \ addr [31:0] $end
$var reg 32 ] wdata [31:0] $end
$var reg 1 ^ ready $end
$var reg 1 _ slverr $end
$var reg 32 ` rdata [31:0] $end
$upscope $end
$scope module slave $end
$var wire 1 J clk $end
$var wire 1 K rst_n $end
$var wire 1 M trnsfr $end
$var reg 1 R mem_wr $end
$var reg 1 S mem_rd $end
$var reg 4 T mem_be [3:0] $end
$var reg 32 U mem_address [31:0] $end
$var reg 32 V mem_data_in [31:0] $end
$var wire 32 W mem_data_out [31:0] $end
$var reg 1 X sel $end
$var reg 1 Y enable $end
$var reg 1 Z write $end
$var reg 4 [ strb [3:0] $end
$var reg 32 \ addr [31:0] $end
$var reg 32 ] wdata [31:0] $end
$var reg 1 ^ ready $end
$var reg 1 _ slverr $end
$var reg 32 ` rdata [31:0] $end
$upscope $end
$upscope $end
$scope module pmaster $end
$var reg 2 a m_state [1:0] $end
$var reg 2 b m_nxt_state [1:0] $end
$var reg 2 c strb_reg [1:0] $end
$var reg 1 d wr_reg $end
$var reg 32 e address_reg [31:0] $end
$var reg 32 f data_in_reg [31:0] $end
$scope module mbus $end
$var wire 1 J clk $end
$var wire 1 K rst_n $end
$var wire 2 L dsel [1:0] $end
$var wire 1 M trnsfr $end
$var wire 1 N wr $end
$var wire 32 O address [31:0] $end
$var wire 32 P data_in [31:0] $end
$var reg 32 Q data_out [31:0] $end
$var reg 1 R mem_wr $end
$var reg 1 S mem_rd $end
$var reg 4 T mem_be [3:0] $end
$var reg 32 U mem_address [31:0] $end
$var reg 32 V mem_data_in [31:0] $end
$var wire 32 W mem_data_out [31:0] $end
$var reg 1 X sel $end
$var reg 1 Y enable $end
$var reg 1 Z write $end
$var reg 4 [ strb [3:0] $end
$var reg 32 \ addr [31:0] $end
$var reg 32 ] wdata [31:0] $end
$var reg 1 ^ ready $end
$var reg 1 _ slverr $end
$var reg 32 ` rdata [31:0] $end
$scope module bridge $end
$var wire 1 J clk $end
$var wire 1 K rst_n $end
$var wire 2 L dsel [1:0] $end
$var wire 1 M trnsfr $end
$var wire 1 N wr $end
$var wire 32 O address [31:0] $end
$var wire 32 P data_in [31:0] $end
$var reg 32 Q data_out [31:0] $end
$var reg 1 R mem_wr $end
$var reg 1 S mem_rd $end
$var reg 4 T mem_be [3:0] $end
$var reg 32 U mem_address [31:0] $end
$var reg 32 V mem_data_in [31:0] $end
$var wire 32 W mem_data_out [31:0] $end
$upscope $end
$scope module master $end
$var wire 1 J clk $end
$var wire 1 K rst_n $end
$var wire 2 L dsel [1:0] $end
$var wire 1 M trnsfr $end
$var wire 1 N wr $end
$var wire 32 O address [31:0] $end
$var wire 32 P data_in [31:0] $end
$var reg 32 Q data_out [31:0] $end
$var reg 1 X sel $end
$var reg 1 Y enable $end
$var reg 1 Z write $end
$var reg 4 [ strb [3:0] $end
$var reg 32 \ addr [31:0] $end
$var reg 32 ] wdata [31:0] $end
$var reg 1 ^ ready $end
$var reg 1 _ slverr $end
$var reg 32 ` rdata [31:0] $end
$upscope $end
$scope module slave $end
$var wire 1 J clk $end
$var wire 1 K rst_n $end
$var wire 1 M trnsfr $end
$var reg 1 R mem_wr $end
$var reg 1 S mem_rd $end
$var reg 4 T mem_be [3:0] $end
$var reg 32 U mem_address [31:0] $end
$var reg 32 V mem_data_in [31:0] $end
$var wire 32 W mem_data_out [31:0] $end
$var reg 1 X sel $end
$var reg 1 Y enable $end
$var reg 1 Z write $end
$var reg 4 [ strb [3:0] $end
$var reg 32 \ addr [31:0] $end
$var reg 32 ] wdata [31:0] $end
$var reg 1 ^ ready $end
$var reg 1 _ slverr $end
$var reg 32 ` rdata [31:0] $end
$upscope $end
$upscope $end
$upscope $end
$scope module pslave $end
$var reg 1 g ready_reg $end
$var reg 1 h slverr_reg $end
$var reg 32 i rdata_reg [31:0] $end
$var reg 32 j rdata_filt_reg [31:0] $end
$scope module sbus $end
$var wire 1 J clk $end
$var wire 1 K rst_n $end
$var wire 2 L dsel [1:0] $end
$var wire 1 M trnsfr $end
$var wire 1 N wr $end
$var wire 32 O address [31:0] $end
$var wire 32 P data_in [31:0] $end
$var reg 32 Q data_out [31:0] $end
$var reg 1 R mem_wr $end
$var reg 1 S mem_rd $end
$var reg 4 T mem_be [3:0] $end
$var reg 32 U mem_address [31:0] $end
$var reg 32 V mem_data_in [31:0] $end
$var wire 32 W mem_data_out [31:0] $end
$var reg 1 X sel $end
$var reg 1 Y enable $end
$var reg 1 Z write $end
$var reg 4 [ strb [3:0] $end
$var reg 32 \ addr [31:0] $end
$var reg 32 ] wdata [31:0] $end
$var reg 1 ^ ready $end
$var reg 1 _ slverr $end
$var reg 32 ` rdata [31:0] $end
$scope module bridge $end
$var wire 1 J clk $end
$var wire 1 K rst_n $end
$var wire 2 L dsel [1:0] $end
$var wire 1 M trnsfr $end
$var wire 1 N wr $end
$var wire 32 O address [31:0] $end
$var wire 32 P data_in [31:0] $end
$var reg 32 Q data_out [31:0] $end
$var reg 1 R mem_wr $end
$var reg 1 S mem_rd $end
$var reg 4 T mem_be [3:0] $end
$var reg 32 U mem_address [31:0] $end
$var reg 32 V mem_data_in [31:0] $end
$var wire 32 W mem_data_out [31:0] $end
$upscope $end
$scope module master $end
$var wire 1 J clk $end
$var wire 1 K rst_n $end
$var wire 2 L dsel [1:0] $end
$var wire 1 M trnsfr $end
$var wire 1 N wr $end
$var wire 32 O address [31:0] $end
$var wire 32 P data_in [31:0] $end
$var reg 32 Q data_out [31:0] $end
$var reg 1 X sel $end
$var reg 1 Y enable $end
$var reg 1 Z write $end
$var reg 4 [ strb [3:0] $end
$var reg 32 \ addr [31:0] $end
$var reg 32 ] wdata [31:0] $end
$var reg 1 ^ ready $end
$var reg 1 _ slverr $end
$var reg 32 ` rdata [31:0] $end
$upscope $end
$scope module slave $end
$var wire 1 J clk $end
$var wire 1 K rst_n $end
$var wire 1 M trnsfr $end
$var reg 1 R mem_wr $end
$var reg 1 S mem_rd $end
$var reg 4 T mem_be [3:0] $end
$var reg 32 U mem_address [31:0] $end
$var reg 32 V mem_data_in [31:0] $end
$var wire 32 W mem_data_out [31:0] $end
$var reg 1 X sel $end
$var reg 1 Y enable $end
$var reg 1 Z write $end
$var reg 4 [ strb [3:0] $end
$var reg 32 \ addr [31:0] $end
$var reg 32 ] wdata [31:0] $end
$var reg 1 ^ ready $end
$var reg 1 _ slverr $end
$var reg 32 ` rdata [31:0] $end
$upscope $end
$upscope $end
$upscope $end
$upscope $end
$scope module memory $end
$scope module membus $end
$var wire 1 D clk $end
$var wire 1 E mem_wr $end
$var wire 1 F mem_rd $end
$var wire 4 G mem_be [3:0] $end
$var wire 32 H mem_address [31:0] $end
$var wire 32 I mem_data_in [31:0] $end
$var reg 32 . mem_data_out [31:0] $end
$scope module mem $end
$var wire 1 D clk $end
$var wire 1 E mem_wr $end
$var wire 1 F mem_rd $end
$var wire 4 G mem_be [3:0] $end
$var wire 32 H mem_address [31:0] $end
$var wire 32 I mem_data_in [31:0] $end
$var reg 32 . mem_data_out [31:0] $end
$upscope $end
$upscope $end
$scope begin Block18_8 $end
$var reg 32 k i $end
$scope begin Block20_9 $end
$var reg 32 l j $end
$upscope $end
$upscope $end
$upscope $end
$scope begin Block75_21 $end
$var reg 32 m i $end
$upscope $end
$scope begin Block80_22 $end
$var reg 32 n i $end
$upscope $end
$scope begin Block87_23 $end
$var reg 32 o i $end
$upscope $end
$scope begin Block92_24 $end
$var reg 32 p i $end
$upscope $end
$scope begin Block99_25 $end
$var reg 32 q i $end
$upscope $end
$scope begin Block104_26 $end
$var reg 32 r i $end
$upscope $end
$scope begin Block112_27 $end
$var reg 32 s i $end
$upscope $end
$scope begin Block118_28 $end
$var reg 32 t i $end
$upscope $end
$scope begin Block124_29 $end
$var reg 32 u i $end
$upscope $end
$scope begin Block155_31 $end
$var reg 32 v wmemtrnsf_fd $end
$scope begin Block155_32 $end
$var reg 32 w i2 $end
$scope begin Block155_33 $end
$var reg 32 x i1 $end
$upscope $end
$upscope $end
$upscope $end
$scope task async_reset $end
$upscope $end
$scope task single_write $end
$var reg 32 y address_sw [31:0] $end
$var reg 2 z dsel_sw [1:0] $end
$var reg 32 { data_sw [31:0] $end
$upscope $end
$scope task single_read $end
$var reg 32 | address_sr [31:0] $end
$var reg 2 } dsel_sr [1:0] $end
$upscope $end
$scope task burst_write $end
$var reg 32 ~ address_bw [31:0] $end
$var reg 2 !! dsel_bw [1:0] $end
$var reg 32 "! data_bw [31:0] $end
$var reg 32 #! count $end
$scope begin Block254_41 $end
$var reg 32 $! i $end
$upscope $end
$scope begin Block263_43 $end
$var reg 32 %! i $end
$upscope $end
$scope begin Block276_45 $end
$var reg 32 &! i $end
$upscope $end
$upscope $end
$scope task burst_read $end
$var reg 32 '! address_sr [31:0] $end
$var reg 2 (! dsel_br [1:0] $end
$var reg 32 )! count $end
$scope begin Block303_47 $end
$var reg 32 *! i $end
$upscope $end
$scope begin Block311_49 $end
$var reg 32 +! i $end
$upscope $end
$scope begin Block324_51 $end
$var reg 32 ,! i $end
$upscope $end
$upscope $end
$upscope $end
$enddefinitions $end
#0
$dumpvars
0!
b0 !!
0"
b0 "!
b0 #
b0 #!
0$
b0 $!
0%
b0 %!
b0 &
b0 &!
b0 '
b0 '!
b0 (
b0 (!
0)
b0 )!
0*
b0 *!
b0 +
b0 +!
b0 ,
b0 ,!
b0 -
b0 .
bx /
bx 0
bx 1
bx 2
03
04
b0 5
06
07
b0 8
b0 9
b0 :
x;
x<
x=
bx >
bx ?
bx @
xA
xB
bx C
0D
0E
0F
b0 G
b0 H
b0 I
0J
0K
b0 L
0M
0N
b0 O
b0 P
b0 Q
0R
0S
b0 T
b0 U
b0 V
b0 W
0X
0Y
0Z
b0 [
b0 \
b0 ]
0^
0_
b0 `
b0 a
b0 b
b0 c
0d
b0 e
b0 f
0g
0h
b0 i
b0 j
b100 k
b100000000 l
b0 m
b0 n
b0 o
b0 p
b0 q
b0 r
b0 s
b0 t
b0 u
b0 v
b0 w
b0 x
b0 y
b0 z
b0 {
b0 |
b0 }
b0 ~
$end
#5
1!
13
1D
1J
0R
0S
b0 T
b0 U
b0 V
b0 a
b0 c
0d
b0 e
b0 f
0g
0h
b0 i
#10
0!
03
0D
0J
#15
1!
13
1D
1J
0R
0S
b0 T
b0 U
b0 V
b0 a
b0 c
0d
b0 e
b0 f
0g
0h
b0 i
#20
0!
03
0D
0J
#25
1!
13
1D
1J
0R
0S
b0 T
b0 U
b0 V
b0 a
b0 c
0d
b0 e
b0 f
0g
0h
b0 i
#30
0!
03
0D
0J
#35
1!
13
1D
1J
0R
0S
b0 T
b0 U
b0 V
b0 a
b0 c
0d
b0 e
b0 f
0g
0h
b0 i
#40
0!
03
0D
0J
#45
1!
1"
13
14
1D
1J
1K
0R
0S
b0 T
b0 U
b0 V
b0 a
b0 c
0d
b0 e
b0 f
0g
0h
b0 i
b0 m
b11110000 y
b0 z
b10100011001000010000 {
#50
0!
03
0D
0J
#55
1!
b0 #
1$
1%
b11110000 &
b10100011001000010000 '
13
16
17
b11110000 8
b10100011001000010000 9
1D
1J
1M
1N
b11110000 O
b10100011001000010000 P
0R
0S
b0 T
b0 U
b0 V
b0 a
b1 b
b0 c
0d
b0 e
b0 f
0g
0h
b0 i
#60
0!
03
0D
0J
#65
1!
0$
0%
13
06
07
1D
1J
0M
0N
b0 Q
0R
0S
b0 T
b0 U
b0 V
1X
1Z
b0 [
b11110000 \
b10100011001000010000 ]
b0 `
b1 a
b10 b
b0 c
1d
b11110000 e
b10100011001000010000 f
0g
0h
b0 i
#70
0!
03
0D
0J
#75
1!
1)
b11110000 ,
b10100011001000010000 -
b0 .
13
1D
1E
b11110000 H
b10100011001000010000 I
1J
b0 Q
1R
0S
b0 T
b11110000 U
b10100011001000010000 V
1Y
b1111 [
b11110000 \
b10100011001000010000 ]
b0 `
b10 a
b10 b
b0 c
1d
b11110000 e
b10100011001000010000 f
0g
0h
b0 i
b11111111111111111111111111111111 j
#80
0!
03
0D
0J
#85
1!
b1111 +
13
1D
b1111 G
1J
b0 Q
1R
0S
b1111 T
b11110000 U
b10100011001000010000 V
b1111 [
b11110000 \
b10100011001000010000 ]
1^
b0 `
b10 a
b0 b
b0 c
1d
b11110000 e
b10100011001000010000 f
1g
0h
b0 i
#90
0!
b10100011001000010000 /
b11110000 0
03
0D
0J
#95
1!
b0 .
13
1D
1J
b0 Q
1R
0S
b1111 T
b11110000 U
b10100011001000010000 V
0X
0Y
0Z
b0 [
b0 \
b0 ]
0^
b0 `
b0 a
b0 b
b0 c
1d
b11110000 e
b10100011001000010000 f
1g
0h
b0 i
b0 j
b1 m
b11110001 y
b0 z
b10100011001000010001 {
#100
0!
03
0D
0J
#105
1!
b0 #
1$
1%
b11110001 &
b10100011001000010001 '
0)
b0 +
b0 ,
b0 -
b0 .
13
16
17
b11110001 8
b10100011001000010001 9
1D
0E
b0 G
b0 H
b0 I
1J
1M
1N
b11110001 O
b10100011001000010001 P
0R
0S
b0 T
b0 U
b0 V
b0 `
b0 a
b1 b
b0 c
1d
b11110000 e
b10100011001000010000 f
0g
0h
b0 i
#110
0!
03
0D
0J
#115
1!
0$
0%
13
06
07
1D
1J
0M
0N
b0 Q
0R
0S
b0 T
b0 U
b0 V
1X
1Z
b0 [
b11110001 \
b10100011001000010001 ]
b0 `
b1 a
b10 b
b0 c
1d
b11110001 e
b10100011001000010001 f
0g
0h
b0 i
#120
0!
03
0D
0J
#125
1!
1)
b11110001 ,
b10100011001000010001 -
b0 .
13
1D
1E
b11110001 H
b10100011001000010001 I
1J
b0 Q
1R
0S
b0 T
b11110001 U
b10100011001000010001 V
1Y
b1111 [
b11110001 \
b10100011001000010001 ]
b0 `
b10 a
b10 b
b0 c
1d
b11110001 e
b10100011001000010001 f
0g
0h
b0 i
b11111111111111111111111111111111 j
#130
0!
03
0D
0J
#135
1!
b1111 +
13
1D
b1111 G
1J
b0 Q
1R
0S
b1111 T
b11110001 U
b10100011001000010001 V
b1111 [
b11110001 \
b10100011001000010001 ]
1^
b0 `
b10 a
b0 b
b0 c
1d
b11110001 e
b10100011001000010001 f
1g
0h
b0 i
#140
0!
b10100011001000010001 /
b11110001 0
03
0D
0J
#145
1!
b0 .
13
1D
1J
b0 Q
1R
0S
b1111 T
b11110001 U
b10100011001000010001 V
0X
0Y
0Z
b0 [
b0 \
b0 ]
0^
b0 `
b0 a
b0 b
b0 c
1d
b11110001 e
b10100011001000010001 f
1g
0h
b0 i
b0 j
b10 m
b11110010 y
b0 z
b10100011001000010010 {
#150
0!
03
0D
0J
#155
1!
b0 #
1$
1%
b11110010 &
b10100011001000010010 '
0)
b0 +
b0 ,
b0 -
b0 .
13
16
17
b11110010 8
b10100011001000010010 9
1D
0E
b0 G
b0 H
b0 I
1J
1M
1N
b11110010 O
b10100011001000010010 P
0R
0S
b0 T
b0 U
b0 V
b0 `
b0 a
b1 b
b0 c
1d
b11110001 e
b10100011001000010001 f
0g
0h
b0 i
#160
0!
03
0D
0J
#165
1!
0$
0%
13
06
07
1D
1J
0M
0N
b0 Q
0R
0S
b0 T
b0 U
b0 V
1X
1Z
b0 [
b11110010 \
b10100011001000010010 ]
b0 `
b1 a
b10 b
b0 c
1d
b11110010 e
b10100011001000010010 f
0g
0h
b0 i
#170
0!
03
0D
0J
#175
1!
1)
b11110010 ,
b10100011001000010010 -
b0 .
13
1D
1E
b11110010 H
b10100011001000010010 I
1J
b0 Q
1R
0S
b0 T
b11110010 U
b10100011001000010010 V
1Y
b1111 [
b11110010 \
b10100011001000010010 ]
b0 `
b10 a
b10 b
b0 c
1d
b11110010 e
b10100011001000010010 f
0g
0h
b0 i
b11111111111111111111111111111111 j
#180
0!
03
0D
0J
#185
1!
b1111 +
13
1D
b1111 G
1J
b0 Q
1R
0S
b1111 T
b11110010 U
b10100011001000010010 V
b1111 [
b11110010 \
b10100011001000010010 ]
1^
b0 `
b10 a
b0 b
b0 c
1d
b11110010 e
b10100011001000010010 f
1g
0h
b0 i
#190
0!
b10100011001000010010 /
b11110010 0
03
0D
0J
#195
1!
b0 .
13
1D
1J
b0 Q
1R
0S
b1111 T
b11110010 U
b10100011001000010010 V
0X
0Y
0Z
b0 [
b0 \
b0 ]
0^
b0 `
b0 a
b0 b
b0 c
1d
b11110010 e
b10100011001000010010 f
1g
0h
b0 i
b0 j
b11 m
b11110011 y
b0 z
b10100011001000010011 {
#200
0!
03
0D
0J
#205
1!
b0 #
1$
1%
b11110011 &
b10100011001000010011 '
0)
b0 +
b0 ,
b0 -
b0 .
13
16
17
b11110011 8
b10100011001000010011 9
1D
0E
b0 G
b0 H
b0 I
1J
1M
1N
b11110011 O
b10100011001000010011 P
0R
0S
b0 T
b0 U
b0 V
b0 `
b0 a
b1 b
b0 c
1d
b11110010 e
b10100011001000010010 f
0g
0h
b0 i
#210
0!
03
0D
0J
#215
1!
0$
0%
13
06
07
1D
1J
0M
0N
b0 Q
0R
0S
b0 T
b0 U
b0 V
1X
1Z
b0 [
b11110011 \
b10100011001000010011 ]
b0 `
b1 a
b10 b
b0 c
1d
b11110011 e
b10100011001000010011 f
0g
0h
b0 i
#220
0!
03
0D
0J
#225
1!
1)
b11110011 ,
b10100011001000010011 -
b0 .
13
1D
1E
b11110011 H
b10100011001000010011 I
1J
b0 Q
1R
0S
b0 T
b11110011 U
b10100011001000010011 V
1Y
b1111 [
b11110011 \
b10100011001000010011 ]
b0 `
b10 a
b10 b
b0 c
1d
b11110011 e
b10100011001000010011 f
0g
0h
b0 i
b11111111111111111111111111111111 j
#230
0!
03
0D
0J
#235
1!
b1111 +
13
1D
b1111 G
1J
b0 Q
1R
0S
b1111 T
b11110011 U
b10100011001000010011 V
b1111 [
b11110011 \
b10100011001000010011 ]
1^
b0 `
b10 a
b0 b
b0 c
1d
b11110011 e
b10100011001000010011 f
1g
0h
b0 i
#240
0!
b10100011001000010011 /
b11110011 0
03
0D
0J
#245
1!
b0 .
13
1D
1J
b0 Q
1R
0S
b1111 T
b11110011 U
b10100011001000010011 V
0X
0Y
0Z
b0 [
b0 \
b0 ]
0^
b0 `
b0 a
b0 b
b0 c
1d
b11110011 e
b10100011001000010011 f
1g
0h
b0 i
b0 j
b100 m
b11110100 y
b0 z
b10100011001000010100 {
#250
0!
03
0D
0J
#255
1!
b0 #
1$
1%
b11110100 &
b10100011001000010100 '
0)
b0 +
b0 ,
b0 -
b0 .
13
16
17
b11110100 8
b10100011001000010100 9
1D
0E
b0 G
b0 H
b0 I
1J
1M
1N
b11110100 O
b10100011001000010100 P
0R
0S
b0 T
b0 U
b0 V
b0 `
b0 a
b1 b
b0 c
1d
b11110011 e
b10100011001000010011 f
0g
0h
b0 i
#260
0!
03
0D
0J
#265
1!
0$
0%
13
06
07
1D
1J
0M
0N
b0 Q
0R
0S
b0 T
b0 U
b0 V
1X
1Z
b0 [
b11110100 \
b10100011001000010100 ]
b0 `
b1 a
b10 b
b0 c
1d
b11110100 e
b10100011001000010100 f
0g
0h
b0 i
#270
0!
03
0D
0J
#275
1!
1)
b11110100 ,
b10100011001000010100 -
b0 .
13
1D
1E
b11110100 H
b10100011001000010100 I
1J
b0 Q
1R
0S
b0 T
b11110100 U
b10100011001000010100 V
1Y
b1111 [
b11110100 \
b10100011001000010100 ]
b0 `
b10 a
b10 b
b0 c
1d
b11110100 e
b10100011001000010100 f
0g
0h
b0 i
b11111111111111111111111111111111 j
#280
0!
03
0D
0J
#285
1!
b1111 +
13
1D
b1111 G
1J
b0 Q
1R
0S
b1111 T
b11110100 U
b10100011001000010100 V
b1111 [
b11110100 \
b10100011001000010100 ]
1^
b0 `
b10 a
b0 b
b0 c
1d
b11110100 e
b10100011001000010100 f
1g
0h
b0 i
#290
0!
b10100011001000010100 /
b11110100 0
03
0D
0J
#295
1!
b0 .
13
1D
1J
b0 Q
1R
0S
b1111 T
b11110100 U
b10100011001000010100 V
0X
0Y
0Z
b0 [
b0 \
b0 ]
0^
b0 `
b0 a
b0 b
b0 c
1d
b11110100 e
b10100011001000010100 f
1g
0h
b0 i
b0 j
b101 m
b11110101 y
b0 z
b10100011001000010101 {
#300
0!
03
0D
0J
#305
1!
b0 #
1$
1%
b11110101 &
b10100011001000010101 '
0)
b0 +
b0 ,
b0 -
b0 .
13
16
17
b11110101 8
b10100011001000010101 9
1D
0E
b0 G
b0 H
b0 I
1J
1M
1N
b11110101 O
b10100011001000010101 P
0R
0S
b0 T
b0 U
b0 V
b0 `
b0 a
b1 b
b0 c
1d
b11110100 e
b10100011001000010100 f
0g
0h
b0 i
#310
0!
03
0D
0J
#315
1!
0$
0%
13
06
07
1D
1J
0M
0N
b0 Q
0R
0S
b0 T
b0 U
b0 V
1X
1Z
b0 [
b11110101 \
b10100011001000010101 ]
b0 `
b1 a
b10 b
b0 c
1d
b11110101 e
b10100011001000010101 f
0g
0h
b0 i
#320
0!
03
0D
0J
#325
1!
1)
b11110101 ,
b10100011001000010101 -
b0 .
13
1D
1E
b11110101 H
b10100011001000010101 I
1J
b0 Q
1R
0S
b0 T
b11110101 U
b10100011001000010101 V
1Y
b1111 [
b11110101 \
b10100011001000010101 ]
b0 `
b10 a
b10 b
b0 c
1d
b11110101 e
b10100011001000010101 f
0g
0h
b0 i
b11111111111111111111111111111111 j
#330
0!
03
0D
0J
