apb2apb_bridge/run_viv/apb_bridge_tb.vcd
$date
   Mon Dec  2 10:53:16 2019
$end
$version
  2018.2
$end
$timescale
  1ns
$end
$scope module apb_bridge_tb $end
$var reg 1 ! clk $end
$var reg 1 " rst_n $end
$var reg 4 # strb [3:0] $end
$var reg 1 $ trnsfr $end
$var reg 1 % wr $end
$var reg 32 & address [31:0] $end
$var reg 32 ' data_in [31:0] $end
$var reg 32 ( data_out [31:0] $end
$var reg 1 ) mem_wr $end
$var reg 1 * mem_rd $end
$var reg 4 + mem_be [3:0] $end
$var reg 32 , mem_address [31:0] $end
$var reg 32 - mem_data_in [31:0] $end
$var reg 32 . mem_data_out [31:0] $end
$scope module test_bus $end
$var wire 1 / clk $end
$var wire 1 0 rst_n $end
$var wire 4 1 strb [3:0] $end
$var wire 1 2 trnsfr $end
$var wire 1 3 wr $end
$var wire 32 4 address [31:0] $end
$var wire 32 5 data_in [31:0] $end
$var reg 32 ( data_out [31:0] $end
$var reg 1 ) mem_wr $end
$var reg 1 * mem_rd $end
$var reg 4 + mem_be [3:0] $end
$var reg 32 , mem_address [31:0] $end
$var reg 32 - mem_data_in [31:0] $end
$var wire 32 6 mem_data_out [31:0] $end
$var reg 1 7 sel $end
$var reg 1 8 enable $end
$var reg 1 9 write $end
$var reg 4 : strobe [3:0] $end
$var reg 32 ; addr [31:0] $end
$var reg 32 < wdata [31:0] $end
$var reg 1 = ready $end
$var reg 1 > slverr $end
$var reg 32 ? rdata [31:0] $end
$scope module bridge $end
$var wire 1 / clk $end
$var wire 1 0 rst_n $end
$var wire 4 1 strb [3:0] $end
$var wire 1 2 trnsfr $end
$var wire 1 3 wr $end
$var wire 32 4 address [31:0] $end
$var wire 32 5 data_in [31:0] $end
$var reg 32 ( data_out [31:0] $end
$var reg 1 ) mem_wr $end
$var reg 1 * mem_rd $end
$var reg 4 + mem_be [3:0] $end
$var reg 32 , mem_address [31:0] $end
$var reg 32 - mem_data_in [31:0] $end
$var wire 32 6 mem_data_out [31:0] $end
$upscope $end
$scope module master $end
$var wire 1 / clk $end
$var wire 1 0 rst_n $end
$var wire 4 1 strb [3:0] $end
$var wire 1 2 trnsfr $end
$var wire 1 3 wr $end
$var wire 32 4 address [31:0] $end
$var wire 32 5 data_in [31:0] $end
$var reg 32 ( data_out [31:0] $end
$var reg 1 7 sel $end
$var reg 1 8 enable $end
$var reg 1 9 write $end
$var reg 4 : strobe [3:0] $end
$var reg 32 ; addr [31:0] $end
$var reg 32 < wdata [31:0] $end
$var reg 1 = ready $end
$var reg 1 > slverr $end
$var reg 32 ? rdata [31:0] $end
$upscope $end
$scope module slave $end
$var wire 1 / clk $end
$var wire 1 0 rst_n $end
$var wire 1 2 trnsfr $end
$var reg 1 ) mem_wr $end
$var reg 1 * mem_rd $end
$var reg 4 + mem_be [3:0] $end
$var reg 32 , mem_address [31:0] $end
$var reg 32 - mem_data_in [31:0] $end
$var wire 32 6 mem_data_out [31:0] $end
$var reg 1 7 sel $end
$var reg 1 8 enable $end
$var reg 1 9 write $end
$var reg 4 : strobe [3:0] $end
$var reg 32 ; addr [31:0] $end
$var reg 32 < wdata [31:0] $end
$var reg 1 = ready $end
$var reg 1 > slverr $end
$var reg 32 ? rdata [31:0] $end
$upscope $end
$upscope $end
$scope module mem_bus $end
$var wire 1 @ clk $end
$var wire 1 A rst_n $end
$var wire 1 B mem_wr $end
$var wire 1 C mem_rd $end
$var wire 4 D mem_be [3:0] $end
$var wire 32 E mem_address [31:0] $end
$var wire 32 F mem_data_in [31:0] $end
$var reg 32 . mem_data_out [31:0] $end
$scope module mem $end
$var wire 1 @ clk $end
$var wire 1 A rst_n $end
$var wire 1 B mem_wr $end
$var wire 1 C mem_rd $end
$var wire 4 D mem_be [3:0] $end
$var wire 32 E mem_address [31:0] $end
$var wire 32 F mem_data_in [31:0] $end
$var reg 32 . mem_data_out [31:0] $end
$upscope $end
$upscope $end
$scope module apb2apb $end
$scope module ibus $end
$var wire 1 / clk $end
$var wire 1 0 rst_n $end
$var wire 4 1 strb [3:0] $end
$var wire 1 2 trnsfr $end
$var wire 1 3 wr $end
$var wire 32 4 address [31:0] $end
$var wire 32 5 data_in [31:0] $end
$var reg 32 ( data_out [31:0] $end
$var reg 1 ) mem_wr $end
$var reg 1 * mem_rd $end
$var reg 4 + mem_be [3:0] $end
$var reg 32 , mem_address [31:0] $end
$var reg 32 - mem_data_in [31:0] $end
$var wire 32 6 mem_data_out [31:0] $end
$var reg 1 7 sel $end
$var reg 1 8 enable $end
$var reg 1 9 write $end
$var reg 4 : strobe [3:0] $end
$var reg 32 ; addr [31:0] $end
$var reg 32 < wdata [31:0] $end
$var reg 1 = ready $end
$var reg 1 > slverr $end
$var reg 32 ? rdata [31:0] $end
$scope module bridge $end
$var wire 1 / clk $end
$var wire 1 0 rst_n $end
$var wire 4 1 strb [3:0] $end
$var wire 1 2 trnsfr $end
$var wire 1 3 wr $end
$var wire 32 4 address [31:0] $end
$var wire 32 5 data_in [31:0] $end
$var reg 32 ( data_out [31:0] $end
$var reg 1 ) mem_wr $end
$var reg 1 * mem_rd $end
$var reg 4 + mem_be [3:0] $end
$var reg 32 , mem_address [31:0] $end
$var reg 32 - mem_data_in [31:0] $end
$var wire 32 6 mem_data_out [31:0] $end
$upscope $end
$scope module master $end
$var wire 1 / clk $end
$var wire 1 0 rst_n $end
$var wire 4 1 strb [3:0] $end
$var wire 1 2 trnsfr $end
$var wire 1 3 wr $end
$var wire 32 4 address [31:0] $end
$var wire 32 5 data_in [31:0] $end
$var reg 32 ( data_out [31:0] $end
$var reg 1 7 sel $end
$var reg 1 8 enable $end
$var reg 1 9 write $end
$var reg 4 : strobe [3:0] $end
$var reg 32 ; addr [31:0] $end
$var reg 32 < wdata [31:0] $end
$var reg 1 = ready $end
$var reg 1 > slverr $end
$var reg 32 ? rdata [31:0] $end
$upscope $end
$scope module slave $end
$var wire 1 / clk $end
$var wire 1 0 rst_n $end
$var wire 1 2 trnsfr $end
$var reg 1 ) mem_wr $end
$var reg 1 * mem_rd $end
$var reg 4 + mem_be [3:0] $end
$var reg 32 , mem_address [31:0] $end
$var reg 32 - mem_data_in [31:0] $end
$var wire 32 6 mem_data_out [31:0] $end
$var reg 1 7 sel $end
$var reg 1 8 enable $end
$var reg 1 9 write $end
$var reg 4 : strobe [3:0] $end
$var reg 32 ; addr [31:0] $end
$var reg 32 < wdata [31:0] $end
$var reg 1 = ready $end
$var reg 1 > slverr $end
$var reg 32 ? rdata [31:0] $end
$upscope $end
$upscope $end
$scope module pbus $end
$var wire 1 G clk $end
$var wire 1 H rst_n $end
$var wire 4 I strb [3:0] $end
$var wire 1 J trnsfr $end
$var wire 1 K wr $end
$var wire 32 L address [31:0] $end
$var wire 32 M data_in [31:0] $end
$var reg 32 N data_out [31:0] $end
$var reg 1 O mem_wr $end
$var reg 1 P mem_rd $end
$var reg 4 Q mem_be [3:0] $end
$var reg 32 R mem_address [31:0] $end
$var reg 32 S mem_data_in [31:0] $end
$var wire 32 T mem_data_out [31:0] $end
$var reg 1 U sel $end
$var reg 1 V enable $end
$var reg 1 W write $end
$var reg 4 X strobe [3:0] $end
$var reg 32 Y addr [31:0] $end
$var reg 32 Z wdata [31:0] $end
$var reg 1 [ ready $end
$var reg 1 \ slverr $end
$var reg 32 ] rdata [31:0] $end
$scope module bridge $end
$var wire 1 G clk $end
$var wire 1 H rst_n $end
$var wire 4 I strb [3:0] $end
$var wire 1 J trnsfr $end
$var wire 1 K wr $end
$var wire 32 L address [31:0] $end
$var wire 32 M data_in [31:0] $end
$var reg 32 N data_out [31:0] $end
$var reg 1 O mem_wr $end
$var reg 1 P mem_rd $end
$var reg 4 Q mem_be [3:0] $end
$var reg 32 R mem_address [31:0] $end
$var reg 32 S mem_data_in [31:0] $end
$var wire 32 T mem_data_out [31:0] $end
$upscope $end
$scope module master $end
$var wire 1 G clk $end
$var wire 1 H rst_n $end
$var wire 4 I strb [3:0] $end
$var wire 1 J trnsfr $end
$var wire 1 K wr $end
$var wire 32 L address [31:0] $end
$var wire 32 M data_in [31:0] $end
$var reg 32 N data_out [31:0] $end
$var reg 1 U sel $end
$var reg 1 V enable $end
$var reg 1 W write $end
$var reg 4 X strobe [3:0] $end
$var reg 32 Y addr [31:0] $end
$var reg 32 Z wdata [31:0] $end
$var reg 1 [ ready $end
$var reg 1 \ slverr $end
$var reg 32 ] rdata [31:0] $end
$upscope $end
$scope module slave $end
$var wire 1 G clk $end
$var wire 1 H rst_n $end
$var wire 1 J trnsfr $end
$var reg 1 O mem_wr $end
$var reg 1 P mem_rd $end
$var reg 4 Q mem_be [3:0] $end
$var reg 32 R mem_address [31:0] $end
$var reg 32 S mem_data_in [31:0] $end
$var wire 32 T mem_data_out [31:0] $end
$var reg 1 U sel $end
$var reg 1 V enable $end
$var reg 1 W write $end
$var reg 4 X strobe [3:0] $end
$var reg 32 Y addr [31:0] $end
$var reg 32 Z wdata [31:0] $end
$var reg 1 [ ready $end
$var reg 1 \ slverr $end
$var reg 32 ] rdata [31:0] $end
$upscope $end
$upscope $end
$scope module pmaster $end
$var reg 2 ^ m_state [1:0] $end
$var reg 2 _ m_nxt_state [1:0] $end
$var reg 4 ` strb_reg [3:0] $end
$var reg 1 a wr_reg $end
$var reg 32 b address_reg [31:0] $end
$var reg 32 c data_in_reg [31:0] $end
$scope module mbus $end
$var wire 1 G clk $end
$var wire 1 H rst_n $end
$var wire 4 I strb [3:0] $end
$var wire 1 J trnsfr $end
$var wire 1 K wr $end
$var wire 32 L address [31:0] $end
$var wire 32 M data_in [31:0] $end
$var reg 32 N data_out [31:0] $end
$var reg 1 O mem_wr $end
$var reg 1 P mem_rd $end
$var reg 4 Q mem_be [3:0] $end
$var reg 32 R mem_address [31:0] $end
$var reg 32 S mem_data_in [31:0] $end
$var wire 32 T mem_data_out [31:0] $end
$var reg 1 U sel $end
$var reg 1 V enable $end
$var reg 1 W write $end
$var reg 4 X strobe [3:0] $end
$var reg 32 Y addr [31:0] $end
$var reg 32 Z wdata [31:0] $end
$var reg 1 [ ready $end
$var reg 1 \ slverr $end
$var reg 32 ] rdata [31:0] $end
$scope module bridge $end
$var wire 1 G clk $end
$var wire 1 H rst_n $end
$var wire 4 I strb [3:0] $end
$var wire 1 J trnsfr $end
$var wire 1 K wr $end
$var wire 32 L address [31:0] $end
$var wire 32 M data_in [31:0] $end
$var reg 32 N data_out [31:0] $end
$var reg 1 O mem_wr $end
$var reg 1 P mem_rd $end
$var reg 4 Q mem_be [3:0] $end
$var reg 32 R mem_address [31:0] $end
$var reg 32 S mem_data_in [31:0] $end
$var wire 32 T mem_data_out [31:0] $end
$upscope $end
$scope module master $end
$var wire 1 G clk $end
$var wire 1 H rst_n $end
$var wire 4 I strb [3:0] $end
$var wire 1 J trnsfr $end
$var wire 1 K wr $end
$var wire 32 L address [31:0] $end
$var wire 32 M data_in [31:0] $end
$var reg 32 N data_out [31:0] $end
$var reg 1 U sel $end
$var reg 1 V enable $end
$var reg 1 W write $end
$var reg 4 X strobe [3:0] $end
$var reg 32 Y addr [31:0] $end
$var reg 32 Z wdata [31:0] $end
$var reg 1 [ ready $end
$var reg 1 \ slverr $end
$var reg 32 ] rdata [31:0] $end
$upscope $end
$scope module slave $end
$var wire 1 G clk $end
$var wire 1 H rst_n $end
$var wire 1 J trnsfr $end
$var reg 1 O mem_wr $end
$var reg 1 P mem_rd $end
$var reg 4 Q mem_be [3:0] $end
$var reg 32 R mem_address [31:0] $end
$var reg 32 S mem_data_in [31:0] $end
$var wire 32 T mem_data_out [31:0] $end
$var reg 1 U sel $end
$var reg 1 V enable $end
$var reg 1 W write $end
$var reg 4 X strobe [3:0] $end
$var reg 32 Y addr [31:0] $end
$var reg 32 Z wdata [31:0] $end
$var reg 1 [ ready $end
$var reg 1 \ slverr $end
$var reg 32 ] rdata [31:0] $end
$upscope $end
$upscope $end
$upscope $end
$scope module pslave $end
$var reg 2 d s_state [1:0] $end
$var reg 2 e s_nxt_state [1:0] $end
$var reg 32 f addr_compare [31:0] $end
$var reg 1 g sel_reg $end
$var reg 1 h enable_reg $end
$scope module sbus $end
$var wire 1 G clk $end
$var wire 1 H rst_n $end
$var wire 4 I strb [3:0] $end
$var wire 1 J trnsfr $end
$var wire 1 K wr $end
$var wire 32 L address [31:0] $end
$var wire 32 M data_in [31:0] $end
$var reg 32 N data_out [31:0] $end
$var reg 1 O mem_wr $end
$var reg 1 P mem_rd $end
$var reg 4 Q mem_be [3:0] $end
$var reg 32 R mem_address [31:0] $end
$var reg 32 S mem_data_in [31:0] $end
$var wire 32 T mem_data_out [31:0] $end
$var reg 1 U sel $end
$var reg 1 V enable $end
$var reg 1 W write $end
$var reg 4 X strobe [3:0] $end
$var reg 32 Y addr [31:0] $end
$var reg 32 Z wdata [31:0] $end
$var reg 1 [ ready $end
$var reg 1 \ slverr $end
$var reg 32 ] rdata [31:0] $end
$scope module bridge $end
$var wire 1 G clk $end
$var wire 1 H rst_n $end
$var wire 4 I strb [3:0] $end
$var wire 1 J trnsfr $end
$var wire 1 K wr $end
$var wire 32 L address [31:0] $end
$var wire 32 M data_in [31:0] $end
$var reg 32 N data_out [31:0] $end
$var reg 1 O mem_wr $end
$var reg 1 P mem_rd $end
$var reg 4 Q mem_be [3:0] $end
$var reg 32 R mem_address [31:0] $end
$var reg 32 S mem_data_in [31:0] $end
$var wire 32 T mem_data_out [31:0] $end
$upscope $end
$scope module master $end
$var wire 1 G clk $end
$var wire 1 H rst_n $end
$var wire 4 I strb [3:0] $end
$var wire 1 J trnsfr $end
$var wire 1 K wr $end
$var wire 32 L address [31:0] $end
$var wire 32 M data_in [31:0] $end
$var reg 32 N data_out [31:0] $end
$var reg 1 U sel $end
$var reg 1 V enable $end
$var reg 1 W write $end
$var reg 4 X strobe [3:0] $end
$var reg 32 Y addr [31:0] $end
$var reg 32 Z wdata [31:0] $end
$var reg 1 [ ready $end
$var reg 1 \ slverr $end
$var reg 32 ] rdata [31:0] $end
$upscope $end
$scope module slave $end
$var wire 1 G clk $end
$var wire 1 H rst_n $end
$var wire 1 J trnsfr $end
$var reg 1 O mem_wr $end
$var reg 1 P mem_rd $end
$var reg 4 Q mem_be [3:0] $end
$var reg 32 R mem_address [31:0] $end
$var reg 32 S mem_data_in [31:0] $end
$var wire 32 T mem_data_out [31:0] $end
$var reg 1 U sel $end
$var reg 1 V enable $end
$var reg 1 W write $end
$var reg 4 X strobe [3:0] $end
$var reg 32 Y addr [31:0] $end
$var reg 32 Z wdata [31:0] $end
$var reg 1 [ ready $end
$var reg 1 \ slverr $end
$var reg 32 ] rdata [31:0] $end
$upscope $end
$upscope $end
$upscope $end
$upscope $end
$scope module memory $end
$scope module membus $end
$var wire 1 @ clk $end
$var wire 1 A rst_n $end
$var wire 1 B mem_wr $end
$var wire 1 C mem_rd $end
$var wire 4 D mem_be [3:0] $end
$var wire 32 E mem_address [31:0] $end
$var wire 32 F mem_data_in [31:0] $end
$var reg 32 . mem_data_out [31:0] $end
$scope module mem $end
$var wire 1 @ clk $end
$var wire 1 A rst_n $end
$var wire 1 B mem_wr $end
$var wire 1 C mem_rd $end
$var wire 4 D mem_be [3:0] $end
$var wire 32 E mem_address [31:0] $end
$var wire 32 F mem_data_in [31:0] $end
$var reg 32 . mem_data_out [31:0] $end
$upscope $end
$upscope $end
$scope begin Block19_10 $end
$var reg 32 i i $end
$scope begin Block21_11 $end
$var reg 32 j j $end
$upscope $end
$upscope $end
$upscope $end
$scope begin Block67_24 $end
$var reg 32 k i $end
$upscope $end
$scope begin Block72_25 $end
$var reg 32 l i $end
$upscope $end
$scope task async_reset $end
$upscope $end
$scope task single_write $end
$var reg 32 m address_sr [31:0] $end
$var reg 4 n strb_sr [3:0] $end
$var reg 32 o data_sr [31:0] $end
$upscope $end
$scope task single_read $end
$var reg 32 p address_sr [31:0] $end
$var reg 4 q strb_sr [3:0] $end
$upscope $end
$scope task burst_write $end
$var reg 32 r address_sr [31:0] $end
$var reg 4 s strb_sr [3:0] $end
$var reg 32 t data_sr [31:0] $end
$scope begin Block131_27 $end
$var reg 32 u i $end
$upscope $end
$upscope $end
$scope task burst_read $end
$var reg 32 v address_sr [31:0] $end
$var reg 4 w strb_sr [3:0] $end
$scope begin Block150_28 $end
$var reg 32 x i $end
$upscope $end
$upscope $end
$upscope $end
$enddefinitions $end
#0
$dumpvars
0!
0"
b0 #
0$
0%
b0 &
b0 '
b0 (
0)
0*
b0 +
b0 ,
b0 -
b0 .
0/
00
b0 1
02
03
b0 4
b0 5
b0 6
x7
x8
x9
bx :
bx ;
bx <
x=
x>
bx ?
0@
0A
0B
0C
b0 D
b0 E
b0 F
0G
0H
b0 I
0J
0K
b0 L
b0 M
b0 N
0O
0P
b0 Q
b0 R
b0 S
b0 T
0U
0V
0W
b0 X
b0 Y
b0 Z
0[
0\
b0 ]
b0 ^
b0 _
b0 `
0a
b0 b
b0 c
b0 d
b0 e
b0 f
xg
0h
b100 i
b100000000 j
b0 k
b0 l
b0 m
b0 n
b0 o
b0 p
b0 q
b0 r
b0 s
b0 t
b0 u
b0 v
b0 w
b0 x
$end
#5
1!
1/
1@
1G
b0 ^
b0 `
0a
b0 b
b0 c
b0 d
b0 f
0h
#10
0!
0/
0@
0G
#15
1!
1/
1@
1G
b0 ^
b0 `
0a
b0 b
b0 c
b0 d
b0 f
0h
#20
0!
0/
0@
0G
#25
1!
1/
1@
1G
b0 ^
b0 `
0a
b0 b
b0 c
b0 d
b0 f
0h
#30
0!
0/
0@
0G
#35
1!
1/
1@
1G
b0 ^
b0 `
0a
b0 b
b0 c
b0 d
b0 f
0h
#40
0!
0/
0@
0G
#45
1!
1"
1/
10
1@
1A
1G
1H
b0 ^
b0 `
0a
b0 b
b0 c
b0 d
b0 f
0h
b0 k
b11110000 m
b1111 n
b10100011001000010000 o
#50
0!
0/
0@
0G
#55
1!
b1111 #
1$
1%
b11110000 &
b10100011001000010000 '
1/
b1111 1
12
13
b11110000 4
b10100011001000010000 5
1@
1G
b1111 I
1J
1K
b11110000 L
b10100011001000010000 M
b0 ^
b1 _
b0 `
0a
b0 b
b0 c
b0 d
b0 e
0h
#60
0!
0/
0@
0G
#65
1!
0$
1/
02
1@
1G
0J
b0 N
0O
0P
b0 Q
b0 R
b0 S
1U
0V
1W
b1111 X
b11110000 Y
b10100011001000010000 Z
0[
0\
b0 ]
b1 ^
b10 _
b1111 `
1a
b11110000 b
b10100011001000010000 c
b0 d
b1 e
0h
#70
0!
0/
0@
0G
#75
1!
1/
1@
1G
b0 N
0O
0P
b0 Q
b0 R
b0 S
1U
1V
1W
b1111 X
b11110000 Y
b10100011001000010000 Z
0[
0\
b0 ]
b10 ^
b10 _
b1111 `
1a
b11110000 b
b10100011001000010000 c
b1 d
b10 e
b1111000100 f
0h
#80
0!
0/
0@
0G
#85
1!
1)
b1111 +
b11110000 ,
b10100011001000010000 -
b0 .
1/
1@
1B
b1111 D
b11110000 E
b10100011001000010000 F
1G
b0 N
1O
0P
b1111 Q
b11110000 R
b10100011001000010000 S
1U
1V
1W
b1111 X
b11110000 Y
b10100011001000010000 Z
1[
0\
b0 ]
b10 ^
b0 _
b1111 `
1a
b11110000 b
b10100011001000010000 c
b10 d
b0 e
1h
#90
0!
0/
0@
0G
#95
1!
0)
b0 +
b0 ,
b0 -
b0 .
1/
1@
0B
b0 D
b0 E
b0 F
1G
b0 N
0O
0P
b0 Q
b0 R
b0 S
0U
0V
0W
b0 X
b0 Y
b0 Z
0[
0\
b0 ]
b0 ^
b0 _
b1111 `
1a
b11110000 b
b10100011001000010000 c
b0 d
b0 e
1h
b1 k
b11110001 m
b1111 n
b10100011001000010001 o
#100
0!
0/
0@
0G
#105
1!
b1111 #
1$
1%
b11110001 &
b10100011001000010001 '
1/
12
b11110001 4
b10100011001000010001 5
1@
1G
1J
b11110001 L
b10100011001000010001 M
b0 ^
b1 _
b1111 `
1a
b11110000 b
b10100011001000010000 c
b0 d
b0 e
0h
#110
0!
0/
0@
0G
#115
1!
0$
1/
02
1@
1G
0J
b0 N
0O
0P
b0 Q
b0 R
b0 S
1U
0V
1W
b1111 X
b11110001 Y
b10100011001000010001 Z
0[
0\
b0 ]
b1 ^
b10 _
b1111 `
1a
b11110001 b
b10100011001000010001 c
b0 d
b1 e
0h
#120
0!
0/
0@
0G
#125
1!
1/
1@
1G
b0 N
0O
0P
b0 Q
b0 R
b0 S
1U
1V
1W
b1111 X
b11110001 Y
b10100011001000010001 Z
0[
0\
b0 ]
b10 ^
b10 _
b1111 `
1a
b11110001 b
b10100011001000010001 c
b1 d
b10 e
b1111001000 f
0h
#130
0!
0/
0@
0G
#135
1!
1)
b1111 +
b11110001 ,
b10100011001000010001 -
b0 .
1/
1@
1B
b1111 D
b11110001 E
b10100011001000010001 F
1G
b0 N
1O
0P
b1111 Q
b11110001 R
b10100011001000010001 S
1U
1V
1W
b1111 X
b11110001 Y
b10100011001000010001 Z
1[
0\
b0 ]
b10 ^
b0 _
b1111 `
1a
b11110001 b
b10100011001000010001 c
b10 d
b0 e
1h
#140
0!
0/
0@
0G
#145
1!
0)
b0 +
b0 ,
b0 -
b0 .
1/
1@
0B
b0 D
b0 E
b0 F
1G
b0 N
0O
0P
b0 Q
b0 R
b0 S
0U
0V
0W
b0 X
b0 Y
b0 Z
0[
0\
b0 ]
b0 ^
b0 _
b1111 `
1a
b11110001 b
b10100011001000010001 c
b0 d
b0 e
1h
b10 k
b11110010 m
b1111 n
b10100011001000010010 o
#150
0!
0/
0@
0G
#155
1!
b1111 #
1$
1%
b11110010 &
b10100011001000010010 '
1/
12
b11110010 4
b10100011001000010010 5
1@
1G
1J
b11110010 L
b10100011001000010010 M
b0 ^
b1 _
b1111 `
1a
b11110001 b
b10100011001000010001 c
b0 d
b0 e
0h
#160
0!
0/
0@
0G
#165
1!
0$
1/
02
1@
1G
0J
b0 N
0O
0P
b0 Q
b0 R
b0 S
1U
0V
1W
b1111 X
b11110010 Y
b10100011001000010010 Z
0[
0\
b0 ]
b1 ^
b10 _
b1111 `
1a
b11110010 b
b10100011001000010010 c
b0 d
b1 e
0h
#170
0!
0/
0@
0G
#175
1!
1/
1@
1G
b0 N
0O
0P
b0 Q
b0 R
b0 S
1U
1V
1W
b1111 X
b11110010 Y
b10100011001000010010 Z
0[
0\
b0 ]
b10 ^
b10 _
b1111 `
1a
b11110010 b
b10100011001000010010 c
b1 d
b10 e
b1111001100 f
0h
#180
0!
0/
0@
0G
#185
1!
1)
b1111 +
b11110010 ,
b10100011001000010010 -
b0 .
1/
1@
1B
b1111 D
b11110010 E
b10100011001000010010 F
1G
b0 N
1O
0P
b1111 Q
b11110010 R
b10100011001000010010 S
1U
1V
1W
b1111 X
b11110010 Y
b10100011001000010010 Z
1[
0\
b0 ]
b10 ^
b0 _
b1111 `
1a
b11110010 b
b10100011001000010010 c
b10 d
b0 e
1h
#190
0!
0/
0@
0G
#195
1!
0)
b0 +
b0 ,
b0 -
b0 .
1/
1@
0B
b0 D
b0 E
b0 F
1G
b0 N
0O
0P
b0 Q
b0 R
b0 S
0U
0V
0W
b0 X
b0 Y
b0 Z
0[
0\
b0 ]
b0 ^
b0 _
b1111 `
1a
b11110010 b
b10100011001000010010 c
b0 d
b0 e
1h
b11 k
b11110011 m
b1111 n
b10100011001000010011 o
#200
0!
0/
0@
0G
#205
1!
b1111 #
1$
1%
b11110011 &
b10100011001000010011 '
1/
12
b11110011 4
b10100011001000010011 5
1@
1G
1J
b11110011 L
b10100011001000010011 M
b0 ^
b1 _
b1111 `
1a
b11110010 b
b10100011001000010010 c
b0 d
b0 e
0h
#210
0!
0/
0@
0G
#215
1!
0$
1/
02
1@
1G
0J
b0 N
0O
0P
b0 Q
b0 R
b0 S
1U
0V
1W
b1111 X
b11110011 Y
b10100011001000010011 Z
0[
0\
b0 ]
b1 ^
b10 _
b1111 `
1a
b11110011 b
b10100011001000010011 c
b0 d
b1 e
0h
#220
0!
0/
0@
0G
#225
1!
1/
1@
1G
b0 N
0O
0P
b0 Q
b0 R
b0 S
1U
1V
1W
b1111 X
b11110011 Y
b10100011001000010011 Z
0[
0\
b0 ]
b10 ^
b10 _
b1111 `
1a
b11110011 b
b10100011001000010011 c
b1 d
b10 e
b1111010000 f
0h
#230
0!
0/
0@
0G
#235
1!
1)
b1111 +
b11110011 ,
b10100011001000010011 -
b0 .
1/
1@
1B
b1111 D
b11110011 E
b10100011001000010011 F
1G
b0 N
1O
0P
b1111 Q
b11110011 R
b10100011001000010011 S
1U
1V
1W
b1111 X
b11110011 Y
b10100011001000010011 Z
1[
0\
b0 ]
b10 ^
b0 _
b1111 `
1a
b11110011 b
b10100011001000010011 c
b10 d
b0 e
1h
#240
0!
0/
0@
0G
#245
1!
0)
b0 +
b0 ,
b0 -
b0 .
1/
1@
0B
b0 D
b0 E
b0 F
1G
b0 N
0O
0P
b0 Q
b0 R
b0 S
0U
0V
0W
b0 X
b0 Y
b0 Z
0[
0\
b0 ]
b0 ^
b0 _
b1111 `
1a
b11110011 b
b10100011001000010011 c
b0 d
b0 e
1h
b100 k
b11110100 m
b1111 n
b10100011001000010100 o
#250
0!
0/
0@
0G
#255
1!
b1111 #
1$
1%
b11110100 &
b10100011001000010100 '
1/
12
b11110100 4
b10100011001000010100 5
1@
1G
1J
b11110100 L
b10100011001000010100 M
b0 ^
b1 _
b1111 `
1a
b11110011 b
b10100011001000010011 c
b0 d
b0 e
0h
#260
0!
0/
0@
0G
#265
1!
0$
1/
02
1@
1G
0J
b0 N
0O
0P
b0 Q
b0 R
b0 S
1U
0V
1W
b1111 X
b11110100 Y
b10100011001000010100 Z
0[
0\
b0 ]
b1 ^
b10 _
b1111 `
1a
b11110100 b
b10100011001000010100 c
b0 d
b1 e
0h
#270
0!
0/
0@
0G
#275
1!
1/
1@
1G
b0 N
0O
0P
b0 Q
b0 R
b0 S
1U
1V
1W
b1111 X
b11110100 Y
b10100011001000010100 Z
0[
0\
b0 ]
b10 ^
b10 _
b1111 `
1a
b11110100 b
b10100011001000010100 c
b1 d
b10 e
b1111010100 f
0h
#280
0!
0/
0@
0G
#285
1!
1)
b1111 +
b11110100 ,
b10100011001000010100 -
b0 .
1/
1@
1B
b1111 D
b11110100 E
b10100011001000010100 F
1G
b0 N
1O
0P
b1111 Q
b11110100 R
b10100011001000010100 S
1U
1V
1W
b1111 X
b11110100 Y
b10100011001000010100 Z
1[
0\
b0 ]
b10 ^
b0 _
b1111 `
1a
b11110100 b
b10100011001000010100 c
b10 d
b0 e
1h
#290
0!
0/
0@
0G
#295
1!
0)
b0 +
b0 ,
b0 -
b0 .
1/
1@
0B
b0 D
b0 E
b0 F
1G
b0 N
0O
0P
b0 Q
b0 R
b0 S
0U
0V
0W
b0 X
b0 Y
b0 Z
0[
0\
b0 ]
b0 ^
b0 _
b1111 `
1a
b11110100 b
b10100011001000010100 c
b0 d
b0 e
1h
b101 k
b11110101 m
b1111 n
b10100011001000010101 o
#300
0!
0/
0@
0G
#305
1!
b1111 #
1$
1%
b11110101 &
b10100011001000010101 '
1/
12
b11110101 4
b10100011001000010101 5
1@
1G
1J
b11110101 L
b10100011001000010101 M
b0 ^
b1 _
b1111 `
1a
b11110100 b
b10100011001000010100 c
b0 d
b0 e
0h
#310
0!
0/
0@
0G
#315
1!
0$
1/
02
1@
1G
0J
b0 N
0O
0P
b0 Q
b0 R
b0 S
1U
0V
1W
b1111 X
b11110101 Y
b10100011001000010101 Z
0[
0\
b0 ]
b1 ^
b10 _
b1111 `
1a
b11110101 b
b10100011001000010101 c
b0 d
b1 e
0h
#320
0!
0/
0@
0G
#325
1!
1/
1@
1G
b0 N
0O
0P
b0 Q
b0 R
b0 S
1U
1V
1W
b1111 X
b11110101 Y
b10100011001000010101 Z
0[
0\
b0 ]
b10 ^
b10 _
b1111 `
1a
b11110101 b
b10100011001000010101 c
b1 d
b10 e
b1111011000 f
0h
#330
0!
0/
0@
0G
#335
1!
1)
b1111 +
b11110101 ,
b10100011001000010101 -
b0 .
1/
1@
1B
b1111 D
b11110101 E
b10100011001000010101 F
1G
b0 N
1O
0P
b1111 Q
b11110101 R
b10100011001000010101 S
1U
1V
1W
b1111 X
b11110101 Y
b10100011001000010101 Z
1[
0\
b0 ]
b10 ^
b0 _
b1111 `
1a
b11110101 b
b10100011001000010101 c
b10 d
b0 e
1h
#340
0!
0/
0@
0G
#345
1!
0)
b0 +
b0 ,
b0 -
b0 .
1/
1@
0B
b0 D
b0 E
b0 F
1G
b0 N
0O
0P
b0 Q
b0 R
b0 S
0U
0V
0W
b0 X
b0 Y
b0 Z
0[
0\
b0 ]
b0 ^
b0 _
b1111 `
1a
b11110101 b
b10100011001000010101 c
b0 d
b0 e
1h
b110 k
b11110110 m
b1111 n
b10100011001000010110 o
#350
0!
0/
0@
0G
#355
1!
b1111 #
1$
1%
b11110110 &
b10100011001000010110 '
1/
12
b11110110 4
b10100011001000010110 5
1@
1G
1J
b11110110 L
b10100011001000010110 M
b0 ^
b1 _
b1111 `
1a
b11110101 b
b10100011001000010101 c
b0 d
b0 e
0h
#360
0!
0/
0@
0G
#365
1!
0$
1/
02
1@
1G
0J
b0 N
0O
0P
b0 Q
b0 R
b0 S
1U
0V
1W
b1111 X
b11110110 Y
b10100011001000010110 Z
0[
0\
b0 ]
b1 ^
b10 _
b1111 `
1a
b11110110 b
b10100011001000010110 c
b0 d
b1 e
0h
#370
0!
0/
0@
0G
