apb2apb_bridge/run_viv/apb_bridge_tb.vcd
$date
   Thu Dec  5 17:54:59 2019
$end
$version
  2018.2
$end
$timescale
  1ns
$end
$scope module apb_bridge_tb $end
$var reg 1 ! clk $end
$var reg 1 " rst_n $end
$var reg 4 # strb [3:0] $end
$var reg 2 $ dsel [1:0] $end
$var reg 1 % trnsfr $end
$var reg 1 & wr $end
$var reg 32 ' address [31:0] $end
$var reg 32 ( data_in [31:0] $end
$var reg 32 ) data_out [31:0] $end
$var reg 1 * mem_wr $end
$var reg 1 + mem_rd $end
$var reg 4 , mem_be [3:0] $end
$var reg 32 - mem_address [31:0] $end
$var reg 32 . mem_data_in [31:0] $end
$var reg 32 / mem_data_out [31:0] $end
$scope module test_bus $end
$var wire 1 0 clk $end
$var wire 1 1 rst_n $end
$var wire 2 2 dsel [1:0] $end
$var wire 4 3 strb [3:0] $end
$var wire 1 4 trnsfr $end
$var wire 1 5 wr $end
$var wire 32 6 address [31:0] $end
$var wire 32 7 data_in [31:0] $end
$var reg 32 ) data_out [31:0] $end
$var reg 1 * mem_wr $end
$var reg 1 + mem_rd $end
$var reg 4 , mem_be [3:0] $end
$var reg 32 - mem_address [31:0] $end
$var reg 32 . mem_data_in [31:0] $end
$var wire 32 8 mem_data_out [31:0] $end
$var reg 1 9 sel $end
$var reg 1 : enable $end
$var reg 1 ; write $end
$var reg 4 < strobe [3:0] $end
$var reg 32 = addr [31:0] $end
$var reg 32 > wdata [31:0] $end
$var reg 1 ? ready $end
$var reg 1 @ slverr $end
$var reg 32 A rdata [31:0] $end
$scope module bridge $end
$var wire 1 0 clk $end
$var wire 1 1 rst_n $end
$var wire 2 2 dsel [1:0] $end
$var wire 4 3 strb [3:0] $end
$var wire 1 4 trnsfr $end
$var wire 1 5 wr $end
$var wire 32 6 address [31:0] $end
$var wire 32 7 data_in [31:0] $end
$var reg 32 ) data_out [31:0] $end
$var reg 1 * mem_wr $end
$var reg 1 + mem_rd $end
$var reg 4 , mem_be [3:0] $end
$var reg 32 - mem_address [31:0] $end
$var reg 32 . mem_data_in [31:0] $end
$var wire 32 8 mem_data_out [31:0] $end
$upscope $end
$scope module master $end
$var wire 1 0 clk $end
$var wire 1 1 rst_n $end
$var wire 2 2 dsel [1:0] $end
$var wire 4 3 strb [3:0] $end
$var wire 1 4 trnsfr $end
$var wire 1 5 wr $end
$var wire 32 6 address [31:0] $end
$var wire 32 7 data_in [31:0] $end
$var reg 32 ) data_out [31:0] $end
$var reg 1 9 sel $end
$var reg 1 : enable $end
$var reg 1 ; write $end
$var reg 4 < strobe [3:0] $end
$var reg 32 = addr [31:0] $end
$var reg 32 > wdata [31:0] $end
$var reg 1 ? ready $end
$var reg 1 @ slverr $end
$var reg 32 A rdata [31:0] $end
$upscope $end
$scope module slave $end
$var wire 1 0 clk $end
$var wire 1 1 rst_n $end
$var wire 1 4 trnsfr $end
$var reg 1 * mem_wr $end
$var reg 1 + mem_rd $end
$var reg 4 , mem_be [3:0] $end
$var reg 32 - mem_address [31:0] $end
$var reg 32 . mem_data_in [31:0] $end
$var wire 32 8 mem_data_out [31:0] $end
$var reg 1 9 sel $end
$var reg 1 : enable $end
$var reg 1 ; write $end
$var reg 4 < strobe [3:0] $end
$var reg 32 = addr [31:0] $end
$var reg 32 > wdata [31:0] $end
$var reg 1 ? ready $end
$var reg 1 @ slverr $end
$var reg 32 A rdata [31:0] $end
$upscope $end
$upscope $end
$scope module mem_bus $end
$var wire 1 B clk $end
$var wire 1 C rst_n $end
$var wire 1 D mem_wr $end
$var wire 1 E mem_rd $end
$var wire 4 F mem_be [3:0] $end
$var wire 32 G mem_address [31:0] $end
$var wire 32 H mem_data_in [31:0] $end
$var reg 32 / mem_data_out [31:0] $end
$scope module mem $end
$var wire 1 B clk $end
$var wire 1 C rst_n $end
$var wire 1 D mem_wr $end
$var wire 1 E mem_rd $end
$var wire 4 F mem_be [3:0] $end
$var wire 32 G mem_address [31:0] $end
$var wire 32 H mem_data_in [31:0] $end
$var reg 32 / mem_data_out [31:0] $end
$upscope $end
$upscope $end
$scope module apb2apb $end
$scope module ibus $end
$var wire 1 0 clk $end
$var wire 1 1 rst_n $end
$var wire 2 2 dsel [1:0] $end
$var wire 4 3 strb [3:0] $end
$var wire 1 4 trnsfr $end
$var wire 1 5 wr $end
$var wire 32 6 address [31:0] $end
$var wire 32 7 data_in [31:0] $end
$var reg 32 ) data_out [31:0] $end
$var reg 1 * mem_wr $end
$var reg 1 + mem_rd $end
$var reg 4 , mem_be [3:0] $end
$var reg 32 - mem_address [31:0] $end
$var reg 32 . mem_data_in [31:0] $end
$var wire 32 8 mem_data_out [31:0] $end
$var reg 1 9 sel $end
$var reg 1 : enable $end
$var reg 1 ; write $end
$var reg 4 < strobe [3:0] $end
$var reg 32 = addr [31:0] $end
$var reg 32 > wdata [31:0] $end
$var reg 1 ? ready $end
$var reg 1 @ slverr $end
$var reg 32 A rdata [31:0] $end
$scope module bridge $end
$var wire 1 0 clk $end
$var wire 1 1 rst_n $end
$var wire 2 2 dsel [1:0] $end
$var wire 4 3 strb [3:0] $end
$var wire 1 4 trnsfr $end
$var wire 1 5 wr $end
$var wire 32 6 address [31:0] $end
$var wire 32 7 data_in [31:0] $end
$var reg 32 ) data_out [31:0] $end
$var reg 1 * mem_wr $end
$var reg 1 + mem_rd $end
$var reg 4 , mem_be [3:0] $end
$var reg 32 - mem_address [31:0] $end
$var reg 32 . mem_data_in [31:0] $end
$var wire 32 8 mem_data_out [31:0] $end
$upscope $end
$scope module master $end
$var wire 1 0 clk $end
$var wire 1 1 rst_n $end
$var wire 2 2 dsel [1:0] $end
$var wire 4 3 strb [3:0] $end
$var wire 1 4 trnsfr $end
$var wire 1 5 wr $end
$var wire 32 6 address [31:0] $end
$var wire 32 7 data_in [31:0] $end
$var reg 32 ) data_out [31:0] $end
$var reg 1 9 sel $end
$var reg 1 : enable $end
$var reg 1 ; write $end
$var reg 4 < strobe [3:0] $end
$var reg 32 = addr [31:0] $end
$var reg 32 > wdata [31:0] $end
$var reg 1 ? ready $end
$var reg 1 @ slverr $end
$var reg 32 A rdata [31:0] $end
$upscope $end
$scope module slave $end
$var wire 1 0 clk $end
$var wire 1 1 rst_n $end
$var wire 1 4 trnsfr $end
$var reg 1 * mem_wr $end
$var reg 1 + mem_rd $end
$var reg 4 , mem_be [3:0] $end
$var reg 32 - mem_address [31:0] $end
$var reg 32 . mem_data_in [31:0] $end
$var wire 32 8 mem_data_out [31:0] $end
$var reg 1 9 sel $end
$var reg 1 : enable $end
$var reg 1 ; write $end
$var reg 4 < strobe [3:0] $end
$var reg 32 = addr [31:0] $end
$var reg 32 > wdata [31:0] $end
$var reg 1 ? ready $end
$var reg 1 @ slverr $end
$var reg 32 A rdata [31:0] $end
$upscope $end
$upscope $end
$scope module pbus $end
$var wire 1 I clk $end
$var wire 1 J rst_n $end
$var wire 2 K dsel [1:0] $end
$var wire 4 L strb [3:0] $end
$var wire 1 M trnsfr $end
$var wire 1 N wr $end
$var wire 32 O address [31:0] $end
$var wire 32 P data_in [31:0] $end
$var reg 32 Q data_out [31:0] $end
$var reg 1 R mem_wr $end
$var reg 1 S mem_rd $end
$var reg 4 T mem_be [3:0] $end
$var reg 32 U mem_address [31:0] $end
$var reg 32 V mem_data_in [31:0] $end
$var wire 32 W mem_data_out [31:0] $end
$var reg 1 X sel $end
$var reg 1 Y enable $end
$var reg 1 Z write $end
$var reg 4 [ strobe [3:0] $end
$var reg 32 \ addr [31:0] $end
$var reg 32 ] wdata [31:0] $end
$var reg 1 ^ ready $end
$var reg 1 _ slverr $end
$var reg 32 ` rdata [31:0] $end
$scope module bridge $end
$var wire 1 I clk $end
$var wire 1 J rst_n $end
$var wire 2 K dsel [1:0] $end
$var wire 4 L strb [3:0] $end
$var wire 1 M trnsfr $end
$var wire 1 N wr $end
$var wire 32 O address [31:0] $end
$var wire 32 P data_in [31:0] $end
$var reg 32 Q data_out [31:0] $end
$var reg 1 R mem_wr $end
$var reg 1 S mem_rd $end
$var reg 4 T mem_be [3:0] $end
$var reg 32 U mem_address [31:0] $end
$var reg 32 V mem_data_in [31:0] $end
$var wire 32 W mem_data_out [31:0] $end
$upscope $end
$scope module master $end
$var wire 1 I clk $end
$var wire 1 J rst_n $end
$var wire 2 K dsel [1:0] $end
$var wire 4 L strb [3:0] $end
$var wire 1 M trnsfr $end
$var wire 1 N wr $end
$var wire 32 O address [31:0] $end
$var wire 32 P data_in [31:0] $end
$var reg 32 Q data_out [31:0] $end
$var reg 1 X sel $end
$var reg 1 Y enable $end
$var reg 1 Z write $end
$var reg 4 [ strobe [3:0] $end
$var reg 32 \ addr [31:0] $end
$var reg 32 ] wdata [31:0] $end
$var reg 1 ^ ready $end
$var reg 1 _ slverr $end
$var reg 32 ` rdata [31:0] $end
$upscope $end
$scope module slave $end
$var wire 1 I clk $end
$var wire 1 J rst_n $end
$var wire 1 M trnsfr $end
$var reg 1 R mem_wr $end
$var reg 1 S mem_rd $end
$var reg 4 T mem_be [3:0] $end
$var reg 32 U mem_address [31:0] $end
$var reg 32 V mem_data_in [31:0] $end
$var wire 32 W mem_data_out [31:0] $end
$var reg 1 X sel $end
$var reg 1 Y enable $end
$var reg 1 Z write $end
$var reg 4 [ strobe [3:0] $end
$var reg 32 \ addr [31:0] $end
$var reg 32 ] wdata [31:0] $end
$var reg 1 ^ ready $end
$var reg 1 _ slverr $end
$var reg 32 ` rdata [31:0] $end
$upscope $end
$upscope $end
$scope module pmaster $end
$var reg 2 a m_state [1:0] $end
$var reg 2 b m_nxt_state [1:0] $end
$var reg 2 c strb_reg [1:0] $end
$var reg 1 d wr_reg $end
$var reg 32 e address_reg [31:0] $end
$var reg 32 f data_in_reg [31:0] $end
$scope module mbus $end
$var wire 1 I clk $end
$var wire 1 J rst_n $end
$var wire 2 K dsel [1:0] $end
$var wire 4 L strb [3:0] $end
$var wire 1 M trnsfr $end
$var wire 1 N wr $end
$var wire 32 O address [31:0] $end
$var wire 32 P data_in [31:0] $end
$var reg 32 Q data_out [31:0] $end
$var reg 1 R mem_wr $end
$var reg 1 S mem_rd $end
$var reg 4 T mem_be [3:0] $end
$var reg 32 U mem_address [31:0] $end
$var reg 32 V mem_data_in [31:0] $end
$var wire 32 W mem_data_out [31:0] $end
$var reg 1 X sel $end
$var reg 1 Y enable $end
$var reg 1 Z write $end
$var reg 4 [ strobe [3:0] $end
$var reg 32 \ addr [31:0] $end
$var reg 32 ] wdata [31:0] $end
$var reg 1 ^ ready $end
$var reg 1 _ slverr $end
$var reg 32 ` rdata [31:0] $end
$scope module bridge $end
$var wire 1 I clk $end
$var wire 1 J rst_n $end
$var wire 2 K dsel [1:0] $end
$var wire 4 L strb [3:0] $end
$var wire 1 M trnsfr $end
$var wire 1 N wr $end
$var wire 32 O address [31:0] $end
$var wire 32 P data_in [31:0] $end
$var reg 32 Q data_out [31:0] $end
$var reg 1 R mem_wr $end
$var reg 1 S mem_rd $end
$var reg 4 T mem_be [3:0] $end
$var reg 32 U mem_address [31:0] $end
$var reg 32 V mem_data_in [31:0] $end
$var wire 32 W mem_data_out [31:0] $end
$upscope $end
$scope module master $end
$var wire 1 I clk $end
$var wire 1 J rst_n $end
$var wire 2 K dsel [1:0] $end
$var wire 4 L strb [3:0] $end
$var wire 1 M trnsfr $end
$var wire 1 N wr $end
$var wire 32 O address [31:0] $end
$var wire 32 P data_in [31:0] $end
$var reg 32 Q data_out [31:0] $end
$var reg 1 X sel $end
$var reg 1 Y enable $end
$var reg 1 Z write $end
$var reg 4 [ strobe [3:0] $end
$var reg 32 \ addr [31:0] $end
$var reg 32 ] wdata [31:0] $end
$var reg 1 ^ ready $end
$var reg 1 _ slverr $end
$var reg 32 ` rdata [31:0] $end
$upscope $end
$scope module slave $end
$var wire 1 I clk $end
$var wire 1 J rst_n $end
$var wire 1 M trnsfr $end
$var reg 1 R mem_wr $end
$var reg 1 S mem_rd $end
$var reg 4 T mem_be [3:0] $end
$var reg 32 U mem_address [31:0] $end
$var reg 32 V mem_data_in [31:0] $end
$var wire 32 W mem_data_out [31:0] $end
$var reg 1 X sel $end
$var reg 1 Y enable $end
$var reg 1 Z write $end
$var reg 4 [ strobe [3:0] $end
$var reg 32 \ addr [31:0] $end
$var reg 32 ] wdata [31:0] $end
$var reg 1 ^ ready $end
$var reg 1 _ slverr $end
$var reg 32 ` rdata [31:0] $end
$upscope $end
$upscope $end
$upscope $end
$scope module pslave $end
$var reg 2 g s_state [1:0] $end
$var reg 2 h s_nxt_state [1:0] $end
$var reg 1 i enable_reg $end
$scope module sbus $end
$var wire 1 I clk $end
$var wire 1 J rst_n $end
$var wire 2 K dsel [1:0] $end
$var wire 4 L strb [3:0] $end
$var wire 1 M trnsfr $end
$var wire 1 N wr $end
$var wire 32 O address [31:0] $end
$var wire 32 P data_in [31:0] $end
$var reg 32 Q data_out [31:0] $end
$var reg 1 R mem_wr $end
$var reg 1 S mem_rd $end
$var reg 4 T mem_be [3:0] $end
$var reg 32 U mem_address [31:0] $end
$var reg 32 V mem_data_in [31:0] $end
$var wire 32 W mem_data_out [31:0] $end
$var reg 1 X sel $end
$var reg 1 Y enable $end
$var reg 1 Z write $end
$var reg 4 [ strobe [3:0] $end
$var reg 32 \ addr [31:0] $end
$var reg 32 ] wdata [31:0] $end
$var reg 1 ^ ready $end
$var reg 1 _ slverr $end
$var reg 32 ` rdata [31:0] $end
$scope module bridge $end
$var wire 1 I clk $end
$var wire 1 J rst_n $end
$var wire 2 K dsel [1:0] $end
$var wire 4 L strb [3:0] $end
$var wire 1 M trnsfr $end
$var wire 1 N wr $end
$var wire 32 O address [31:0] $end
$var wire 32 P data_in [31:0] $end
$var reg 32 Q data_out [31:0] $end
$var reg 1 R mem_wr $end
$var reg 1 S mem_rd $end
$var reg 4 T mem_be [3:0] $end
$var reg 32 U mem_address [31:0] $end
$var reg 32 V mem_data_in [31:0] $end
$var wire 32 W mem_data_out [31:0] $end
$upscope $end
$scope module master $end
$var wire 1 I clk $end
$var wire 1 J rst_n $end
$var wire 2 K dsel [1:0] $end
$var wire 4 L strb [3:0] $end
$var wire 1 M trnsfr $end
$var wire 1 N wr $end
$var wire 32 O address [31:0] $end
$var wire 32 P data_in [31:0] $end
$var reg 32 Q data_out [31:0] $end
$var reg 1 X sel $end
$var reg 1 Y enable $end
$var reg 1 Z write $end
$var reg 4 [ strobe [3:0] $end
$var reg 32 \ addr [31:0] $end
$var reg 32 ] wdata [31:0] $end
$var reg 1 ^ ready $end
$var reg 1 _ slverr $end
$var reg 32 ` rdata [31:0] $end
$upscope $end
$scope module slave $end
$var wire 1 I clk $end
$var wire 1 J rst_n $end
$var wire 1 M trnsfr $end
$var reg 1 R mem_wr $end
$var reg 1 S mem_rd $end
$var reg 4 T mem_be [3:0] $end
$var reg 32 U mem_address [31:0] $end
$var reg 32 V mem_data_in [31:0] $end
$var wire 32 W mem_data_out [31:0] $end
$var reg 1 X sel $end
$var reg 1 Y enable $end
$var reg 1 Z write $end
$var reg 4 [ strobe [3:0] $end
$var reg 32 \ addr [31:0] $end
$var reg 32 ] wdata [31:0] $end
$var reg 1 ^ ready $end
$var reg 1 _ slverr $end
$var reg 32 ` rdata [31:0] $end
$upscope $end
$upscope $end
$upscope $end
$upscope $end
$scope module memory $end
$scope module membus $end
$var wire 1 B clk $end
$var wire 1 C rst_n $end
$var wire 1 D mem_wr $end
$var wire 1 E mem_rd $end
$var wire 4 F mem_be [3:0] $end
$var wire 32 G mem_address [31:0] $end
$var wire 32 H mem_data_in [31:0] $end
$var reg 32 / mem_data_out [31:0] $end
$scope module mem $end
$var wire 1 B clk $end
$var wire 1 C rst_n $end
$var wire 1 D mem_wr $end
$var wire 1 E mem_rd $end
$var wire 4 F mem_be [3:0] $end
$var wire 32 G mem_address [31:0] $end
$var wire 32 H mem_data_in [31:0] $end
$var reg 32 / mem_data_out [31:0] $end
$upscope $end
$upscope $end
$scope begin Block20_9 $end
$var reg 32 j i $end
$scope begin Block22_10 $end
$var reg 32 k j $end
$upscope $end
$upscope $end
$upscope $end
$scope begin Block70_23 $end
$var reg 32 l i $end
$upscope $end
$scope begin Block75_24 $end
$var reg 32 m i $end
$upscope $end
$scope begin Block82_25 $end
$var reg 32 n i $end
$upscope $end
$scope begin Block87_26 $end
$var reg 32 o i $end
$upscope $end
$scope begin Block94_27 $end
$var reg 32 p i $end
$upscope $end
$scope begin Block99_28 $end
$var reg 32 q i $end
$upscope $end
$scope begin Block107_29 $end
$var reg 32 r i $end
$upscope $end
$scope begin Block113_30 $end
$var reg 32 s i $end
$upscope $end
$scope begin Block119_31 $end
$var reg 32 t i $end
$upscope $end
$scope begin Block150_33 $end
$var reg 32 u wmemtrnsf_fd $end
$scope begin Block150_34 $end
$var reg 32 v i2 $end
$scope begin Block150_35 $end
$var reg 32 w i1 $end
$upscope $end
$upscope $end
$upscope $end
$scope task async_reset $end
$upscope $end
$scope task single_write $end
$var reg 32 x address_sr [31:0] $end
$var reg 2 y dsel_sw [1:0] $end
$var reg 32 z data_sr [31:0] $end
$upscope $end
$scope task single_read $end
$var reg 32 { address_sr [31:0] $end
$var reg 2 | dsel_sr [1:0] $end
$upscope $end
$scope task burst_write $end
$var reg 32 } address_sr [31:0] $end
$var reg 2 ~ dsel_bw [1:0] $end
$var reg 32 !! data_sr [31:0] $end
$var reg 32 "! count $end
$scope begin Block197_36 $end
$var reg 32 #! i $end
$upscope $end
$upscope $end
$scope task burst_read $end
$var reg 32 $! address_sr [31:0] $end
$var reg 2 %! dsel_br [1:0] $end
$var reg 32 &! count $end
$scope begin Block216_37 $end
$var reg 32 '! i $end
$upscope $end
$upscope $end
$upscope $end
$enddefinitions $end
#0
$dumpvars
0!
b0 !!
0"
b0 "!
b0 #
b0 #!
b0 $
b0 $!
0%
b0 %!
0&
b0 &!
b0 '
b0 '!
b0 (
b0 )
0*
0+
b0 ,
b0 -
b0 .
bx /
00
01
b0 2
b0 3
04
05
b0 6
b0 7
bx 8
x9
x:
x;
bx <
bx =
bx >
x?
x@
bx A
0B
0C
0D
0E
b0 F
b0 G
b0 H
0I
0J
b0 K
b0 L
0M
0N
b0 O
b0 P
b0 Q
0R
0S
b0 T
b0 U
b0 V
bx W
0X
0Y
0Z
b0 [
b0 \
b0 ]
0^
0_
b0 `
b0 a
b0 b
b0 c
0d
b0 e
b0 f
b0 g
b0 h
0i
b100 j
b100000000 k
b0 l
b0 m
b0 n
b0 o
b0 p
b0 q
b0 r
b0 s
b0 t
b0 u
b0 v
b0 w
b0 x
b0 y
b0 z
b0 {
b0 |
b0 }
b0 ~
$end
#5
1!
b0 /
10
b0 8
1B
1I
0R
0S
b0 T
b0 U
b0 V
b0 W
0^
0_
b0 `
b0 a
b0 c
0d
b0 e
b0 f
b0 g
0i
#10
0!
00
0B
0I
#15
1!
b0 /
10
1B
1I
b0 a
b0 c
0d
b0 e
b0 f
b0 g
0i
#20
0!
00
0B
0I
#25
1!
b0 /
10
1B
1I
b0 a
b0 c
0d
b0 e
b0 f
b0 g
0i
#30
0!
00
0B
0I
#35
1!
b0 /
10
1B
1I
b0 a
b0 c
0d
b0 e
b0 f
b0 g
0i
#40
0!
00
0B
0I
#45
1!
1"
b0 /
10
11
1B
1C
1I
1J
b0 a
b0 c
0d
b0 e
b0 f
b0 g
0i
b0 l
b11110000 x
b0 y
b10100011001000010000 z
#50
0!
00
0B
0I
#55
1!
b0 $
1%
1&
b11110000 '
b10100011001000010000 (
b0 /
10
14
15
b11110000 6
b10100011001000010000 7
1B
1I
1M
1N
b11110000 O
b10100011001000010000 P
b0 a
b1 b
b0 c
0d
b0 e
b0 f
b0 g
b0 h
0i
#60
0!
00
0B
0I
#65
1!
0%
0&
b0 /
10
04
05
1B
1I
0M
0N
b0 Q
0R
0S
b0 T
b0 U
b0 V
1X
0Y
1Z
b0 [
b11110000 \
b10100011001000010000 ]
0^
0_
b0 `
b1 a
b10 b
b0 c
1d
b11110000 e
b10100011001000010000 f
b0 g
b1 h
0i
#70
0!
00
0B
0I
#75
1!
1*
b1111 ,
b11110000 -
b10100011001000010000 .
b0 /
10
1B
1D
b1111 F
b11110000 G
b10100011001000010000 H
1I
b0 Q
1R
0S
b1111 T
b11110000 U
b10100011001000010000 V
1X
1Y
1Z
b1111 [
b11110000 \
b10100011001000010000 ]
0^
0_
b0 `
b10 a
b10 b
b0 c
1d
b11110000 e
b10100011001000010000 f
b1 g
b10 h
0i
#80
0!
00
0B
0I
#85
1!
b0 /
10
1B
1I
b0 Q
1R
0S
b1111 T
b11110000 U
b10100011001000010000 V
1X
1Y
1Z
b1111 [
b11110000 \
b10100011001000010000 ]
1^
0_
b0 `
b10 a
b0 b
b0 c
1d
b11110000 e
b10100011001000010000 f
b10 g
b0 h
1i
#90
0!
00
0B
0I
#95
1!
0*
b0 ,
b0 -
b0 .
b0 /
10
1B
0D
b0 F
b0 G
b0 H
1I
b0 Q
0R
0S
b0 T
b0 U
b0 V
0X
0Y
0Z
b0 [
b0 \
b0 ]
0^
0_
b0 `
b0 a
b0 b
b0 c
1d
b11110000 e
b10100011001000010000 f
b0 g
b0 h
1i
b1 l
b11110001 x
b0 y
b10100011001000010001 z
#100
0!
00
0B
0I
#105
1!
b0 $
1%
1&
b11110001 '
b10100011001000010001 (
b0 /
10
14
15
b11110001 6
b10100011001000010001 7
1B
1I
1M
1N
b11110001 O
b10100011001000010001 P
b0 a
b1 b
b0 c
1d
b11110000 e
b10100011001000010000 f
b0 g
b0 h
0i
#110
0!
00
0B
0I
#115
1!
0%
0&
b0 /
10
04
05
1B
1I
0M
0N
b0 Q
0R
0S
b0 T
b0 U
b0 V
1X
0Y
1Z
b0 [
b11110001 \
b10100011001000010001 ]
0^
0_
b0 `
b1 a
b10 b
b0 c
1d
b11110001 e
b10100011001000010001 f
b0 g
b1 h
0i
#120
0!
00
0B
0I
#125
1!
1*
b1111 ,
b11110001 -
b10100011001000010001 .
b0 /
10
1B
1D
b1111 F
b11110001 G
b10100011001000010001 H
1I
b0 Q
1R
0S
b1111 T
b11110001 U
b10100011001000010001 V
1X
1Y
1Z
b1111 [
b11110001 \
b10100011001000010001 ]
0^
0_
b0 `
b10 a
b10 b
b0 c
1d
b11110001 e
b10100011001000010001 f
b1 g
b10 h
0i
#130
0!
00
0B
0I
#135
1!
b0 /
10
1B
1I
b0 Q
1R
0S
b1111 T
b11110001 U
b10100011001000010001 V
1X
1Y
1Z
b1111 [
b11110001 \
b10100011001000010001 ]
1^
0_
b0 `
b10 a
b0 b
b0 c
1d
b11110001 e
b10100011001000010001 f
b10 g
b0 h
1i
#140
0!
00
0B
0I
#145
1!
0*
b0 ,
b0 -
b0 .
b0 /
10
1B
0D
b0 F
b0 G
b0 H
1I
b0 Q
0R
0S
b0 T
b0 U
b0 V
0X
0Y
0Z
b0 [
b0 \
b0 ]
0^
0_
b0 `
b0 a
b0 b
b0 c
1d
b11110001 e
b10100011001000010001 f
b0 g
b0 h
1i
b10 l
b11110010 x
b0 y
b10100011001000010010 z
#150
0!
00
0B
0I
#155
1!
b0 $
1%
1&
b11110010 '
b10100011001000010010 (
b0 /
10
14
15
b11110010 6
b10100011001000010010 7
1B
1I
1M
1N
b11110010 O
b10100011001000010010 P
b0 a
b1 b
b0 c
1d
b11110001 e
b10100011001000010001 f
b0 g
b0 h
0i
#160
0!
00
0B
0I
#165
1!
0%
0&
b0 /
10
04
05
1B
1I
0M
0N
b0 Q
0R
0S
b0 T
b0 U
b0 V
1X
0Y
1Z
b0 [
b11110010 \
b10100011001000010010 ]
0^
0_
b0 `
b1 a
b10 b
b0 c
1d
b11110010 e
b10100011001000010010 f
b0 g
b1 h
0i
#170
0!
00
0B
0I
#175
1!
1*
b1111 ,
b11110010 -
b10100011001000010010 .
b0 /
10
1B
1D
b1111 F
b11110010 G
b10100011001000010010 H
1I
b0 Q
1R
0S
b1111 T
b11110010 U
b10100011001000010010 V
1X
1Y
1Z
b1111 [
b11110010 \
b10100011001000010010 ]
0^
0_
b0 `
b10 a
b10 b
b0 c
1d
b11110010 e
b10100011001000010010 f
b1 g
b10 h
0i
#180
0!
00
0B
0I
#185
1!
b0 /
10
1B
1I
b0 Q
1R
0S
b1111 T
b11110010 U
b10100011001000010010 V
1X
1Y
1Z
b1111 [
b11110010 \
b10100011001000010010 ]
1^
0_
b0 `
b10 a
b0 b
b0 c
1d
b11110010 e
b10100011001000010010 f
b10 g
b0 h
1i
#190
0!
00
0B
0I
#195
1!
0*
b0 ,
b0 -
b0 .
b0 /
10
1B
0D
b0 F
b0 G
b0 H
1I
b0 Q
0R
0S
b0 T
b0 U
b0 V
0X
0Y
0Z
b0 [
b0 \
b0 ]
0^
0_
b0 `
b0 a
b0 b
b0 c
1d
b11110010 e
b10100011001000010010 f
b0 g
b0 h
1i
b11 l
b11110011 x
b0 y
b10100011001000010011 z
#200
0!
00
0B
0I
#205
1!
b0 $
1%
1&
b11110011 '
b10100011001000010011 (
b0 /
10
14
15
b11110011 6
b10100011001000010011 7
1B
1I
1M
1N
b11110011 O
b10100011001000010011 P
b0 a
b1 b
b0 c
1d
b11110010 e
b10100011001000010010 f
b0 g
b0 h
0i
#210
0!
00
0B
0I
#215
1!
0%
0&
b0 /
10
04
05
1B
1I
0M
0N
b0 Q
0R
0S
b0 T
b0 U
b0 V
1X
0Y
1Z
b0 [
b11110011 \
b10100011001000010011 ]
0^
0_
b0 `
b1 a
b10 b
b0 c
1d
b11110011 e
b10100011001000010011 f
b0 g
b1 h
0i
#220
0!
00
0B
0I
#225
1!
1*
b1111 ,
b11110011 -
b10100011001000010011 .
b0 /
10
1B
1D
b1111 F
b11110011 G
b10100011001000010011 H
1I
b0 Q
1R
0S
b1111 T
b11110011 U
b10100011001000010011 V
1X
1Y
1Z
b1111 [
b11110011 \
b10100011001000010011 ]
0^
0_
b0 `
b10 a
b10 b
b0 c
1d
b11110011 e
b10100011001000010011 f
b1 g
b10 h
0i
#230
0!
00
0B
0I
#235
1!
b0 /
10
1B
1I
b0 Q
1R
0S
b1111 T
b11110011 U
b10100011001000010011 V
1X
1Y
1Z
b1111 [
b11110011 \
b10100011001000010011 ]
1^
0_
b0 `
b10 a
b0 b
b0 c
1d
b11110011 e
b10100011001000010011 f
b10 g
b0 h
1i
#240
0!
00
0B
0I
#245
1!
0*
b0 ,
b0 -
b0 .
b0 /
10
1B
0D
b0 F
b0 G
b0 H
1I
b0 Q
0R
0S
b0 T
b0 U
b0 V
0X
0Y
0Z
b0 [
b0 \
b0 ]
0^
0_
b0 `
b0 a
b0 b
b0 c
1d
b11110011 e
b10100011001000010011 f
b0 g
b0 h
1i
b100 l
b11110100 x
b0 y
b10100011001000010100 z
#250
0!
00
0B
0I
#255
1!
b0 $
1%
1&
b11110100 '
b10100011001000010100 (
b0 /
10
14
15
b11110100 6
b10100011001000010100 7
1B
1I
1M
1N
b11110100 O
b10100011001000010100 P
b0 a
b1 b
b0 c
1d
b11110011 e
b10100011001000010011 f
b0 g
b0 h
0i
#260
0!
00
0B
0I
#265
1!
0%
0&
b0 /
10
04
05
1B
1I
0M
0N
b0 Q
0R
0S
b0 T
b0 U
b0 V
1X
0Y
1Z
b0 [
b11110100 \
b10100011001000010100 ]
0^
0_
b0 `
b1 a
b10 b
b0 c
1d
b11110100 e
b10100011001000010100 f
b0 g
b1 h
0i
#270
0!
00
0B
0I
#275
1!
1*
b1111 ,
b11110100 -
b10100011001000010100 .
b0 /
10
1B
1D
b1111 F
b11110100 G
b10100011001000010100 H
1I
b0 Q
1R
0S
b1111 T
b11110100 U
b10100011001000010100 V
1X
1Y
1Z
b1111 [
b11110100 \
b10100011001000010100 ]
0^
0_
b0 `
b10 a
b10 b
b0 c
1d
b11110100 e
b10100011001000010100 f
b1 g
b10 h
0i
#280
0!
00
0B
0I
#285
1!
b0 /
10
1B
1I
b0 Q
1R
0S
b1111 T
b11110100 U
b10100011001000010100 V
1X
1Y
1Z
b1111 [
b11110100 \
b10100011001000010100 ]
1^
0_
b0 `
b10 a
b0 b
b0 c
1d
b11110100 e
b10100011001000010100 f
b10 g
b0 h
1i
#290
0!
00
0B
0I
#295
1!
0*
b0 ,
b0 -
b0 .
b0 /
10
1B
0D
b0 F
b0 G
b0 H
1I
b0 Q
0R
0S
b0 T
b0 U
b0 V
0X
0Y
0Z
b0 [
b0 \
b0 ]
0^
0_
b0 `
b0 a
b0 b
b0 c
1d
b11110100 e
b10100011001000010100 f
b0 g
b0 h
1i
b101 l
b11110101 x
b0 y
b10100011001000010101 z
#300
0!
00
0B
0I
#305
1!
b0 $
1%
1&
b11110101 '
b10100011001000010101 (
b0 /
10
14
15
b11110101 6
b10100011001000010101 7
1B
1I
1M
1N
b11110101 O
b10100011001000010101 P
b0 a
b1 b
b0 c
1d
b11110100 e
b10100011001000010100 f
b0 g
b0 h
0i
#310
0!
00
0B
0I
#315
1!
0%
0&
b0 /
10
04
05
1B
1I
0M
0N
b0 Q
0R
0S
b0 T
b0 U
b0 V
1X
0Y
1Z
b0 [
b11110101 \
b10100011001000010101 ]
0^
0_
b0 `
b1 a
b10 b
b0 c
1d
b11110101 e
b10100011001000010101 f
b0 g
b1 h
0i
#320
0!
00
0B
0I
#325
1!
1*
b1111 ,
b11110101 -
b10100011001000010101 .
b0 /
10
1B
1D
b1111 F
b11110101 G
b10100011001000010101 H
1I
b0 Q
1R
0S
b1111 T
b11110101 U
b10100011001000010101 V
1X
1Y
1Z
b1111 [
b11110101 \
b10100011001000010101 ]
0^
0_
b0 `
b10 a
b10 b
b0 c
1d
b11110101 e
b10100011001000010101 f
b1 g
b10 h
0i
#330
0!
00
0B
0I
